lab3/lab3/log/waveform_2.vcd
$date
	Mon Dec 25 04:26:21 2023
$end
$version
	Icarus Verilog
$end
$timescale
	1s
$end
$scope module TestBench $end
$var reg 1 ! Clk $end
$var reg 1 " Reset $end
$var integer 32 # counter [31:0] $end
$var integer 32 $ i [31:0] $end
$var integer 32 % outfile [31:0] $end
$scope module CPU $end
$var wire 1 ! clk_i $end
$var wire 1 " rst_i $end
$var wire 1 & predict_o $end
$var wire 32 ' pc_o [31:0] $end
$var wire 32 ( pc_i [31:0] $end
$var wire 32 ) instr_o [31:0] $end
$var wire 10 * funct_i [9:0] $end
$var wire 1 + flush $end
$var wire 1 , branch_result_o $end
$var wire 32 - branch_PC [31:0] $end
$var wire 1 . Zero_o $end
$var wire 1 / Stall_o $end
$var wire 1 0 RegWrite_o $end
$var wire 32 1 RS2data_o [31:0] $end
$var wire 5 2 RS2addr_i [4:0] $end
$var wire 32 3 RS1data_o [31:0] $end
$var wire 5 4 RS1addr_i [4:0] $end
$var wire 32 5 RDdata_i [31:0] $end
$var wire 5 6 RDaddr_i [4:0] $end
$var wire 1 7 PCWrite $end
$var wire 7 8 Opcode [6:0] $end
$var wire 1 9 NoOp_o $end
$var wire 1 : MemtoReg_o $end
$var wire 32 ; Memdata_o [31:0] $end
$var wire 1 < MemWrite_o $end
$var wire 1 = MemRead_o $end
$var wire 1 > MEM_WB_RegWrite_o $end
$var wire 5 ? MEM_WB_RDaddr_o [4:0] $end
$var wire 1 @ MEM_WB_MemtoReg_o $end
$var wire 32 A MEM_WB_Memdata_o [31:0] $end
$var wire 32 B MEM_WB_ALU_result_o [31:0] $end
$var wire 32 C Imm_o [31:0] $end
$var wire 12 D Imm_i [11:0] $end
$var wire 32 E IF_ID_pc_o [31:0] $end
$var wire 32 F IF_ID_instr_o [31:0] $end
$var wire 32 G IFID_branch_PC [31:0] $end
$var wire 1 H IFID_Flush $end
$var wire 32 I ID_EX_pc_o [31:0] $end
$var wire 10 J ID_EX_funct_o [9:0] $end
$var wire 1 K ID_EX_RegWrite_o $end
$var wire 32 L ID_EX_RS2data_o [31:0] $end
$var wire 5 M ID_EX_RS2addr_o [4:0] $end
$var wire 32 N ID_EX_RS1data_o [31:0] $end
$var wire 5 O ID_EX_RS1addr_o [4:0] $end
$var wire 5 P ID_EX_RDaddr_o [4:0] $end
$var wire 1 Q ID_EX_MemtoReg_o $end
$var wire 1 R ID_EX_MemWrite_o $end
$var wire 1 S ID_EX_MemRead_o $end
$var wire 32 T ID_EX_Imm_o [31:0] $end
$var wire 1 U ID_EX_Branch_o $end
$var wire 1 V ID_EX_ALUSrc_o $end
$var wire 2 W ID_EX_ALUOp_o [1:0] $end
$var wire 32 X IDEX_branch_PC [31:0] $end
$var wire 1 Y IDEX_Flush $end
$var wire 32 Z ForwardBdata_o [31:0] $end
$var wire 2 [ ForwardB_o [1:0] $end
$var wire 32 \ ForwardAdata_o [31:0] $end
$var wire 2 ] ForwardA_o [1:0] $end
$var wire 1 ^ EX_MEM_RegWrite_o $end
$var wire 32 _ EX_MEM_RS2data_o [31:0] $end
$var wire 5 ` EX_MEM_RDaddr_o [4:0] $end
$var wire 1 a EX_MEM_MemtoReg_o $end
$var wire 1 b EX_MEM_MemWrite_o $end
$var wire 1 c EX_MEM_MemRead_o $end
$var wire 32 d EX_MEM_ALU_result_o [31:0] $end
$var wire 1 e Branch_o $end
$var wire 32 f Add_PC_o [31:0] $end
$var wire 32 g ALUdata_o [31:0] $end
$var wire 32 h ALUdata_i [31:0] $end
$var wire 1 i ALUSrc_o $end
$var wire 2 j ALUOp_o [1:0] $end
$var wire 3 k ALUCtrl_o [2:0] $end
$var integer 32 l i [31:0] $end
$scope module ALU $end
$var wire 32 m data_o [31:0] $end
$var wire 32 n data2_i [31:0] $end
$var wire 32 o data1_i [31:0] $end
$var wire 1 . Zero_o $end
$var wire 3 p ALUCtrl_i [2:0] $end
$var reg 32 q result [31:0] $end
$upscope $end
$scope module ALU_Control $end
$var wire 10 r funct_i [9:0] $end
$var wire 2 s ALUOp_i [1:0] $end
$var wire 3 t ALUCtrl_o [2:0] $end
$upscope $end
$scope module Add_PC $end
$var wire 32 u data2_in [31:0] $end
$var wire 32 v data_o [31:0] $end
$var wire 32 w data1_in [31:0] $end
$upscope $end
$scope module Control $end
$var wire 7 x Op_i [6:0] $end
$var wire 1 0 RegWrite_o $end
$var wire 1 9 NoOp_i $end
$var wire 1 : MemtoReg_o $end
$var wire 1 < MemWrite_o $end
$var wire 1 = MemRead_o $end
$var wire 1 e Branch_o $end
$var wire 1 i ALUSrc_o $end
$var wire 2 y ALUOp_o [1:0] $end
$upscope $end
$scope module Data_Memory $end
$var wire 1 ! clk_i $end
$var wire 32 z data_o [31:0] $end
$var wire 32 { data_i [31:0] $end
$var wire 32 | addr_i [31:0] $end
$var wire 1 b MemWrite_i $end
$var wire 1 c MemRead_i $end
$upscope $end
$scope module EX_MEM $end
$var wire 32 } ALU_result_i [31:0] $end
$var wire 1 ! clk_i $end
$var wire 1 " rst_i $end
$var wire 1 K RegWrite_i $end
$var wire 32 ~ RS2data_i [31:0] $end
$var wire 5 !" RDaddr_i [4:0] $end
$var wire 1 Q MemtoReg_i $end
$var wire 1 R MemWrite_i $end
$var wire 1 S MemRead_i $end
$var reg 32 "" ALU_result_o [31:0] $end
$var reg 1 c MemRead_o $end
$var reg 1 b MemWrite_o $end
$var reg 1 a MemtoReg_o $end
$var reg 5 #" RDaddr_o [4:0] $end
$var reg 32 $" RS2data_o [31:0] $end
$var reg 1 ^ RegWrite_o $end
$upscope $end
$scope module Flush $end
$var wire 32 %" IFID_branch_PC_i [31:0] $end
$var wire 1 H IFID_Flush_i $end
$var wire 32 &" IDEX_branch_PC_i [31:0] $end
$var wire 1 Y IDEX_Flush_i $end
$var reg 1 + IFID_Flush_o $end
$var reg 32 '" branch_PC_o [31:0] $end
$upscope $end
$scope module ForwardA $end
$var wire 32 (" data3_i [31:0] $end
$var wire 2 )" select_i [1:0] $end
$var wire 32 *" data_o [31:0] $end
$var wire 32 +" data2_i [31:0] $end
$var wire 32 ," data1_i [31:0] $end
$upscope $end
$scope module ForwardB $end
$var wire 32 -" data3_i [31:0] $end
$var wire 2 ." select_i [1:0] $end
$var wire 32 /" data_o [31:0] $end
$var wire 32 0" data2_i [31:0] $end
$var wire 32 1" data1_i [31:0] $end
$upscope $end
$scope module ForwardingUnit $end
$var wire 5 2" MEM_RDaddr_i [4:0] $end
$var wire 1 ^ MEM_RegWrite_i $end
$var wire 1 > WB_RegWrite_i $end
$var wire 5 3" WB_RDaddr_i [4:0] $end
$var wire 5 4" EX_RS2addr_i [4:0] $end
$var wire 5 5" EX_RS1addr_i [4:0] $end
$var reg 2 6" ForwardA_o [1:0] $end
$var reg 2 7" ForwardB_o [1:0] $end
$upscope $end
$scope module Hazard_Detection $end
$var wire 5 8" RS1addr_i [4:0] $end
$var wire 5 9" RS2addr_i [4:0] $end
$var wire 5 :" RDaddr_i [4:0] $end
$var wire 1 S MemRead_i $end
$var reg 1 9 NoOp_o $end
$var reg 1 7 PCWrite_o $end
$var reg 1 / Stall_o $end
$upscope $end
$scope module ID_Branch_Unit $end
$var wire 1 e Branch_i $end
$var wire 1 & predict_i $end
$var wire 32 ;" PC_o [31:0] $end
$var wire 32 <" PC_i [31:0] $end
$var wire 32 =" Imm_i [31:0] $end
$var reg 1 H Flush_o $end
$upscope $end
$scope module ID_EX $end
$var wire 2 >" ALUOp_i [1:0] $end
$var wire 1 i ALUSrc_i $end
$var wire 1 e Branch_i $end
$var wire 1 = MemRead_i $end
$var wire 1 < MemWrite_i $end
$var wire 1 : MemtoReg_i $end
$var wire 5 ?" RDaddr_i [4:0] $end
$var wire 5 @" RS1addr_i [4:0] $end
$var wire 5 A" RS2addr_i [4:0] $end
$var wire 1 0 RegWrite_i $end
$var wire 1 ! clk_i $end
$var wire 10 B" funct_i [9:0] $end
$var wire 1 " rst_i $end
$var wire 1 Y flush_i $end
$var wire 32 C" data2_i [31:0] $end
$var wire 32 D" data1_i [31:0] $end
$var wire 32 E" PC_i [31:0] $end
$var wire 32 F" Imm_i [31:0] $end
$var reg 2 G" ALUOp_o [1:0] $end
$var reg 1 V ALUSrc_o $end
$var reg 1 U Branch_o $end
$var reg 32 H" Imm_o [31:0] $end
$var reg 1 S MemRead_o $end
$var reg 1 R MemWrite_o $end
$var reg 1 Q MemtoReg_o $end
$var reg 32 I" PC_o [31:0] $end
$var reg 5 J" RDaddr_o [4:0] $end
$var reg 5 K" RS1addr_o [4:0] $end
$var reg 5 L" RS2addr_o [4:0] $end
$var reg 1 K RegWrite_o $end
$var reg 32 M" data1_o [31:0] $end
$var reg 32 N" data2_o [31:0] $end
$var reg 10 O" funct_o [9:0] $end
$upscope $end
$scope module IF_ID $end
$var wire 1 ! clk_i $end
$var wire 1 + flush_i $end
$var wire 1 P" rst_i $end
$var wire 1 / stall_i $end
$var wire 1 Q" start_i $end
$var wire 32 R" inst_i [31:0] $end
$var wire 32 S" PC_i [31:0] $end
$var reg 32 T" PC_o [31:0] $end
$var reg 32 U" inst_o [31:0] $end
$upscope $end
$scope module Instruction_Memory $end
$var wire 32 V" instr_o [31:0] $end
$var wire 32 W" addr_i [31:0] $end
$upscope $end
$scope module MEM_WB $end
$var wire 32 X" ALU_result_i [31:0] $end
$var wire 1 a MemtoReg_i $end
$var wire 5 Y" RDaddr_i [4:0] $end
$var wire 1 ^ RegWrite_i $end
$var wire 1 ! clk_i $end
$var wire 32 Z" data_i [31:0] $end
$var wire 1 " rst_i $end
$var reg 32 [" ALU_result_o [31:0] $end
$var reg 1 @ MemtoReg_o $end
$var reg 5 \" RDaddr_o [4:0] $end
$var reg 1 > RegWrite_o $end
$var reg 32 ]" data_o [31:0] $end
$upscope $end
$scope module MUX_ALUSrc $end
$var wire 32 ^" data1_i [31:0] $end
$var wire 32 _" data2_i [31:0] $end
$var wire 1 V select_i $end
$var wire 32 `" data_o [31:0] $end
$upscope $end
$scope module MUX_PC $end
$var wire 32 a" data1_i [31:0] $end
$var wire 32 b" data2_i [31:0] $end
$var wire 1 + select_i $end
$var wire 32 c" data_o [31:0] $end
$upscope $end
$scope module MUX_WriteSrc $end
$var wire 32 d" data1_i [31:0] $end
$var wire 32 e" data2_i [31:0] $end
$var wire 1 @ select_i $end
$var wire 32 f" data_o [31:0] $end
$upscope $end
$scope module PC $end
$var wire 1 7 PCWrite_i $end
$var wire 1 ! clk_i $end
$var wire 32 g" pc_i [31:0] $end
$var wire 1 " rst_i $end
$var reg 32 h" pc_o [31:0] $end
$upscope $end
$scope module Registers $end
$var wire 5 i" RDaddr_i [4:0] $end
$var wire 32 j" RDdata_i [31:0] $end
$var wire 5 k" RS1addr_i [4:0] $end
$var wire 5 l" RS2addr_i [4:0] $end
$var wire 1 > RegWrite_i $end
$var wire 1 ! clk_i $end
$var wire 1 m" rst_i $end
$var wire 32 n" RS2data_o [31:0] $end
$var wire 32 o" RS1data_o [31:0] $end
$var integer 32 p" i [31:0] $end
$upscope $end
$scope module Sign_Extend $end
$var wire 12 q" data_i [11:0] $end
$var wire 32 r" data_o [31:0] $end
$upscope $end
$scope module branch_check $end
$var wire 1 U Branch_i $end
$var wire 32 s" Imm_i [31:0] $end
$var wire 32 t" PC_i [31:0] $end
$var wire 1 & predict_i $end
$var wire 1 , branch_result_i $end
$var reg 1 Y Flush_o $end
$var reg 32 u" PC_o [31:0] $end
$upscope $end
$scope module branch_predictor $end
$var wire 1 U Branch_i $end
$var wire 1 ! clk_i $end
$var wire 1 & result_i $end
$var wire 1 " rst_i $end
$var wire 1 , update_i $end
$var reg 2 v" history [1:0] $end
$var reg 1 & predict_o $end
$upscope $end
$scope module branch_result $end
$var wire 1 U Branch_i $end
$var wire 1 . Zero_i $end
$var wire 1 , result_o $end
$upscope $end
$upscope $end
$upscope $end
$enddefinitions $end
#0
$dumpvars
b11 v"
bx u"
bx t"
b0 s"
b0 r"
b0 q"
bx p"
b0 o"
b0 n"
zm"
b0 l"
b0 k"
b0 j"
b0 i"
b0 h"
b100 g"
b0 f"
b0 e"
b0 d"
b100 c"
bx b"
b100 a"
b0 `"
b0 _"
b0 ^"
b0 ]"
b0 \"
b0 ["
b0 Z"
b0 Y"
b0 X"
b0 W"
b10100000000000100010011 V"
b0 U"
b0 T"
b0 S"
b10100000000000100010011 R"
zQ"
zP"
b0 O"
b0 N"
b0 M"
b0 L"
b0 K"
b0 J"
bx I"
b0 H"
b0 G"
b0 F"
b0 E"
b0 D"
b0 C"
b0 B"
b0 A"
b0 @"
b0 ?"
b0 >"
b0 ="
b0 <"
b0 ;"
b0 :"
b0 9"
b0 8"
b0 7"
b0 6"
b0 5"
b0 4"
b0 3"
b0 2"
b0 1"
b0 0"
b0 /"
b0 ."
b0 -"
b0 ,"
b0 +"
b0 *"
b0 )"
b0 ("
bx '"
bx &"
b0 %"
b0 $"
b0 #"
b0 ""
b0 !"
b0 ~
b0 }
b0 |
b0 {
b0 z
b0 y
b0 x
b0 w
b100 v
b100 u
b110 t
b0 s
b0 r
b0 q
b110 p
b0 o
b0 n
b0 m
b100000 l
b110 k
b0 j
0i
b0 h
b0 g
b100 f
0e
b0 d
0c
0b
0a
b0 `
b0 _
0^
b0 ]
b0 \
b0 [
b0 Z
0Y
bx X
b0 W
0V
0U
b0 T
0S
0R
0Q
b0 P
b0 O
b0 N
b0 M
b0 L
0K
b0 J
bx I
0H
b0 G
b0 F
b0 E
b0 D
b0 C
b0 B
b0 A
0@
b0 ?
0>
0=
0<
b0 ;
0:
09
b0 8
17
b0 6
b0 5
b0 4
b0 3
b0 2
b0 1
00
0/
1.
bx -
0,
0+
b0 *
b10100000000000100010011 )
b100 (
b0 '
1&
b11 %
b100000 $
b0 #
1"
0!
$end
#6
b0 X
b0 &"
b0 u"
b0 I
b0 I"
b0 t"
0"
#12
1"
#25
b1010 G
b1010 %"
b1010 ;"
10
b101 C
b101 ="
b101 F"
b101 r"
b101 D
b101 q"
1i
b100000000000010010011 )
b100000000000010010011 R"
b100000000000010010011 V"
b1000 (
b1000 c"
b1000 g"
b10 6
b10 ?"
b101 2
b101 9"
b101 A"
b101 l"
b10011 8
b10011 x
b1000 f
b1000 v
b1000 a"
b100 '
b100 w
b100 S"
b100 W"
b100 h"
b10100000000000100010011 F
b10100000000000100010011 U"
b1 #
1!
#50
0!
#75
b1 C
b1 ="
b1 F"
b1 r"
b1 D
b1 q"
0.
b101 g
b101 m
b101 }
b101 q
b10000000001000010001100011 )
b10000000001000010001100011 R"
b10000000001000010001100011 V"
b1100 (
b1100 c"
b1100 g"
b101 h
b101 n
b101 `"
b1 6
b1 ?"
b1 2
b1 9"
b1 A"
b1 l"
b1100 f
b1100 v
b1100 a"
b1000 '
b1000 w
b1000 S"
b1000 W"
b1000 h"
b10 P
b10 !"
b10 :"
b10 J"
b101 M
b101 4"
b101 L"
b101 T
b101 H"
b101 _"
b101 s"
1V
1K
b110 G
b110 %"
b110 ;"
b100 E
b100 <"
b100 E"
b100 T"
b100000000000010010011 F
b100000000000010010011 U"
b10 #
1!
#100
0!
#125
b11 j
b11 y
b11 >"
1+
b110000 -
b110000 '"
b110000 b"
00
1H
b10100 C
b10100 ="
b10100 F"
b10100 r"
b10100 D
b10100 q"
0i
1e
b1 g
b1 m
b1 }
b1 q
b1 h
b1 n
b1 `"
b100 X
b100 &"
b100 u"
b100001000000010010011 )
b100001000000010010011 R"
b100001000000010010011 V"
b110000 (
b110000 c"
b110000 g"
b1000 *
b1000 B"
b1000 6
b1000 ?"
b0 2
b0 9"
b0 A"
b0 l"
b1 4
b1 8"
b1 @"
b1 k"
b1100011 8
b1100011 x
b10 `
b10 #"
b10 2"
b10 Y"
b101 d
b101 |
b101 ""
b101 ("
b101 -"
b101 X"
1^
b100 I
b100 I"
b100 t"
b1 P
b1 !"
b1 :"
b1 J"
b1 M
b1 4"
b1 L"
b1 T
b1 H"
b1 _"
b1 s"
b10000 f
b10000 v
b10000 a"
b1100 '
b1100 w
b1100 S"
b1100 W"
b1100 h"
b110000 G
b110000 %"
b110000 ;"
b1000 E
b1000 <"
b1000 E"
b1000 T"
b10000000001000010001100011 F
b10000000001000010001100011 U"
b11 #
1!
#150
0!
#175
b100 k
b100 p
b100 t
b0 j
b0 y
b0 >"
0H
0,
b0 C
b0 ="
b0 F"
b0 r"
b0 D
b0 q"
0e
0.
b1 g
b1 m
b1 }
b1 q
b1 \
b1 o
b1 *"
b1100 (
b1100 c"
b1100 g"
b0 )
b0 R"
b0 V"
b0 h
b0 n
b0 `"
1Y
b1100 X
b1100 &"
b1100 u"
b101 5
b101 +"
b101 0"
b101 f"
b101 j"
b10 ]
b10 )"
b10 6"
b1100 -
b1100 '"
b1100 b"
1+
b0 *
b0 B"
b0 6
b0 ?"
b0 4
b0 8"
b0 @"
b0 k"
b0 8
b0 x
b110100 f
b110100 v
b110100 a"
b110000 '
b110000 w
b110000 S"
b110000 W"
b110000 h"
b1000 I
b1000 I"
b1000 t"
b1000 P
b1000 !"
b1000 :"
b1000 J"
b0 M
b0 4"
b0 L"
b1 O
b1 5"
b1 K"
b1000 J
b1000 r
b1000 O"
b10100 T
b10100 H"
b10100 _"
b10100 s"
0V
b11 W
b11 s
b11 G"
1U
0K
b1 `
b1 #"
b1 2"
b1 Y"
b1 d
b1 |
b1 ""
b1 ("
b1 -"
b1 X"
b10 ?
b10 3"
b10 \"
b10 i"
b101 B
b101 ["
b101 d"
1>
b0 G
b0 %"
b0 ;"
b0 E
b0 <"
b0 E"
b0 T"
b0 F
b0 U"
b100 #
1!
#200
0!
#225
b110 k
b110 p
b110 t
1.
b0 g
b0 m
b0 }
b0 q
b10000 (
b10000 c"
b10000 g"
b0 \
b0 o
b0 *"
0+
b1 5
b1 +"
b1 0"
b1 f"
b1 j"
b0 ]
b0 )"
b0 6"
b0 X
b0 &"
b0 u"
0Y
b100001000000010010011 )
b100001000000010010011 R"
b100001000000010010011 V"
b1 ?
b1 3"
b1 \"
b1 i"
b1 B
b1 ["
b1 d"
b1000 `
b1000 #"
b1000 2"
b1000 Y"
0^
b0 I
b0 I"
b0 t"
b0 P
b0 !"
b0 :"
b0 J"
b0 O
b0 5"
b0 K"
b0 J
b0 r
b0 O"
b0 T
b0 H"
b0 _"
b0 s"
b0 W
b0 s
b0 G"
0U
b10000 f
b10000 v
b10000 a"
b1100 '
b1100 w
b1100 S"
b1100 W"
b1100 h"
b101 #
b10 v"
1!
#250
0!
#275
10
b1 C
b1 ="
b1 F"
b1 r"
b1 D
b1 q"
1i
b1 1
b1 C"
b1 n"
b1 3
b1 D"
b1 o"
b1000001000100001100011 )
b1000001000100001100011 R"
b1000001000100001100011 V"
b10100 (
b10100 c"
b10100 g"
b1 6
b1 ?"
b1 2
b1 9"
b1 A"
b1 l"
b1 4
b1 8"
b1 @"
b1 k"
b10011 8
b10011 x
b10100 f
b10100 v
b10100 a"
b10000 '
b10000 w
b10000 S"
b10000 W"
b10000 h"
b0 `
b0 #"
b0 2"
b0 Y"
b0 d
b0 |
b0 ""
b0 ("
b0 -"
b0 X"
b1000 ?
b1000 3"
b1000 \"
b1000 i"
0>
b1110 G
b1110 %"
b1110 ;"
b1100 E
b1100 <"
b1100 E"
b1100 T"
b100001000000010010011 F
b100001000000010010011 U"
b110 #
1!
#300
0!
#325
b11 j
b11 y
b11 >"
1+
b100000 -
b100000 '"
b100000 b"
00
1H
b1000 C
b1000 ="
b1000 F"
b1000 r"
b1000 D
b1000 q"
0i
1e
0.
b10 g
b10 m
b10 }
b10 q
b101 1
b101 C"
b101 n"
b0 5
b0 +"
b0 0"
b0 f"
b0 j"
b1100 X
b1100 &"
b1100 u"
b1 Z
b1 ~
b1 /"
b1 ^"
b1 \
b1 o
b1 *"
b1 h
b1 n
b1 `"
b11111110000000000000110011100011 )
b11111110000000000000110011100011 R"
b11111110000000000000110011100011 V"
b100000 (
b100000 c"
b100000 g"
b10000 6
b10000 ?"
b10 2
b10 9"
b10 A"
b10 l"
b1100011 8
b1100011 x
b0 ?
b0 3"
b0 \"
b0 i"
b0 B
b0 ["
b0 d"
b1100 I
b1100 I"
b1100 t"
b1 P
b1 !"
b1 :"
b1 J"
b1 M
b1 4"
b1 L"
b1 O
b1 5"
b1 K"
b1 T
b1 H"
b1 _"
b1 s"
b1 L
b1 1"
b1 N"
b1 N
b1 ,"
b1 M"
1V
1K
b11000 f
b11000 v
b11000 a"
b10100 '
b10100 w
b10100 S"
b10100 W"
b10100 h"
b100000 G
b100000 %"
b100000 ;"
b10000 E
b10000 <"
b10000 E"
b10000 T"
b1000001000100001100011 F
b1000001000100001100011 U"
b111 #
1!
#350
0!
#375
b100 k
b100 p
b100 t
b0 j
b0 y
b0 >"
0,
0H
0.
b11111111111111111111111111111101 g
b11111111111111111111111111111101 m
b11111111111111111111111111111101 }
b11111111111111111111111111111101 q
b0 C
b0 ="
b0 F"
b0 r"
b0 D
b0 q"
0e
b101 h
b101 n
b101 `"
b10 \
b10 o
b10 *"
b10100 (
b10100 c"
b10100 g"
b0 1
b0 C"
b0 n"
b0 3
b0 D"
b0 o"
b11111110000000001000111011100011 )
b11111110000000001000111011100011 R"
b11111110000000001000111011100011 V"
b101 Z
b101 ~
b101 /"
b101 ^"
1Y
b10100 X
b10100 &"
b10100 u"
b10 ]
b10 )"
b10 6"
b10100 -
b10100 '"
b10100 b"
1+
b0 6
b0 ?"
b0 2
b0 9"
b0 A"
b0 l"
b0 4
b0 8"
b0 @"
b0 k"
b0 8
b0 x
b100100 f
b100100 v
b100100 a"
b100000 '
b100000 w
b100000 S"
b100000 W"
b100000 h"
b10000 I
b10000 I"
b10000 t"
b10000 P
b10000 !"
b10000 :"
b10000 J"
b10 M
b10 4"
b10 L"
b1000 T
b1000 H"
b1000 _"
b1000 s"
b101 L
b101 1"
b101 N"
0V
b11 W
b11 s
b11 G"
1U
0K
b1 `
b1 #"
b1 2"
b1 Y"
b1 _
b1 {
b1 $"
b10 d
b10 |
b10 ""
b10 ("
b10 -"
b10 X"
1^
b0 G
b0 %"
b0 ;"
b0 E
b0 <"
b0 E"
b0 T"
b0 F
b0 U"
b1000 #
1!
#400
0!
#425
b110 k
b110 p
b110 t
1.
b0 g
b0 m
b0 }
b0 q
b0 \
b0 o
b0 *"
b0 h
b0 n
b0 `"
b10 5
b10 +"
b10 0"
b10 f"
b10 j"
b0 ]
b0 )"
b0 6"
b0 Z
b0 ~
b0 /"
b0 ^"
b11111110000000000000110011100011 )
b11111110000000000000110011100011 R"
b11111110000000000000110011100011 V"
b1 ?
b1 3"
b1 \"
b1 i"
b10 B
b10 ["
b10 d"
1>
b10000 `
b10000 #"
b10000 2"
b10000 Y"
b101 _
b101 {
b101 $"
b11111111111111111111111111111101 d
b11111111111111111111111111111101 |
b11111111111111111111111111111101 ""
b11111111111111111111111111111101 ("
b11111111111111111111111111111101 -"
b11111111111111111111111111111101 X"
0^
b0 I
b0 I"
b0 t"
b0 P
b0 !"
b0 :"
b0 J"
b0 M
b0 4"
b0 L"
b0 O
b0 5"
b0 K"
b0 T
b0 H"
b0 _"
b0 s"
b0 L
b0 1"
b0 N"
b0 N
b0 ,"
b0 M"
b0 W
b0 s
b0 G"
0U
b11000 f
b11000 v
b11000 a"
b10100 '
b10100 w
b10100 S"
b10100 W"
b10100 h"
b11000 (
b11000 c"
b11000 g"
0+
b0 X
b0 &"
b0 u"
0Y
0&
b1001 #
b1 v"
1!
#450
0!
#475
b11 j
b11 y
b11 >"
b11111111111111111111111111111100 C
b11111111111111111111111111111100 ="
b11111111111111111111111111111100 F"
b11111111111111111111111111111100 r"
b111111111100 D
b111111111100 q"
1e
b10011 )
b10011 R"
b10011 V"
b11100 (
b11100 c"
b11100 g"
b11111111111111111111111111111101 5
b11111111111111111111111111111101 +"
b11111111111111111111111111111101 0"
b11111111111111111111111111111101 f"
b11111111111111111111111111111101 j"
b1111111000 *
b1111111000 B"
b11001 6
b11001 ?"
b1100011 8
b1100011 x
b11100 f
b11100 v
b11100 a"
b11000 '
b11000 w
b11000 S"
b11000 W"
b11000 h"
b0 `
b0 #"
b0 2"
b0 Y"
b0 _
b0 {
b0 $"
b0 d
b0 |
b0 ""
b0 ("
b0 -"
b0 X"
b10000 ?
b10000 3"
b10000 \"
b10000 i"
b11111111111111111111111111111101 B
b11111111111111111111111111111101 ["
b11111111111111111111111111111101 d"
0>
b1100 G
b1100 %"
b1100 ;"
b10100 E
b10100 <"
b10100 E"
b10100 T"
b11111110000000000000110011100011 F
b11111110000000000000110011100011 U"
b1010 #
1!
#500
0!
#525
b100 k
b100 p
b100 t
10
b0 C
b0 ="
b0 F"
b0 r"
b0 D
b0 q"
b0 j
b0 y
b0 >"
1i
0e
1+
b1100 -
b1100 '"
b1100 b"
b0 5
b0 +"
b0 0"
b0 f"
b0 j"
1Y
b1100 X
b1100 &"
b1100 u"
1,
b1100 (
b1100 c"
b1100 g"
b0 *
b0 B"
b0 6
b0 ?"
b10011 8
b10011 x
b0 ?
b0 3"
b0 \"
b0 i"
b0 B
b0 ["
b0 d"
b10100 I
b10100 I"
b10100 t"
b11001 P
b11001 !"
b11001 :"
b11001 J"
b1111111000 J
b1111111000 r
b1111111000 O"
b11111111111111111111111111111100 T
b11111111111111111111111111111100 H"
b11111111111111111111111111111100 _"
b11111111111111111111111111111100 s"
b11 W
b11 s
b11 G"
1U
b100000 f
b100000 v
b100000 a"
b11100 '
b11100 w
b11100 S"
b11100 W"
b11100 h"
b11000 G
b11000 %"
b11000 ;"
b11000 E
b11000 <"
b11000 E"
b11000 T"
b10011 F
b10011 U"
b1011 #
1!
#550
0!
#575
b110 k
b110 p
b110 t
00
0i
b100001000000010010011 )
b100001000000010010011 R"
b100001000000010010011 V"
0,
b0 8
b0 x
b10000 f
b10000 v
b10000 a"
b1100 '
b1100 w
b1100 S"
b1100 W"
b1100 h"
b0 I
b0 I"
b0 t"
b0 P
b0 !"
b0 :"
b0 J"
b0 J
b0 r
b0 O"
b0 T
b0 H"
b0 _"
b0 s"
b0 W
b0 s
b0 G"
0U
b11001 `
b11001 #"
b11001 2"
b11001 Y"
b0 G
b0 %"
b0 ;"
b0 E
b0 <"
b0 E"
b0 T"
b0 F
b0 U"
b10000 (
b10000 c"
b10000 g"
0+
b0 X
b0 &"
b0 u"
0Y
1&
b1100 #
b10 v"
1!
#600
0!
#625
10
b1 C
b1 ="
b1 F"
b1 r"
b1 D
b1 q"
1i
b10 1
b10 C"
b10 n"
b10 3
b10 D"
b10 o"
b1000001000100001100011 )
b1000001000100001100011 R"
b1000001000100001100011 V"
b10100 (
b10100 c"
b10100 g"
b1 6
b1 ?"
b1 2
b1 9"
b1 A"
b1 l"
b1 4
b1 8"
b1 @"
b1 k"
b10011 8
b10011 x
b11001 ?
b11001 3"
b11001 \"
b11001 i"
b0 `
b0 #"
b0 2"
b0 Y"
b10100 f
b10100 v
b10100 a"
b10000 '
b10000 w
b10000 S"
b10000 W"
b10000 h"
b1110 G
b1110 %"
b1110 ;"
b1100 E
b1100 <"
b1100 E"
b1100 T"
b100001000000010010011 F
b100001000000010010011 U"
b1101 #
1!
#650
0!
#675
b11 j
b11 y
b11 >"
1+
b100000 -
b100000 '"
b100000 b"
00
1H
b1000 C
b1000 ="
b1000 F"
b1000 r"
b1000 D
b1000 q"
0i
1e
0.
b11 g
b11 m
b11 }
b11 q
b101 1
b101 C"
b101 n"
b11111110000000000000110011100011 )
b11111110000000000000110011100011 R"
b11111110000000000000110011100011 V"
b100000 (
b100000 c"
b100000 g"
b1100 X
b1100 &"
b1100 u"
b10 Z
b10 ~
b10 /"
b10 ^"
b10 \
b10 o
b10 *"
b1 h
b1 n
b1 `"
b10000 6
b10000 ?"
b10 2
b10 9"
b10 A"
b10 l"
b1100011 8
b1100011 x
b11000 f
b11000 v
b11000 a"
b10100 '
b10100 w
b10100 S"
b10100 W"
b10100 h"
b1100 I
b1100 I"
b1100 t"
b1 P
b1 !"
b1 :"
b1 J"
b1 M
b1 4"
b1 L"
b1 O
b1 5"
b1 K"
b1 T
b1 H"
b1 _"
b1 s"
b10 L
b10 1"
b10 N"
b10 N
b10 ,"
b10 M"
1V
1K
b0 ?
b0 3"
b0 \"
b0 i"
b100000 G
b100000 %"
b100000 ;"
b10000 E
b10000 <"
b10000 E"
b10000 T"
b1000001000100001100011 F
b1000001000100001100011 U"
b1110 #
1!
#700
0!
