lab3/lab3/log/waveform_1.vcd
$date
	Mon Dec 25 04:26:21 2023
$end
$version
	Icarus Verilog
$end
$timescale
	1s
$end
$scope module TestBench $end
$var reg 1 ! Clk $end
$var reg 1 " Reset $end
$var integer 32 # counter [31:0] $end
$var integer 32 $ i [31:0] $end
$var integer 32 % outfile [31:0] $end
$scope module CPU $end
$var wire 1 ! clk_i $end
$var wire 1 " rst_i $end
$var wire 1 & predict_o $end
$var wire 32 ' pc_o [31:0] $end
$var wire 32 ( pc_i [31:0] $end
$var wire 32 ) instr_o [31:0] $end
$var wire 10 * funct_i [9:0] $end
$var wire 1 + flush $end
$var wire 1 , branch_result_o $end
$var wire 32 - branch_PC [31:0] $end
$var wire 1 . Zero_o $end
$var wire 1 / Stall_o $end
$var wire 1 0 RegWrite_o $end
$var wire 32 1 RS2data_o [31:0] $end
$var wire 5 2 RS2addr_i [4:0] $end
$var wire 32 3 RS1data_o [31:0] $end
$var wire 5 4 RS1addr_i [4:0] $end
$var wire 32 5 RDdata_i [31:0] $end
$var wire 5 6 RDaddr_i [4:0] $end
$var wire 1 7 PCWrite $end
$var wire 7 8 Opcode [6:0] $end
$var wire 1 9 NoOp_o $end
$var wire 1 : MemtoReg_o $end
$var wire 32 ; Memdata_o [31:0] $end
$var wire 1 < MemWrite_o $end
$var wire 1 = MemRead_o $end
$var wire 1 > MEM_WB_RegWrite_o $end
$var wire 5 ? MEM_WB_RDaddr_o [4:0] $end
$var wire 1 @ MEM_WB_MemtoReg_o $end
$var wire 32 A MEM_WB_Memdata_o [31:0] $end
$var wire 32 B MEM_WB_ALU_result_o [31:0] $end
$var wire 32 C Imm_o [31:0] $end
$var wire 12 D Imm_i [11:0] $end
$var wire 32 E IF_ID_pc_o [31:0] $end
$var wire 32 F IF_ID_instr_o [31:0] $end
$var wire 32 G IFID_branch_PC [31:0] $end
$var wire 1 H IFID_Flush $end
$var wire 32 I ID_EX_pc_o [31:0] $end
$var wire 10 J ID_EX_funct_o [9:0] $end
$var wire 1 K ID_EX_RegWrite_o $end
$var wire 32 L ID_EX_RS2data_o [31:0] $end
$var wire 5 M ID_EX_RS2addr_o [4:0] $end
$var wire 32 N ID_EX_RS1data_o [31:0] $end
$var wire 5 O ID_EX_RS1addr_o [4:0] $end
$var wire 5 P ID_EX_RDaddr_o [4:0] $end
$var wire 1 Q ID_EX_MemtoReg_o $end
$var wire 1 R ID_EX_MemWrite_o $end
$var wire 1 S ID_EX_MemRead_o $end
$var wire 32 T ID_EX_Imm_o [31:0] $end
$var wire 1 U ID_EX_Branch_o $end
$var wire 1 V ID_EX_ALUSrc_o $end
$var wire 2 W ID_EX_ALUOp_o [1:0] $end
$var wire 32 X IDEX_branch_PC [31:0] $end
$var wire 1 Y IDEX_Flush $end
$var wire 32 Z ForwardBdata_o [31:0] $end
$var wire 2 [ ForwardB_o [1:0] $end
$var wire 32 \ ForwardAdata_o [31:0] $end
$var wire 2 ] ForwardA_o [1:0] $end
$var wire 1 ^ EX_MEM_RegWrite_o $end
$var wire 32 _ EX_MEM_RS2data_o [31:0] $end
$var wire 5 ` EX_MEM_RDaddr_o [4:0] $end
$var wire 1 a EX_MEM_MemtoReg_o $end
$var wire 1 b EX_MEM_MemWrite_o $end
$var wire 1 c EX_MEM_MemRead_o $end
$var wire 32 d EX_MEM_ALU_result_o [31:0] $end
$var wire 1 e Branch_o $end
$var wire 32 f Add_PC_o [31:0] $end
$var wire 32 g ALUdata_o [31:0] $end
$var wire 32 h ALUdata_i [31:0] $end
$var wire 1 i ALUSrc_o $end
$var wire 2 j ALUOp_o [1:0] $end
$var wire 3 k ALUCtrl_o [2:0] $end
$var integer 32 l i [31:0] $end
$scope module ALU $end
$var wire 32 m data_o [31:0] $end
$var wire 32 n data2_i [31:0] $end
$var wire 32 o data1_i [31:0] $end
$var wire 1 . Zero_o $end
$var wire 3 p ALUCtrl_i [2:0] $end
$var reg 32 q result [31:0] $end
$upscope $end
$scope module ALU_Control $end
$var wire 10 r funct_i [9:0] $end
$var wire 2 s ALUOp_i [1:0] $end
$var wire 3 t ALUCtrl_o [2:0] $end
$upscope $end
$scope module Add_PC $end
$var wire 32 u data2_in [31:0] $end
$var wire 32 v data_o [31:0] $end
$var wire 32 w data1_in [31:0] $end
$upscope $end
$scope module Control $end
$var wire 7 x Op_i [6:0] $end
$var wire 1 0 RegWrite_o $end
$var wire 1 9 NoOp_i $end
$var wire 1 : MemtoReg_o $end
$var wire 1 < MemWrite_o $end
$var wire 1 = MemRead_o $end
$var wire 1 e Branch_o $end
$var wire 1 i ALUSrc_o $end
$var wire 2 y ALUOp_o [1:0] $end
$upscope $end
$scope module Data_Memory $end
$var wire 1 ! clk_i $end
$var wire 32 z data_o [31:0] $end
$var wire 32 { data_i [31:0] $end
$var wire 32 | addr_i [31:0] $end
$var wire 1 b MemWrite_i $end
$var wire 1 c MemRead_i $end
$upscope $end
$scope module EX_MEM $end
$var wire 32 } ALU_result_i [31:0] $end
$var wire 1 ! clk_i $end
$var wire 1 " rst_i $end
$var wire 1 K RegWrite_i $end
$var wire 32 ~ RS2data_i [31:0] $end
$var wire 5 !" RDaddr_i [4:0] $end
$var wire 1 Q MemtoReg_i $end
$var wire 1 R MemWrite_i $end
$var wire 1 S MemRead_i $end
$var reg 32 "" ALU_result_o [31:0] $end
$var reg 1 c MemRead_o $end
$var reg 1 b MemWrite_o $end
$var reg 1 a MemtoReg_o $end
$var reg 5 #" RDaddr_o [4:0] $end
$var reg 32 $" RS2data_o [31:0] $end
$var reg 1 ^ RegWrite_o $end
$upscope $end
$scope module Flush $end
$var wire 32 %" IFID_branch_PC_i [31:0] $end
$var wire 1 H IFID_Flush_i $end
$var wire 32 &" IDEX_branch_PC_i [31:0] $end
$var wire 1 Y IDEX_Flush_i $end
$var reg 1 + IFID_Flush_o $end
$var reg 32 '" branch_PC_o [31:0] $end
$upscope $end
$scope module ForwardA $end
$var wire 32 (" data3_i [31:0] $end
$var wire 2 )" select_i [1:0] $end
$var wire 32 *" data_o [31:0] $end
$var wire 32 +" data2_i [31:0] $end
$var wire 32 ," data1_i [31:0] $end
$upscope $end
$scope module ForwardB $end
$var wire 32 -" data3_i [31:0] $end
$var wire 2 ." select_i [1:0] $end
$var wire 32 /" data_o [31:0] $end
$var wire 32 0" data2_i [31:0] $end
$var wire 32 1" data1_i [31:0] $end
$upscope $end
$scope module ForwardingUnit $end
$var wire 5 2" MEM_RDaddr_i [4:0] $end
$var wire 1 ^ MEM_RegWrite_i $end
$var wire 1 > WB_RegWrite_i $end
$var wire 5 3" WB_RDaddr_i [4:0] $end
$var wire 5 4" EX_RS2addr_i [4:0] $end
$var wire 5 5" EX_RS1addr_i [4:0] $end
$var reg 2 6" ForwardA_o [1:0] $end
$var reg 2 7" ForwardB_o [1:0] $end
$upscope $end
$scope module Hazard_Detection $end
$var wire 5 8" RS1addr_i [4:0] $end
$var wire 5 9" RS2addr_i [4:0] $end
$var wire 5 :" RDaddr_i [4:0] $end
$var wire 1 S MemRead_i $end
$var reg 1 9 NoOp_o $end
$var reg 1 7 PCWrite_o $end
$var reg 1 / Stall_o $end
$upscope $end
$scope module ID_Branch_Unit $end
$var wire 1 e Branch_i $end
$var wire 1 & predict_i $end
$var wire 32 ;" PC_o [31:0] $end
$var wire 32 <" PC_i [31:0] $end
$var wire 32 =" Imm_i [31:0] $end
$var reg 1 H Flush_o $end
$upscope $end
$scope module ID_EX $end
$var wire 2 >" ALUOp_i [1:0] $end
$var wire 1 i ALUSrc_i $end
$var wire 1 e Branch_i $end
$var wire 1 = MemRead_i $end
$var wire 1 < MemWrite_i $end
$var wire 1 : MemtoReg_i $end
$var wire 5 ?" RDaddr_i [4:0] $end
$var wire 5 @" RS1addr_i [4:0] $end
$var wire 5 A" RS2addr_i [4:0] $end
$var wire 1 0 RegWrite_i $end
$var wire 1 ! clk_i $end
$var wire 10 B" funct_i [9:0] $end
$var wire 1 " rst_i $end
$var wire 1 Y flush_i $end
$var wire 32 C" data2_i [31:0] $end
$var wire 32 D" data1_i [31:0] $end
$var wire 32 E" PC_i [31:0] $end
$var wire 32 F" Imm_i [31:0] $end
$var reg 2 G" ALUOp_o [1:0] $end
$var reg 1 V ALUSrc_o $end
$var reg 1 U Branch_o $end
$var reg 32 H" Imm_o [31:0] $end
$var reg 1 S MemRead_o $end
$var reg 1 R MemWrite_o $end
$var reg 1 Q MemtoReg_o $end
$var reg 32 I" PC_o [31:0] $end
$var reg 5 J" RDaddr_o [4:0] $end
$var reg 5 K" RS1addr_o [4:0] $end
$var reg 5 L" RS2addr_o [4:0] $end
$var reg 1 K RegWrite_o $end
$var reg 32 M" data1_o [31:0] $end
$var reg 32 N" data2_o [31:0] $end
$var reg 10 O" funct_o [9:0] $end
$upscope $end
$scope module IF_ID $end
$var wire 1 ! clk_i $end
$var wire 1 + flush_i $end
$var wire 1 P" rst_i $end
$var wire 1 / stall_i $end
$var wire 1 Q" start_i $end
$var wire 32 R" inst_i [31:0] $end
$var wire 32 S" PC_i [31:0] $end
$var reg 32 T" PC_o [31:0] $end
$var reg 32 U" inst_o [31:0] $end
$upscope $end
$scope module Instruction_Memory $end
$var wire 32 V" instr_o [31:0] $end
$var wire 32 W" addr_i [31:0] $end
$upscope $end
$scope module MEM_WB $end
$var wire 32 X" ALU_result_i [31:0] $end
$var wire 1 a MemtoReg_i $end
$var wire 5 Y" RDaddr_i [4:0] $end
$var wire 1 ^ RegWrite_i $end
$var wire 1 ! clk_i $end
$var wire 32 Z" data_i [31:0] $end
$var wire 1 " rst_i $end
$var reg 32 [" ALU_result_o [31:0] $end
$var reg 1 @ MemtoReg_o $end
$var reg 5 \" RDaddr_o [4:0] $end
$var reg 1 > RegWrite_o $end
$var reg 32 ]" data_o [31:0] $end
$upscope $end
$scope module MUX_ALUSrc $end
$var wire 32 ^" data1_i [31:0] $end
$var wire 32 _" data2_i [31:0] $end
$var wire 1 V select_i $end
$var wire 32 `" data_o [31:0] $end
$upscope $end
$scope module MUX_PC $end
$var wire 32 a" data1_i [31:0] $end
$var wire 32 b" data2_i [31:0] $end
$var wire 1 + select_i $end
$var wire 32 c" data_o [31:0] $end
$upscope $end
$scope module MUX_WriteSrc $end
$var wire 32 d" data1_i [31:0] $end
$var wire 32 e" data2_i [31:0] $end
$var wire 1 @ select_i $end
$var wire 32 f" data_o [31:0] $end
$upscope $end
$scope module PC $end
$var wire 1 7 PCWrite_i $end
$var wire 1 ! clk_i $end
$var wire 32 g" pc_i [31:0] $end
$var wire 1 " rst_i $end
$var reg 32 h" pc_o [31:0] $end
$upscope $end
$scope module Registers $end
$var wire 5 i" RDaddr_i [4:0] $end
$var wire 32 j" RDdata_i [31:0] $end
$var wire 5 k" RS1addr_i [4:0] $end
$var wire 5 l" RS2addr_i [4:0] $end
$var wire 1 > RegWrite_i $end
$var wire 1 ! clk_i $end
$var wire 1 m" rst_i $end
$var wire 32 n" RS2data_o [31:0] $end
$var wire 32 o" RS1data_o [31:0] $end
$var integer 32 p" i [31:0] $end
$upscope $end
$scope module Sign_Extend $end
$var wire 12 q" data_i [11:0] $end
$var wire 32 r" data_o [31:0] $end
$upscope $end
$scope module branch_check $end
$var wire 1 U Branch_i $end
$var wire 32 s" Imm_i [31:0] $end
$var wire 32 t" PC_i [31:0] $end
$var wire 1 & predict_i $end
$var wire 1 , branch_result_i $end
$var reg 1 Y Flush_o $end
$var reg 32 u" PC_o [31:0] $end
$upscope $end
$scope module branch_predictor $end
$var wire 1 U Branch_i $end
$var wire 1 ! clk_i $end
$var wire 1 & result_i $end
$var wire 1 " rst_i $end
$var wire 1 , update_i $end
$var reg 2 v" history [1:0] $end
$var reg 1 & predict_o $end
$upscope $end
$scope module branch_result $end
$var wire 1 U Branch_i $end
$var wire 1 . Zero_i $end
$var wire 1 , result_o $end
$upscope $end
$upscope $end
$upscope $end
$enddefinitions $end
#0
$dumpvars
b11 v"
bx u"
bx t"
b0 s"
b0 r"
b0 q"
bx p"
b0 o"
b0 n"
zm"
b0 l"
b0 k"
b0 j"
b0 i"
b0 h"
b100 g"
b0 f"
b0 e"
b0 d"
b100 c"
bx b"
b100 a"
b0 `"
b0 _"
b0 ^"
b0 ]"
b0 \"
b0 ["
b0 Z"
b0 Y"
b0 X"
b0 W"
b110000010011 V"
b0 U"
b0 T"
b0 S"
b110000010011 R"
zQ"
zP"
b0 O"
b0 N"
b0 M"
b0 L"
b0 K"
b0 J"
bx I"
b0 H"
b0 G"
b0 F"
b0 E"
b0 D"
b0 C"
b0 B"
b0 A"
b0 @"
b0 ?"
b0 >"
b0 ="
b0 <"
b0 ;"
b0 :"
b0 9"
b0 8"
b0 7"
b0 6"
b0 5"
b0 4"
b0 3"
b0 2"
b0 1"
b0 0"
b0 /"
b0 ."
b0 -"
b0 ,"
b0 +"
b0 *"
b0 )"
b0 ("
bx '"
bx &"
b0 %"
b0 $"
b0 #"
b0 ""
b0 !"
b0 ~
b0 }
b0 |
b0 {
b0 z
b0 y
b0 x
b0 w
b100 v
b100 u
b110 t
b0 s
b0 r
b0 q
b110 p
b0 o
b0 n
b0 m
b100000 l
b110 k
b0 j
0i
b0 h
b0 g
b100 f
0e
b0 d
0c
0b
0a
b0 `
b0 _
0^
b0 ]
b0 \
b0 [
b0 Z
0Y
bx X
b0 W
0V
0U
b0 T
0S
0R
0Q
b0 P
b0 O
b0 N
b0 M
b0 L
0K
b0 J
bx I
0H
b0 G
b0 F
b0 E
b0 D
b0 C
b0 B
b0 A
0@
b0 ?
0>
0=
0<
b0 ;
0:
09
b0 8
17
b0 6
b0 5
b0 4
b0 3
b0 2
b0 1
00
0/
1.
bx -
0,
0+
b0 *
b110000010011 )
b100 (
b0 '
1&
b11 %
b100000 $
b0 #
1"
0!
$end
#6
b0 X
b0 &"
b0 u"
b0 I
b0 I"
b0 t"
0"
#12
1"
#25
10
1i
b10000000000110100010011 )
b10000000000110100010011 R"
b10000000000110100010011 V"
b1000 (
b1000 c"
b1000 g"
b11000 6
b11000 ?"
b10011 8
b10011 x
b1000 f
b1000 v
b1000 a"
b100 '
b100 w
b100 S"
b100 W"
b100 h"
b110000010011 F
b110000010011 U"
b1 #
1!
#50
0!
#75
b100 C
b100 ="
b100 F"
b100 r"
b100 D
b100 q"
b10000000000111000010011 )
b10000000000111000010011 R"
b10000000000111000010011 V"
b1100 (
b1100 c"
b1100 g"
b11010 6
b11010 ?"
b100 2
b100 9"
b100 A"
b100 l"
b1100 f
b1100 v
b1100 a"
b1000 '
b1000 w
b1000 S"
b1000 W"
b1000 h"
b11000 P
b11000 !"
b11000 :"
b11000 J"
1V
1K
b1100 G
b1100 %"
b1100 ;"
b100 E
b100 <"
b100 E"
b100 T"
b10000000000110100010011 F
b10000000000110100010011 U"
b10 #
1!
#100
0!
#125
0.
b100 g
b100 m
b100 }
b100 q
b100 h
b100 n
b100 `"
b100 X
b100 &"
b100 u"
b11111111111100000000011110010011 )
b11111111111100000000011110010011 R"
b11111111111100000000011110010011 V"
b10000 (
b10000 c"
b10000 g"
b11100 6
b11100 ?"
b11000 `
b11000 #"
b11000 2"
b11000 Y"
1^
b100 I
b100 I"
b100 t"
b11010 P
b11010 !"
b11010 :"
b11010 J"
b100 M
b100 4"
b100 L"
b100 T
b100 H"
b100 _"
b100 s"
b10000 f
b10000 v
b10000 a"
b1100 '
b1100 w
b1100 S"
b1100 W"
b1100 h"
b10000 G
b10000 %"
b10000 ;"
b1000 E
b1000 <"
b1000 E"
b1000 T"
b10000000000111000010011 F
b10000000000111000010011 U"
b11 #
1!
#150
0!
#175
b11111111111111111111111111111111 C
b11111111111111111111111111111111 ="
b11111111111111111111111111111111 F"
b11111111111111111111111111111111 r"
b111111111111 D
b111111111111 q"
b111110 1
b111110 C"
b111110 n"
b11110011010000110010110011 )
b11110011010000110010110011 R"
b11110011010000110010110011 V"
b10100 (
b10100 c"
b10100 g"
b1000 X
b1000 &"
b1000 u"
b1111111000 *
b1111111000 B"
b1111 6
b1111 ?"
b11111 2
b11111 9"
b11111 A"
b11111 l"
b10100 f
b10100 v
b10100 a"
b10000 '
b10000 w
b10000 S"
b10000 W"
b10000 h"
b1000 I
b1000 I"
b1000 t"
b11100 P
b11100 !"
b11100 :"
b11100 J"
b11010 `
b11010 #"
b11010 2"
b11010 Y"
b100 d
b100 |
b100 ""
b100 ("
b100 -"
b100 X"
b11000 ?
b11000 3"
b11000 \"
b11000 i"
1>
b1010 G
b1010 %"
b1010 ;"
b1100 E
b1100 <"
b1100 E"
b1100 T"
b11111111111100000000011110010011 F
b11111111111100000000011110010011 U"
b100 #
1!
#200
0!
#225
b111100 C
b111100 ="
b111100 F"
b111100 r"
b111100 D
b111100 q"
b11111111111111111111111111111111 g
b11111111111111111111111111111111 m
b11111111111111111111111111111111 }
b11111111111111111111111111111111 q
b111000 1
b111000 C"
b111000 n"
b100 3
b100 D"
b100 o"
b10 j
b10 y
b10 >"
0i
b100 5
b100 +"
b100 0"
b100 f"
b100 j"
b11111111111111111111111111111111 h
b11111111111111111111111111111111 n
b11111111111111111111111111111111 `"
b1100 X
b1100 &"
b1100 u"
b111110 Z
b111110 ~
b111110 /"
b111110 ^"
b11111111111111010000110100010011 )
b11111111111111010000110100010011 R"
b11111111111111010000110100010011 V"
b11000 (
b11000 c"
b11000 g"
b1000 *
b1000 B"
b11001 6
b11001 ?"
b11100 2
b11100 9"
b11100 A"
b11100 l"
b11010 4
b11010 8"
b11010 @"
b11010 k"
b110011 8
b110011 x
b11010 ?
b11010 3"
b11010 \"
b11010 i"
b100 B
b100 ["
b100 d"
b11100 `
b11100 #"
b11100 2"
b11100 Y"
b1100 I
b1100 I"
b1100 t"
b1111 P
b1111 !"
b1111 :"
b1111 J"
b11111 M
b11111 4"
b11111 L"
b1111111000 J
b1111111000 r
b1111111000 O"
b11111111111111111111111111111111 T
b11111111111111111111111111111111 H"
b11111111111111111111111111111111 _"
b11111111111111111111111111111111 s"
b111110 L
b111110 1"
b111110 N"
b11000 f
b11000 v
b11000 a"
b10100 '
b10100 w
b10100 S"
b10100 W"
b10100 h"
b10001000 G
b10001000 %"
b10001000 ;"
b10000 E
b10000 <"
b10000 E"
b10000 T"
b11110011010000110010110011 F
b11110011010000110010110011 U"
b101 #
1!
#250
0!
#275
b101 k
b101 p
b101 t
0.
b11111111111111111111111111111111 C
b11111111111111111111111111111111 ="
b11111111111111111111111111111111 F"
b11111111111111111111111111111111 r"
b111111111111 D
b111111111111 q"
b10000 g
b10000 m
b10000 }
b10000 q
b111110 1
b111110 C"
b111110 n"
b0 j
b0 y
b0 >"
1i
b11001010110110000011 )
b11001010110110000011 R"
b11001010110110000011 V"
b11100 (
b11100 c"
b11100 g"
b10000 X
b10000 &"
b10000 u"
b100 Z
b100 ~
b100 /"
b100 ^"
b100 \
b100 o
b100 *"
b100 h
b100 n
b100 `"
b1 [
b1 ."
b1 7"
b1111111000 *
b1111111000 B"
b11010 6
b11010 ?"
b11111 2
b11111 9"
b11111 A"
b11111 l"
b10011 8
b10011 x
b11100 f
b11100 v
b11100 a"
b11000 '
b11000 w
b11000 S"
b11000 W"
b11000 h"
b10000 I
b10000 I"
b10000 t"
b11001 P
b11001 !"
b11001 :"
b11001 J"
b11100 M
b11100 4"
b11100 L"
b11010 O
b11010 5"
b11010 K"
b1000 J
b1000 r
b1000 O"
b111100 T
b111100 H"
b111100 _"
b111100 s"
b111000 L
b111000 1"
b111000 N"
b100 N
b100 ,"
b100 M"
0V
b10 W
b10 s
b10 G"
b1111 `
b1111 #"
b1111 2"
b1111 Y"
b111110 _
b111110 {
b111110 $"
b11111111111111111111111111111111 d
b11111111111111111111111111111111 |
b11111111111111111111111111111111 ""
b11111111111111111111111111111111 ("
b11111111111111111111111111111111 -"
b11111111111111111111111111111111 X"
b11100 ?
b11100 3"
b11100 \"
b11100 i"
b10010 G
b10010 %"
b10010 ;"
b10100 E
b10100 <"
b10100 E"
b10100 T"
b11111111111111010000110100010011 F
b11111111111111010000110100010011 U"
b110 #
1!
#300
0!
#325
b110 k
b110 p
b110 t
b0 C
b0 ="
b0 F"
b0 r"
b0 D
b0 q"
1:
1=
b111110 Z
b111110 ~
b111110 /"
b111110 ^"
b11 g
b11 m
b11 }
b11 q
b0 1
b0 C"
b0 n"
b11111111111111111111111111100111 3
b11111111111111111111111111100111 D"
b11111111111111111111111111100111 o"
b11111111111111111111111111111111 5
b11111111111111111111111111111111 +"
b11111111111111111111111111111111 0"
b11111111111111111111111111111111 f"
b11111111111111111111111111111111 j"
b0 [
b0 ."
b0 7"
b10100 X
b10100 &"
b10100 u"
b11111111111111111111111111111111 h
b11111111111111111111111111111111 n
b11111111111111111111111111111111 `"
b1101111000000110000110011 )
b1101111000000110000110011 R"
b1101111000000110000110011 V"
b100000 (
b100000 c"
b100000 g"
b10 *
b10 B"
b11011 6
b11011 ?"
b0 2
b0 9"
b0 A"
b0 l"
b11001 4
b11001 8"
b11001 @"
b11001 k"
b11 8
b11 x
b1111 ?
b1111 3"
b1111 \"
b1111 i"
b11111111111111111111111111111111 B
b11111111111111111111111111111111 ["
b11111111111111111111111111111111 d"
b11001 `
b11001 #"
b11001 2"
b11001 Y"
b100 _
b100 {
b100 $"
b10000 d
b10000 |
b10000 ""
b10000 ("
b10000 -"
b10000 X"
b10100 I
b10100 I"
b10100 t"
b11010 P
b11010 !"
b11010 :"
b11010 J"
b11111 M
b11111 4"
b11111 L"
b1111111000 J
b1111111000 r
b1111111000 O"
b11111111111111111111111111111111 T
b11111111111111111111111111111111 H"
b11111111111111111111111111111111 _"
b11111111111111111111111111111111 s"
b111110 L
b111110 1"
b111110 N"
1V
b0 W
b0 s
b0 G"
b100000 f
b100000 v
b100000 a"
b11100 '
b11100 w
b11100 S"
b11100 W"
b11100 h"
b11000 G
b11000 %"
b11000 ;"
b11000 E
b11000 <"
b11000 E"
b11000 T"
b11001010110110000011 F
b11001010110110000011 U"
b111 #
1!
#350
0!
#375
b11 k
b11 p
b11 t
b11011 C
b11011 ="
b11011 F"
b11011 r"
b11011 D
b11011 q"
0.
b10000 g
b10000 m
b10000 }
b10000 q
0=
0:
00
b11111111111111111111111111100101 1
b11111111111111111111111111100101 C"
b11111111111111111111111111100101 n"
b0 3
b0 D"
b0 o"
b10 j
b10 y
b10 >"
0i
b111111010000010001100011 )
b111111010000010001100011 R"
b111111010000010001100011 V"
b100100 (
b100100 c"
b100100 g"
b0 h
b0 n
b0 `"
b11000 X
b11000 &"
b11000 u"
b0 Z
b0 ~
b0 /"
b0 ^"
b10000 \
b10000 o
b10000 *"
19
1/
07
b1 ]
b1 )"
b1 6"
b10000 5
b10000 +"
b10000 0"
b10000 f"
b10000 j"
b0 *
b0 B"
b11000 6
b11000 ?"
b11011 2
b11011 9"
b11011 A"
b11011 l"
b11000 4
b11000 8"
b11000 @"
b11000 k"
b110011 8
b110011 x
b100100 f
b100100 v
b100100 a"
b100000 '
b100000 w
b100000 S"
b100000 W"
b100000 h"
b11000 I
b11000 I"
b11000 t"
b11011 P
b11011 !"
b11011 :"
b11011 J"
b0 M
b0 4"
b0 L"
b11001 O
b11001 5"
b11001 K"
b10 J
b10 r
b10 O"
b0 T
b0 H"
b0 _"
b0 s"
b0 L
b0 1"
b0 N"
b11111111111111111111111111100111 N
b11111111111111111111111111100111 ,"
b11111111111111111111111111100111 M"
1S
1Q
b11010 `
b11010 #"
b11010 2"
b11010 Y"
b111110 _
b111110 {
b111110 $"
b11 d
b11 |
b11 ""
b11 ("
b11 -"
b11 X"
b11001 ?
b11001 3"
b11001 \"
b11001 i"
b10000 B
b10000 ["
b10000 d"
b1010010 G
b1010010 %"
b1010010 ;"
b11100 E
b11100 <"
b11100 E"
b11100 T"
b1101111000000110000110011 F
b1101111000000110000110011 U"
b1000 #
1!
#400
0!
#425
0.
b10000 g
b10000 m
b10000 }
b10000 q
b0 \
b0 o
b0 *"
b10000 h
b10000 n
b10000 `"
10
b11 5
b11 +"
b11 0"
b11 f"
b11 j"
b11101 ;
b11101 z
b11101 Z"
b10 [
b10 ."
b10 7"
b0 ]
b0 )"
b0 6"
b11100 X
b11100 &"
b11100 u"
b10000 Z
b10000 ~
b10000 /"
b10000 ^"
09
0/
17
b11010 ?
b11010 3"
b11010 \"
b11010 i"
b11 B
b11 ["
b11 d"
b11011 `
b11011 #"
b11011 2"
b11011 Y"
b0 _
b0 {
b0 $"
b10000 d
b10000 |
b10000 ""
b10000 ("
b10000 -"
b10000 X"
1c
1a
b11100 I
b11100 I"
b11100 t"
b11000 P
b11000 !"
b11000 :"
b11000 J"
b11011 M
b11011 4"
b11011 L"
b11000 O
b11000 5"
b11000 K"
b0 J
b0 r
b0 O"
b11011 T
b11011 H"
b11011 _"
b11011 s"
b11111111111111111111111111100101 L
b11111111111111111111111111100101 1"
b11111111111111111111111111100101 N"
b0 N
b0 ,"
b0 M"
0V
b10 W
b10 s
b10 G"
0S
0Q
0K
b1001 #
1!
#450
0!
#475
b11101 g
b11101 m
b11101 }
b11101 q
1+
b101000 -
b101000 '"
b101000 b"
b11101 h
b11101 n
b11101 `"
1H
b11101 Z
b11101 ~
b11101 /"
b11101 ^"
b100 C
b100 ="
b100 F"
b100 r"
b100 D
b100 q"
00
1e
b11111111111111111111111111111111 1
b11111111111111111111111111111111 C"
b11111111111111111111111111111111 n"
b11 3
b11 D"
b11 o"
b11 j
b11 y
b11 >"
b11111110000000000000011011100011 )
b11111110000000000000011011100011 R"
b11111110000000000000011011100011 V"
b101000 (
b101000 c"
b101000 g"
b0 ;
b0 z
b0 Z"
b1 [
b1 ."
b1 7"
b11101 5
b11101 +"
b11101 0"
b11101 f"
b11101 j"
b1000 6
b1000 ?"
b1111 2
b1111 9"
b1111 A"
b1111 l"
b11010 4
b11010 8"
b11010 @"
b11010 k"
b1100011 8
b1100011 x
b101000 f
b101000 v
b101000 a"
b100100 '
b100100 w
b100100 S"
b100100 W"
b100100 h"
1K
b11000 `
b11000 #"
b11000 2"
b11000 Y"
b10000 _
b10000 {
b10000 $"
0c
0a
0^
b11011 ?
b11011 3"
b11011 \"
b11011 i"
b11101 A
b11101 ]"
b11101 e"
b10000 B
b10000 ["
b10000 d"
1@
b101000 G
b101000 %"
b101000 ;"
b100000 E
b100000 <"
b100000 E"
b100000 T"
b111111010000010001100011 F
b111111010000010001100011 U"
b1010 #
1!
#500
0!
#525
b0 j
b0 y
b0 >"
b100 k
b100 p
b100 t
0H
b11111111111111111111111111111111 h
b11111111111111111111111111111111 n
b11111111111111111111111111111111 `"
b0 C
b0 ="
b0 F"
b0 r"
b0 D
b0 q"
0e
b11111111111111111111111111111111 Z
b11111111111111111111111111111111 ~
b11111111111111111111111111111111 /"
b11111111111111111111111111111111 ^"
b100 g
b100 m
b100 }
b100 q
b100100 (
b100100 c"
b100100 g"
b0 1
b0 C"
b0 n"
b0 3
b0 D"
b0 o"
b10000 5
b10000 +"
b10000 0"
b10000 f"
b10000 j"
b0 [
b0 ."
b0 7"
b11 \
b11 o
b11 *"
1Y
b100100 X
b100100 &"
b100100 u"
b1100000000010111000100011 )
b1100000000010111000100011 R"
b1100000000010111000100011 V"
b100100 -
b100100 '"
b100100 b"
1+
b0 6
b0 ?"
b0 2
b0 9"
b0 A"
b0 l"
b0 4
b0 8"
b0 @"
b0 k"
b0 8
b0 x
b11000 ?
b11000 3"
b11000 \"
b11000 i"
b0 A
b0 ]"
b0 e"
0@
0>
b11101 _
b11101 {
b11101 $"
b11101 d
b11101 |
b11101 ""
b11101 ("
b11101 -"
b11101 X"
1^
b100000 I
b100000 I"
b100000 t"
b1000 P
b1000 !"
b1000 :"
b1000 J"
b1111 M
b1111 4"
b1111 L"
b11010 O
b11010 5"
b11010 K"
b100 T
b100 H"
b100 _"
b100 s"
b11111111111111111111111111111111 L
b11111111111111111111111111111111 1"
b11111111111111111111111111111111 N"
b11 N
b11 ,"
b11 M"
b11 W
b11 s
b11 G"
1U
0K
b101100 f
b101100 v
b101100 a"
b101000 '
b101000 w
b101000 S"
b101000 W"
b101000 h"
b0 G
b0 %"
b0 ;"
b0 E
b0 <"
b0 E"
b0 T"
b0 F
b0 U"
b1011 #
1!
#550
0!
#575
b110 k
b110 p
b110 t
1.
b101000 (
b101000 c"
b101000 g"
b0 h
b0 n
b0 `"
b0 g
b0 m
b0 }
b0 q
0+
b11111110000000000000011011100011 )
b11111110000000000000011011100011 R"
b11111110000000000000011011100011 V"
b0 Z
b0 ~
b0 /"
b0 ^"
b0 \
b0 o
b0 *"
b0 X
b0 &"
b0 u"
0Y
b11101 5
b11101 +"
b11101 0"
b11101 f"
b11101 j"
b101000 f
b101000 v
b101000 a"
b100100 '
b100100 w
b100100 S"
b100100 W"
b100100 h"
b0 I
b0 I"
b0 t"
b0 P
b0 !"
b0 :"
b0 J"
b0 M
b0 4"
b0 L"
b0 O
b0 5"
b0 K"
b0 T
b0 H"
b0 _"
b0 s"
b0 L
b0 1"
b0 N"
b0 N
b0 ,"
b0 M"
b0 W
b0 s
b0 G"
0U
b1000 `
b1000 #"
b1000 2"
b1000 Y"
b11111111111111111111111111111111 _
b11111111111111111111111111111111 {
b11111111111111111111111111111111 $"
b100 d
b100 |
b100 ""
b100 ("
b100 -"
b100 X"
0^
b11101 B
b11101 ["
b11101 d"
1>
b1100 #
b10 v"
1!
#600
0!
