lab1/log/waveform_1.vcd
$date
	Mon Nov  6 10:39:00 2023
$end
$version
	Icarus Verilog
$end
$timescale
	1s
$end
$scope module TestBench $end
$var reg 1 ! Clk $end
$var reg 1 " Reset $end
$var integer 32 # counter [31:0] $end
$var integer 32 $ i [31:0] $end
$var integer 32 % outfile [31:0] $end
$scope module CPU $end
$var wire 1 ! clk_i $end
$var wire 1 " rst_i $end
$var wire 32 & rs2_data_o [31:0] $end
$var wire 5 ' rs2_addr_i [4:0] $end
$var wire 32 ( rs1_data_o [31:0] $end
$var wire 5 ) rs1_addr_i [4:0] $end
$var wire 32 * rd_data_i [31:0] $end
$var wire 5 + rd_addr_i [4:0] $end
$var wire 32 , pc_o [31:0] $end
$var wire 32 - pc_i [31:0] $end
$var wire 7 . opcode [6:0] $end
$var wire 32 / instr_o [31:0] $end
$var wire 32 0 imm_o [31:0] $end
$var wire 12 1 imm_i [11:0] $end
$var wire 1 2 RegWrite_o $end
$var wire 1 3 ALUSrc_o $end
$var wire 2 4 ALUOp_o [1:0] $end
$var wire 32 5 ALUData_i [31:0] $end
$var wire 3 6 ALUCtrl_o [2:0] $end
$var wire 10 7 ALUCtrl_i [9:0] $end
$scope module ALU $end
$var wire 32 8 data2_i [31:0] $end
$var wire 32 9 data1_i [31:0] $end
$var wire 3 : ALUCtrl_i [2:0] $end
$var reg 32 ; data_o [31:0] $end
$upscope $end
$scope module ALU_Control $end
$var wire 10 < ALUCtrl_i [9:0] $end
$var wire 2 = ALUOp_i [1:0] $end
$var wire 3 > ALUCtrl_o [2:0] $end
$upscope $end
$scope module Add_PC $end
$var wire 32 ? imm_i [31:0] $end
$var wire 32 @ pc_o [31:0] $end
$var wire 32 A pc_i [31:0] $end
$upscope $end
$scope module Control $end
$var wire 7 B Op_i [6:0] $end
$var wire 1 2 RegWrite_o $end
$var wire 1 3 ALUSrc_o $end
$var wire 2 C ALUOp_o [1:0] $end
$upscope $end
$scope module Instruction_Memory $end
$var wire 32 D instr_o [31:0] $end
$var wire 32 E addr_i [31:0] $end
$upscope $end
$scope module MUX_ALUSrc $end
$var wire 1 3 ALUSrc_i $end
$var wire 32 F rs2_data_i [31:0] $end
$var wire 32 G imm_i [31:0] $end
$var wire 32 H ALUData_o [31:0] $end
$upscope $end
$scope module PC $end
$var wire 1 ! clk_i $end
$var wire 32 I pc_i [31:0] $end
$var wire 1 " rst_i $end
$var reg 32 J pc_o [31:0] $end
$upscope $end
$scope module Registers $end
$var wire 5 K RDaddr_i [4:0] $end
$var wire 32 L RDdata_i [31:0] $end
$var wire 5 M RS1addr_i [4:0] $end
$var wire 32 N RS1data_o [31:0] $end
$var wire 5 O RS2addr_i [4:0] $end
$var wire 32 P RS2data_o [31:0] $end
$var wire 1 2 RegWrite_i $end
$var wire 1 ! clk_i $end
$var wire 1 " rst_i $end
$var integer 32 Q i [31:0] $end
$upscope $end
$scope module Sign_Extend $end
$var wire 12 R imm_i [11:0] $end
$var wire 32 S imm_o [31:0] $end
$upscope $end
$upscope $end
$upscope $end
$enddefinitions $end
#0
$dumpvars
b11111111111111111111111000000000 S
b111000000000 R
b100000 Q
b0 P
b0 O
b0 N
b1000 M
b11111111111111111111111000000000 L
b1000 K
b0 J
b100 I
b11111111111111111111111000000000 H
b11111111111111111111111000000000 G
b0 F
b0 E
b11100000000001000000010000010011 D
b0 C
b10011 B
b0 A
b100 @
b100 ?
b110 >
b0 =
b1110000000 <
b11111111111111111111111000000000 ;
b110 :
b0 9
b11111111111111111111111000000000 8
b1110000000 7
b110 6
b11111111111111111111111000000000 5
b0 4
13
12
b111000000000 1
b11111111111111111111111000000000 0
b11100000000001000000010000010011 /
b10011 .
b100 -
b0 ,
b1000 +
b11111111111111111111111000000000 *
b1000 )
b0 (
b0 '
b0 &
b11 %
b100000000 $
b0 #
0"
0!
$end
#12
1"
#25
b111 6
b111 :
b111 >
b10000000100 5
b10000000100 8
b10000000100 H
b100000101 7
b100000101 <
b10000000100 0
b10000000100 G
b10000000100 S
b10000000100 1
b10000000100 R
b10 +
b10 K
b100 '
b100 O
b11111111111111111111111111100000 *
b11111111111111111111111111100000 ;
b11111111111111111111111111100000 L
b1000000010001000101000100010011 /
b1000000010001000101000100010011 D
b11111111111111111111111000000000 (
b11111111111111111111111000000000 9
b11111111111111111111111000000000 N
b1000 -
b1000 @
b1000 I
b100 ,
b100 A
b100 E
b100 J
b1 #
1!
#50
0!
#75
b100 6
b100 :
b100 >
b0 5
b0 8
b0 H
b0 *
b0 ;
b0 L
b10 4
b10 =
b10 C
03
b100000000 7
b100000000 <
b10000001001 0
b10000001001 G
b10000001001 S
b10000001001 1
b10000001001 R
b0 +
b0 K
b1001 '
b1001 O
b0 (
b0 9
b0 N
b11011 )
b11011 M
b110011 .
b110011 B
b1000000100111011000000000110011 /
b1000000100111011000000000110011 D
b1100 -
b1100 @
b1100 I
b1000 ,
b1000 A
b1000 E
b1000 J
b10 #
1!
#100
0!
#125
b1 6
b1 :
b1 >
b100 7
b100 <
b0 0
b0 G
b0 S
b0 1
b0 R
b11011 +
b11011 K
b0 '
b0 O
b10110 )
b10110 M
b10110100110110110011 /
b10110100110110110011 D
b10000 -
b10000 @
b10000 I
b1100 ,
b1100 A
b1100 E
b1100 J
b11 #
1!
#150
0!
#175
b101 6
b101 :
b101 >
b1000 7
b1000 <
b100100 0
b100100 G
b100100 S
b100100 1
b100100 R
b10011 +
b10011 K
b100 '
b100 O
b1011 )
b1011 M
b10010001011000100110110011 /
b10010001011000100110110011 D
b10100 -
b10100 @
b10100 I
b10000 ,
b10000 A
b10000 E
b10000 J
b100 #
1!
#200
0!
#225
b100 6
b100 :
b100 >
b100000000 7
b100000000 <
b10000011111 0
b10000011111 G
b10000011111 S
b10000011111 1
b10000011111 R
b1011 +
b1011 K
b11111 '
b11111 O
b110 )
b110 M
b1000001111100110000010110110011 /
b1000001111100110000010110110011 D
b11000 -
b11000 @
b11000 I
b10100 ,
b10100 A
b10100 E
b10100 J
b101 #
1!
#250
0!
#275
b101 6
b101 :
b101 >
b1000 7
b1000 <
b111001 0
b111001 G
b111001 S
b111001 1
b111001 R
b11111 +
b11111 K
b11001 '
b11001 O
b1101 )
b1101 M
b11100101101000111110110011 /
b11100101101000111110110011 D
b11100 -
b11100 @
b11100 I
b11000 ,
b11000 A
b11000 E
b11000 J
b110 #
1!
#300
0!
#325
b11111111111111111111110100000011 *
b11111111111111111111110100000011 ;
b11111111111111111111110100000011 L
b110 6
b110 :
b110 >
b11111111111111111111110100000011 5
b11111111111111111111110100000011 8
b11111111111111111111110100000011 H
b0 4
b0 =
b0 C
13
b1101000000 7
b1101000000 <
b11111111111111111111110100000011 0
b11111111111111111111110100000011 G
b11111111111111111111110100000011 S
b110100000011 1
b110100000011 R
b10110 +
b10110 K
b11 '
b11 O
b10100 )
b10100 M
b10011 .
b10011 B
b11010000001110100000101100010011 /
b11010000001110100000101100010011 D
b100000 -
b100000 @
b100000 I
b11100 ,
b11100 A
b11100 E
b11100 J
b111 #
1!
#350
0!
#375
b10 6
b10 :
b10 >
b0 *
b0 ;
b0 L
b0 5
b0 8
b0 H
b10 4
b10 =
b10 C
03
b1 7
b1 <
b1100 0
b1100 G
b1100 S
b1100 1
b1100 R
b1001 +
b1001 K
b1100 '
b1100 O
b1001 )
b1001 M
b110011 .
b110011 B
b110001001001010010110011 /
b110001001001010010110011 D
b100100 -
b100100 @
b100100 I
b100000 ,
b100000 A
b100000 E
b100000 J
b1000 #
1!
#400
0!
#425
b101 6
b101 :
b101 >
b1000 7
b1000 <
b110011 0
b110011 G
b110011 S
b110011 1
b110011 R
b1100 +
b1100 K
b10011 '
b10011 O
b111 )
b111 M
b11001100111000011000110011 /
b11001100111000011000110011 D
b101000 -
b101000 @
b101000 I
b100100 ,
b100100 A
b100100 E
b100100 J
b1001 #
1!
#450
0!
#475
b1 6
b1 :
b1 >
b100 7
b100 <
b1010 0
b1010 G
b1010 S
b1010 1
b1010 R
b1111 +
b1111 K
b1010 '
b1010 O
b1110 )
b1110 M
b101001110100011110110011 /
b101001110100011110110011 D
b101100 -
b101100 @
b101100 I
b101000 ,
b101000 A
b101000 E
b101000 J
b1010 #
1!
#500
0!
#525
b100 6
b100 :
b100 >
b100000000 7
b100000000 <
b10000000101 0
b10000000101 G
b10000000101 S
b10000000101 1
b10000000101 R
b11101 +
b11101 K
b101 '
b101 O
b11111 )
b11111 M
b1000000010111111000111010110011 /
b1000000010111111000111010110011 D
b110000 -
b110000 @
b110000 I
b101100 ,
b101100 A
b101100 E
b101100 J
b1011 #
1!
#550
0!
#575
b11 6
b11 :
b11 >
b0 7
b0 <
b11 0
b11 G
b11 S
b11 1
b11 R
b10110 +
b10110 K
b11 '
b11 O
b10101 )
b10101 M
b1110101000101100110011 /
b1110101000101100110011 D
b110100 -
b110100 @
b110100 I
b110000 ,
b110000 A
b110000 E
b110000 J
b1100 #
1!
#600
0!
#625
b110 6
b110 :
b110 >
b1000100000 *
b1000100000 ;
b1000100000 L
b1000100000 5
b1000100000 8
b1000100000 H
b0 4
b0 =
b0 C
13
b10001000 7
b10001000 <
b1000100000 0
b1000100000 G
b1000100000 S
b1000100000 1
b1000100000 R
b10010 +
b10010 K
b0 '
b0 O
b11111 )
b11111 M
b10011 .
b10011 B
b100010000011111000100100010011 /
b100010000011111000100100010011 D
b111000 -
b111000 @
b111000 I
b110100 ,
b110100 A
b110100 E
b110100 J
b1101 #
1!
#650
0!
#675
b111 6
b111 :
b111 >
b0 *
b0 ;
b0 L
b10000010111 5
b10000010111 8
b10000010111 H
b100000101 7
b100000101 <
b10000010111 0
b10000010111 G
b10000010111 S
b10000010111 1
b10000010111 R
b1011 +
b1011 K
b10111 '
b10111 O
b10101 )
b10101 M
b1000001011110101101010110010011 /
b1000001011110101101010110010011 D
b111100 -
b111100 @
b111100 I
b111000 ,
b111000 A
b111000 E
b111000 J
b1110 #
1!
#700
0!
#725
b100 6
b100 :
b100 >
b0 5
b0 8
b0 H
b10 4
b10 =
b10 C
03
b100000000 7
b100000000 <
b10000011000 0
b10000011000 G
b10000011000 S
b10000011000 1
b10000011000 R
b11 +
b11 K
b11000 '
b11000 O
b101 )
b101 M
b110011 .
b110011 B
b1000001100000101000000110110011 /
b1000001100000101000000110110011 D
b1000000 -
b1000000 @
b1000000 I
b111100 ,
b111100 A
b111100 E
b111100 J
b1111 #
1!
#750
0!
#775
b1 6
b1 :
b1 >
b100 7
b100 <
b11010 0
b11010 G
b11010 S
b11010 1
b11010 R
b11111 +
b11111 K
b11010 '
b11010 O
b11011 )
b11011 M
b1101011011100111110110011 /
b1101011011100111110110011 D
b1000100 -
b1000100 @
b1000100 I
b1000000 ,
b1000000 A
b1000000 E
b1000000 J
b10000 #
1!
#800
0!
#825
b0 6
b0 :
b0 >
b111 7
b111 <
b10011 0
b10011 G
b10011 S
b10011 1
b10011 R
b111 +
b111 K
b10011 '
b10011 O
b1001 )
b1001 M
b1001101001111001110110011 /
b1001101001111001110110011 D
b1001000 -
b1001000 @
b1001000 I
b1000100 ,
b1000100 A
b1000100 E
b1000100 J
b10001 #
1!
#850
0!
#875
b10111 0
b10111 G
b10111 S
b10111 1
b10111 R
b11111 +
b11111 K
b10111 '
b10111 O
b11101 )
b11101 M
b1011111101111111110110011 /
b1011111101111111110110011 D
b1001100 -
b1001100 @
b1001100 I
b1001000 ,
b1001000 A
b1001000 E
b1001000 J
b10010 #
1!
#900
0!
#925
b10 6
b10 :
b10 >
b1 7
b1 <
b11011 0
b11011 G
b11011 S
b11011 1
b11011 R
b11011 +
b11011 K
b11011 '
b11011 O
b10101 )
b10101 M
b1101110101001110110110011 /
b1101110101001110110110011 D
b1010000 -
b1010000 @
b1010000 I
b1001100 ,
b1001100 A
b1001100 E
b1001100 J
b10011 #
1!
#950
0!
#975
b1111 0
b1111 G
b1111 S
b1111 1
b1111 R
b1 +
b1 K
b1111 '
b1111 O
b11000 )
b11000 M
b111111000001000010110011 /
b111111000001000010110011 D
b1010100 -
b1010100 @
b1010100 I
b1010000 ,
b1010000 A
b1010000 E
b1010000 J
b10100 #
1!
#1000
0!
#1025
b100 6
b100 :
b100 >
b100000000 7
b100000000 <
b10000011011 0
b10000011011 G
b10000011011 S
b10000011011 1
b10000011011 R
b11 +
b11 K
b11011 '
b11011 O
b0 )
b0 M
b1000001101100000000000110110011 /
b1000001101100000000000110110011 D
b1011000 -
b1011000 @
b1011000 I
b1010100 ,
b1010100 A
b1010100 E
b1010100 J
b10101 #
1!
#1050
0!
#1075
b101 6
b101 :
b101 >
b1000 7
b1000 <
b110101 0
b110101 G
b110101 S
b110101 1
b110101 R
b10000 +
b10000 K
b10101 '
b10101 O
b11110 )
b11110 M
b11010111110000100000110011 /
b11010111110000100000110011 D
b1011100 -
b1011100 @
b1011100 I
b1011000 ,
b1011000 A
b1011000 E
b1011000 J
b10110 #
1!
#1100
0!
#1125
b11 6
b11 :
b11 >
b0 7
b0 <
b1101 0
b1101 G
b1101 S
b1101 1
b1101 R
b1101 +
b1101 K
b1101 '
b1101 O
b11011 )
b11011 M
b110111011000011010110011 /
b110111011000011010110011 D
b1100000 -
b1100000 @
b1100000 I
b1011100 ,
b1011100 A
b1011100 E
b1011100 J
b10111 #
1!
#1150
0!
#1175
b110 6
b110 :
b110 >
b1001100011 *
b1001100011 ;
b1001100011 L
b1001100011 5
b1001100011 8
b1001100011 H
b0 4
b0 =
b0 C
13
b10011000 7
b10011000 <
b1001100011 0
b1001100011 G
b1001100011 S
b1001100011 1
b1001100011 R
b1001 +
b1001 K
b11 '
b11 O
b11000 )
b11000 M
b10011 .
b10011 B
b100110001111000000010010010011 /
b100110001111000000010010010011 D
b1100100 -
b1100100 @
b1100100 I
b1100000 ,
b1100000 A
b1100000 E
b1100000 J
b11000 #
1!
#1200
0!
#1225
b11111111111111111111100100010111 5
b11111111111111111111100100010111 8
b11111111111111111111100100010111 H
b11111111111111111111011100010111 *
b11111111111111111111011100010111 ;
b11111111111111111111011100010111 L
b1001000000 7
b1001000000 <
b11111111111111111111100100010111 0
b11111111111111111111100100010111 G
b11111111111111111111100100010111 S
b100100010111 1
b100100010111 R
b1100 +
b1100 K
b10111 '
b10111 O
b11111111111111111111111000000000 (
b11111111111111111111111000000000 9
b11111111111111111111111000000000 N
b1000 )
b1000 M
b10010001011101000000011000010011 /
b10010001011101000000011000010011 D
b1101000 -
b1101000 @
b1101000 I
b1100100 ,
b1100100 A
b1100100 E
b1100100 J
b11001 #
1!
#1250
0!
#1275
b10 6
b10 :
b10 >
b0 5
b0 8
b0 H
b0 *
b0 ;
b0 L
b10 4
b10 =
b10 C
03
b1 7
b1 <
b10100 0
b10100 G
b10100 S
b10100 1
b10100 R
b110 +
b110 K
b10100 '
b10100 O
b0 (
b0 9
b0 N
b11 )
b11 M
b110011 .
b110011 B
b1010000011001001100110011 /
b1010000011001001100110011 D
b1101100 -
b1101100 @
b1101100 I
b1101000 ,
b1101000 A
b1101000 E
b1101000 J
b11010 #
1!
#1300
0!
#1325
b100 6
b100 :
b100 >
b100000000 7
b100000000 <
b10000000111 0
b10000000111 G
b10000000111 S
b10000000111 1
b10000000111 R
b10101 +
b10101 K
b111 '
b111 O
b100 )
b100 M
b1000000011100100000101010110011 /
b1000000011100100000101010110011 D
b1110000 -
b1110000 @
b1110000 I
b1101100 ,
b1101100 A
b1101100 E
b1101100 J
b11011 #
1!
#1350
0!
#1375
b111 6
b111 :
b111 >
b0 *
b0 ;
b0 L
b10000010101 5
b10000010101 8
b10000010101 H
b0 4
b0 =
b0 C
13
b100000101 7
b100000101 <
b10000010101 0
b10000010101 G
b10000010101 S
b10000010101 1
b10000010101 R
b101 +
b101 K
b10101 '
b10101 O
b10111 )
b10111 M
b10011 .
b10011 B
b1000001010110111101001010010011 /
b1000001010110111101001010010011 D
b1110100 -
b1110100 @
b1110100 I
b1110000 ,
b1110000 A
b1110000 E
b1110000 J
b11100 #
1!
#1400
0!
#1425
b10 6
b10 :
b10 >
b0 5
b0 8
b0 H
b10 4
b10 =
b10 C
03
b1 7
b1 <
b11 0
b11 G
b11 S
b11 1
b11 R
b10100 +
b10100 K
b11 '
b11 O
b10001 )
b10001 M
b110011 .
b110011 B
b1110001001101000110011 /
b1110001001101000110011 D
b1111000 -
b1111000 @
b1111000 I
b1110100 ,
b1110100 A
b1110100 E
b1110100 J
b11101 #
1!
#1450
0!
#1475
b1101 0
b1101 G
b1101 S
b1101 1
b1101 R
b111 +
b111 K
b1101 '
b1101 O
b10000 )
b10000 M
b110110000001001110110011 /
b110110000001001110110011 D
b1111100 -
b1111100 @
b1111100 I
b1111000 ,
b1111000 A
b1111000 E
b1111000 J
b11110 #
1!
#1500
0!
#1525
b1110 0
b1110 G
b1110 S
b1110 1
b1110 R
b11110 +
b11110 K
b1110 '
b1110 O
b1011 )
b1011 M
b111001011001111100110011 /
b111001011001111100110011 D
b10000000 -
b10000000 @
b10000000 I
b1111100 ,
b1111100 A
b1111100 E
b1111100 J
1!
