lab2/lab2/log/waveform_2.vcd
$date
	Fri Nov 24 10:58:03 2023
$end
$version
	Icarus Verilog
$end
$timescale
	1s
$end
$scope module TestBench $end
$var reg 1 ! Clk $end
$var reg 1 " Reset $end
$var integer 32 # counter [31:0] $end
$var integer 32 $ flush [31:0] $end
$var integer 32 % i [31:0] $end
$var integer 32 & outfile [31:0] $end
$var integer 32 ' stall [31:0] $end
$scope module CPU $end
$var wire 1 ! clk_i $end
$var wire 1 " rst_i $end
$var wire 32 ( pc_o [31:0] $end
$var wire 32 ) pc_i [31:0] $end
$var wire 32 * instr_o [31:0] $end
$var wire 10 + funct_i [9:0] $end
$var wire 32 , branch_PC [31:0] $end
$var wire 1 - Stall_o $end
$var wire 1 . RegWrite_o $end
$var wire 32 / RS2data_o [31:0] $end
$var wire 5 0 RS2addr_i [4:0] $end
$var wire 32 1 RS1data_o [31:0] $end
$var wire 5 2 RS1addr_i [4:0] $end
$var wire 32 3 RDdata_i [31:0] $end
$var wire 5 4 RDaddr_i [4:0] $end
$var wire 1 5 PCWrite $end
$var wire 7 6 Opcode [6:0] $end
$var wire 1 7 NoOp_o $end
$var wire 1 8 MemtoReg_o $end
$var wire 32 9 Memdata_o [31:0] $end
$var wire 1 : MemWrite_o $end
$var wire 1 ; MemRead_o $end
$var wire 1 < MEM_WB_RegWrite_o $end
$var wire 5 = MEM_WB_RDaddr_o [4:0] $end
$var wire 1 > MEM_WB_MemtoReg_o $end
$var wire 32 ? MEM_WB_Memdata_o [31:0] $end
$var wire 32 @ MEM_WB_ALU_result_o [31:0] $end
$var wire 32 A Imm_o [31:0] $end
$var wire 12 B Imm_i [11:0] $end
$var wire 32 C IF_ID_pc_o [31:0] $end
$var wire 32 D IF_ID_instr_o [31:0] $end
$var wire 1 E ID_FlushIF $end
$var wire 10 F ID_EX_funct_o [9:0] $end
$var wire 1 G ID_EX_RegWrite_o $end
$var wire 32 H ID_EX_RS2data_o [31:0] $end
$var wire 5 I ID_EX_RS2addr_o [4:0] $end
$var wire 32 J ID_EX_RS1data_o [31:0] $end
$var wire 5 K ID_EX_RS1addr_o [4:0] $end
$var wire 5 L ID_EX_RDaddr_o [4:0] $end
$var wire 1 M ID_EX_MemtoReg_o $end
$var wire 1 N ID_EX_MemWrite_o $end
$var wire 1 O ID_EX_MemRead_o $end
$var wire 32 P ID_EX_Imm_o [31:0] $end
$var wire 1 Q ID_EX_ALUSrc_o $end
$var wire 2 R ID_EX_ALUOp_o [1:0] $end
$var wire 32 S ForwardBdata_o [31:0] $end
$var wire 2 T ForwardB_o [1:0] $end
$var wire 32 U ForwardAdata_o [31:0] $end
$var wire 2 V ForwardA_o [1:0] $end
$var wire 1 W EX_MEM_RegWrite_o $end
$var wire 32 X EX_MEM_RS2data_o [31:0] $end
$var wire 5 Y EX_MEM_RDaddr_o [4:0] $end
$var wire 1 Z EX_MEM_MemtoReg_o $end
$var wire 1 [ EX_MEM_MemWrite_o $end
$var wire 1 \ EX_MEM_MemRead_o $end
$var wire 32 ] EX_MEM_ALU_result_o [31:0] $end
$var wire 1 ^ Branch_o $end
$var wire 32 _ Add_PC_o [31:0] $end
$var wire 32 ` ALUdata_o [31:0] $end
$var wire 32 a ALUdata_i [31:0] $end
$var wire 1 b ALUSrc_o $end
$var wire 2 c ALUOp_o [1:0] $end
$var wire 3 d ALUCtrl_o [2:0] $end
$scope module ALU $end
$var wire 32 e data2_i [31:0] $end
$var wire 32 f data1_i [31:0] $end
$var wire 3 g ALUCtrl_i [2:0] $end
$var reg 32 h data_o [31:0] $end
$upscope $end
$scope module ALU_Control $end
$var wire 10 i funct_i [9:0] $end
$var wire 2 j ALUOp_i [1:0] $end
$var wire 3 k ALUCtrl_o [2:0] $end
$upscope $end
$scope module Add_PC $end
$var wire 32 l data2_in [31:0] $end
$var wire 32 m data_o [31:0] $end
$var wire 32 n data1_in [31:0] $end
$upscope $end
$scope module Branch_Unit $end
$var wire 32 o RS2data_i [31:0] $end
$var wire 32 p RS1data_i [31:0] $end
$var wire 32 q PC_o [31:0] $end
$var wire 32 r PC_i [31:0] $end
$var wire 32 s Imm_i [31:0] $end
$var wire 1 ^ Branch_i $end
$var reg 1 E Flush_o $end
$upscope $end
$scope module Control $end
$var wire 7 t Op_i [6:0] $end
$var wire 1 . RegWrite_o $end
$var wire 1 7 NoOp_i $end
$var wire 1 8 MemtoReg_o $end
$var wire 1 : MemWrite_o $end
$var wire 1 ; MemRead_o $end
$var wire 1 ^ Branch_o $end
$var wire 1 b ALUSrc_o $end
$var wire 2 u ALUOp_o [1:0] $end
$upscope $end
$scope module Data_Memory $end
$var wire 1 ! clk_i $end
$var wire 32 v data_o [31:0] $end
$var wire 32 w data_i [31:0] $end
$var wire 32 x addr_i [31:0] $end
$var wire 1 [ MemWrite_i $end
$var wire 1 \ MemRead_i $end
$upscope $end
$scope module EX_MEM $end
$var wire 32 y ALU_result_i [31:0] $end
$var wire 1 ! clk_i $end
$var wire 1 z rst_i $end
$var wire 1 G RegWrite_i $end
$var wire 32 { RS2data_i [31:0] $end
$var wire 5 | RDaddr_i [4:0] $end
$var wire 1 M MemtoReg_i $end
$var wire 1 N MemWrite_i $end
$var wire 1 O MemRead_i $end
$var reg 32 } ALU_result_o [31:0] $end
$var reg 1 \ MemRead_o $end
$var reg 1 [ MemWrite_o $end
$var reg 1 Z MemtoReg_o $end
$var reg 5 ~ RDaddr_o [4:0] $end
$var reg 32 !" RS2data_o [31:0] $end
$var reg 1 W RegWrite_o $end
$upscope $end
$scope module ForwardA $end
$var wire 32 "" data3_i [31:0] $end
$var wire 2 #" select_i [1:0] $end
$var wire 32 $" data_o [31:0] $end
$var wire 32 %" data2_i [31:0] $end
$var wire 32 &" data1_i [31:0] $end
$upscope $end
$scope module ForwardB $end
$var wire 32 '" data3_i [31:0] $end
$var wire 2 (" select_i [1:0] $end
$var wire 32 )" data_o [31:0] $end
$var wire 32 *" data2_i [31:0] $end
$var wire 32 +" data1_i [31:0] $end
$upscope $end
$scope module ForwardingUnit $end
$var wire 5 ," MEM_RDaddr_i [4:0] $end
$var wire 1 W MEM_RegWrite_i $end
$var wire 1 < WB_RegWrite_i $end
$var wire 5 -" WB_RDaddr_i [4:0] $end
$var wire 5 ." EX_RS2addr_i [4:0] $end
$var wire 5 /" EX_RS1addr_i [4:0] $end
$var reg 2 0" ForwardA_o [1:0] $end
$var reg 2 1" ForwardB_o [1:0] $end
$upscope $end
$scope module Hazard_Detection $end
$var wire 5 2" RS1addr_i [4:0] $end
$var wire 5 3" RS2addr_i [4:0] $end
$var wire 5 4" RDaddr_i [4:0] $end
$var wire 1 O MemRead_i $end
$var reg 1 7 NoOp_o $end
$var reg 1 5 PCWrite_o $end
$var reg 1 - Stall_o $end
$upscope $end
$scope module ID_EX $end
$var wire 2 5" ALUOp_i [1:0] $end
$var wire 1 b ALUSrc_i $end
$var wire 1 ; MemRead_i $end
$var wire 1 : MemWrite_i $end
$var wire 1 8 MemtoReg_i $end
$var wire 5 6" RDaddr_i [4:0] $end
$var wire 5 7" RS1addr_i [4:0] $end
$var wire 5 8" RS2addr_i [4:0] $end
$var wire 1 . RegWrite_i $end
$var wire 1 ! clk_i $end
$var wire 10 9" funct_i [9:0] $end
$var wire 1 :" rst_i $end
$var wire 32 ;" data2_i [31:0] $end
$var wire 32 <" data1_i [31:0] $end
$var wire 32 =" Imm_i [31:0] $end
$var reg 2 >" ALUOp_o [1:0] $end
$var reg 1 Q ALUSrc_o $end
$var reg 32 ?" Imm_o [31:0] $end
$var reg 1 O MemRead_o $end
$var reg 1 N MemWrite_o $end
$var reg 1 M MemtoReg_o $end
$var reg 5 @" RDaddr_o [4:0] $end
$var reg 5 A" RS1addr_o [4:0] $end
$var reg 5 B" RS2addr_o [4:0] $end
$var reg 1 G RegWrite_o $end
$var reg 32 C" data1_o [31:0] $end
$var reg 32 D" data2_o [31:0] $end
$var reg 10 E" funct_o [9:0] $end
$upscope $end
$scope module IF_ID $end
$var wire 1 E Flush_i $end
$var wire 1 - Stall_i $end
$var wire 1 ! clk_i $end
$var wire 1 F" rst_i $end
$var wire 32 G" instr_i [31:0] $end
$var wire 32 H" PC_i [31:0] $end
$var reg 32 I" PC_o [31:0] $end
$var reg 32 J" instr_o [31:0] $end
$upscope $end
$scope module Instruction_Memory $end
$var wire 32 K" instr_o [31:0] $end
$var wire 32 L" addr_i [31:0] $end
$upscope $end
$scope module MEM_WB $end
$var wire 32 M" ALU_result_i [31:0] $end
$var wire 1 Z MemtoReg_i $end
$var wire 5 N" RDaddr_i [4:0] $end
$var wire 1 W RegWrite_i $end
$var wire 1 ! clk_i $end
$var wire 32 O" data_i [31:0] $end
$var wire 1 P" rst_i $end
$var reg 32 Q" ALU_result_o [31:0] $end
$var reg 1 > MemtoReg_o $end
$var reg 5 R" RDaddr_o [4:0] $end
$var reg 1 < RegWrite_o $end
$var reg 32 S" data_o [31:0] $end
$upscope $end
$scope module MUX_ALUSrc $end
$var wire 32 T" data1_i [31:0] $end
$var wire 32 U" data2_i [31:0] $end
$var wire 1 Q select_i $end
$var wire 32 V" data_o [31:0] $end
$upscope $end
$scope module MUX_PC $end
$var wire 32 W" data1_i [31:0] $end
$var wire 32 X" data2_i [31:0] $end
$var wire 1 E select_i $end
$var wire 32 Y" data_o [31:0] $end
$upscope $end
$scope module MUX_WriteSrc $end
$var wire 32 Z" data1_i [31:0] $end
$var wire 32 [" data2_i [31:0] $end
$var wire 1 > select_i $end
$var wire 32 \" data_o [31:0] $end
$upscope $end
$scope module PC $end
$var wire 1 5 PCWrite_i $end
$var wire 1 ! clk_i $end
$var wire 32 ]" pc_i [31:0] $end
$var wire 1 " rst_i $end
$var reg 32 ^" pc_o [31:0] $end
$upscope $end
$scope module Registers $end
$var wire 5 _" RDaddr_i [4:0] $end
$var wire 32 `" RDdata_i [31:0] $end
$var wire 5 a" RS1addr_i [4:0] $end
$var wire 5 b" RS2addr_i [4:0] $end
$var wire 1 < RegWrite_i $end
$var wire 1 ! clk_i $end
$var wire 1 c" rst_i $end
$var wire 32 d" RS2data_o [31:0] $end
$var wire 32 e" RS1data_o [31:0] $end
$var integer 32 f" i [31:0] $end
$upscope $end
$scope module Sign_Extend $end
$var wire 12 g" data_i [11:0] $end
$var wire 32 h" data_o [31:0] $end
$upscope $end
$scope begin $ivl_for_loop0 $end
$var integer 32 i" i [31:0] $end
$upscope $end
$upscope $end
$upscope $end
$enddefinitions $end
#0
$dumpvars
b100000 i"
b0 h"
b0 g"
bx f"
b0 e"
b0 d"
zc"
b0 b"
b0 a"
b0 `"
b0 _"
bx ^"
bx ]"
b0 \"
b0 ["
b0 Z"
bx Y"
b0 X"
bx W"
b0 V"
b0 U"
b0 T"
b0 S"
b0 R"
b0 Q"
0P"
b0 O"
b0 N"
b0 M"
bx L"
bx K"
b0 J"
b0 I"
bx H"
bx G"
0F"
b0 E"
b0 D"
b0 C"
b0 B"
b0 A"
b0 @"
b0 ?"
b0 >"
b0 ="
b0 <"
b0 ;"
0:"
b0 9"
b0 8"
b0 7"
b0 6"
b0 5"
b0 4"
b0 3"
b0 2"
b0 1"
b0 0"
b0 /"
b0 ."
b0 -"
b0 ,"
b0 +"
b0 *"
b0 )"
b0 ("
b0 '"
b0 &"
b0 %"
b0 $"
b0 #"
b0 ""
b0 !"
b0 ~
b0 }
b0 |
b0 {
0z
b0 y
b0 x
b0 w
b0 v
b0 u
b0 t
b0 s
b0 r
b0 q
b0 p
b0 o
bx n
bx m
b100 l
b110 k
b0 j
b0 i
b0 h
b110 g
b0 f
b0 e
b110 d
b0 c
0b
b0 a
b0 `
bx _
0^
b0 ]
0\
0[
0Z
b0 Y
b0 X
0W
b0 V
b0 U
b0 T
b0 S
b0 R
0Q
b0 P
0O
0N
0M
b0 L
b0 K
b0 J
b0 I
b0 H
0G
b0 F
0E
b0 D
b0 C
b0 B
b0 A
b0 @
b0 ?
0>
b0 =
0<
0;
0:
b0 9
08
07
b0 6
15
b0 4
b0 3
b0 2
b0 1
b0 0
b0 /
0.
0-
b0 ,
b0 +
bx *
bx )
bx (
b0 '
b11 &
b100000 %
b0 $
b0 #
1"
0!
$end
#6
b1100010000000100000110011 *
b1100010000000100000110011 G"
b1100010000000100000110011 K"
b100 )
b100 Y"
b100 ]"
b100 _
b100 m
b100 W"
b0 (
b0 n
b0 H"
b0 L"
b0 ^"
1F"
1:"
1z
1P"
0"
#12
0F"
0:"
0z
0P"
1"
#25
b1100110000000100000110011 *
b1100110000000100000110011 G"
b1100110000000100000110011 K"
b1000 )
b1000 Y"
b1000 ]"
b1000 _
b1000 m
b1000 W"
b100 (
b100 n
b100 H"
b100 L"
b100 ^"
b110000 ,
b110000 q
b110000 X"
b11000 A
b11000 s
b11000 ="
b11000 h"
b11000 B
b11000 g"
1.
b11111111111111111111111111101000 /
b11111111111111111111111111101000 o
b11111111111111111111111111101000 ;"
b11111111111111111111111111101000 d"
b10 c
b10 u
b10 5"
b10000 4
b10000 6"
b11000 0
b11000 3"
b11000 8"
b11000 b"
b10000 2
b10000 2"
b10000 7"
b10000 a"
b110011 6
b110011 t
b1100010000000100000110011 D
b1100010000000100000110011 J"
b1 #
1!
#50
0!
#75
b11 d
b11 g
b11 k
b11111111111111111111111111101000 `
b11111111111111111111111111101000 h
b11111111111111111111111111101000 y
b11111111111111111111111111101000 a
b11111111111111111111111111101000 e
b11111111111111111111111111101000 V"
b11111111111111111111111111101000 S
b11111111111111111111111111101000 {
b11111111111111111111111111101000 )"
b11111111111111111111111111101000 T"
b1101010000000100000110011 *
b1101010000000100000110011 G"
b1101010000000100000110011 K"
b1100 )
b1100 Y"
b1100 ]"
b10000 L
b10000 |
b10000 4"
b10000 @"
b11000 I
b11000 ."
b11000 B"
b10000 K
b10000 /"
b10000 A"
b11000 P
b11000 ?"
b11000 U"
b11111111111111111111111111101000 H
b11111111111111111111111111101000 +"
b11111111111111111111111111101000 D"
b10 R
b10 j
b10 >"
1G
b1100 _
b1100 m
b1100 W"
b1000 (
b1000 n
b1000 H"
b1000 L"
b1000 ^"
b11001 A
b11001 s
b11001 ="
b11001 h"
b11001 B
b11001 g"
b11111111111111111111111111100111 /
b11111111111111111111111111100111 o
b11111111111111111111111111100111 ;"
b11111111111111111111111111100111 d"
b11001 0
b11001 3"
b11001 8"
b11001 b"
b10 #
b110110 ,
b110110 q
b110110 X"
b100 C
b100 r
b100 I"
b1100110000000100000110011 D
b1100110000000100000110011 J"
1!
#100
0!
#125
b11111111111111111111111111001111 `
b11111111111111111111111111001111 h
b11111111111111111111111111001111 y
b11111111111111111111111111100111 a
b11111111111111111111111111100111 e
b11111111111111111111111111100111 V"
b11111111111111111111111111101000 U
b11111111111111111111111111101000 f
b11111111111111111111111111101000 $"
b11111111111111111111111111100111 S
b11111111111111111111111111100111 {
b11111111111111111111111111100111 )"
b11111111111111111111111111100111 T"
b10 V
b10 #"
b10 0"
b1110010000000100000110011 *
b1110010000000100000110011 G"
b1110010000000100000110011 K"
b10000 )
b10000 Y"
b10000 ]"
b11001 I
b11001 ."
b11001 B"
b11001 P
b11001 ?"
b11001 U"
b11111111111111111111111111100111 H
b11111111111111111111111111100111 +"
b11111111111111111111111111100111 D"
b10000 Y
b10000 ~
b10000 ,"
b10000 N"
b11111111111111111111111111101000 X
b11111111111111111111111111101000 w
b11111111111111111111111111101000 !"
b11111111111111111111111111101000 ]
b11111111111111111111111111101000 x
b11111111111111111111111111101000 }
b11111111111111111111111111101000 ""
b11111111111111111111111111101000 '"
b11111111111111111111111111101000 M"
1W
b10000 _
b10000 m
b10000 W"
b1100 (
b1100 n
b1100 H"
b1100 L"
b1100 ^"
b11010 A
b11010 s
b11010 ="
b11010 h"
b11010 B
b11010 g"
b11111111111111111111111111100110 /
b11111111111111111111111111100110 o
b11111111111111111111111111100110 ;"
b11111111111111111111111111100110 d"
b11010 0
b11010 3"
b11010 8"
b11010 b"
b111100 ,
b111100 q
b111100 X"
b1000 C
b1000 r
b1000 I"
b1101010000000100000110011 D
b1101010000000100000110011 J"
b11 #
1!
#150
0!
#175
b11111111111111111111111111001111 U
b11111111111111111111111111001111 f
b11111111111111111111111111001111 $"
b11111111111111111111111110110101 `
b11111111111111111111111110110101 h
b11111111111111111111111110110101 y
b11111111111111111111111111101000 1
b11111111111111111111111111101000 p
b11111111111111111111111111101000 <"
b11111111111111111111111111101000 e"
b11111111111111111111111111100110 a
b11111111111111111111111111100110 e
b11111111111111111111111111100110 V"
b11111111111111111111111111101000 3
b11111111111111111111111111101000 %"
b11111111111111111111111111101000 *"
b11111111111111111111111111101000 \"
b11111111111111111111111111101000 `"
b10 V
b10 #"
b10 0"
b11111111111111111111111111100110 S
b11111111111111111111111111100110 {
b11111111111111111111111111100110 )"
b11111111111111111111111111100110 T"
b1000000000010110000100011 *
b1000000000010110000100011 G"
b1000000000010110000100011 K"
b10100 )
b10100 Y"
b10100 ]"
b10000 =
b10000 -"
b10000 R"
b10000 _"
b11111111111111111111111111101000 @
b11111111111111111111111111101000 Q"
b11111111111111111111111111101000 Z"
1<
b11111111111111111111111111100111 X
b11111111111111111111111111100111 w
b11111111111111111111111111100111 !"
b11111111111111111111111111001111 ]
b11111111111111111111111111001111 x
b11111111111111111111111111001111 }
b11111111111111111111111111001111 ""
b11111111111111111111111111001111 '"
b11111111111111111111111111001111 M"
b11010 I
b11010 ."
b11010 B"
b11010 P
b11010 ?"
b11010 U"
b11111111111111111111111111100110 H
b11111111111111111111111111100110 +"
b11111111111111111111111111100110 D"
b10100 _
b10100 m
b10100 W"
b10000 (
b10000 n
b10000 H"
b10000 L"
b10000 ^"
b11100 A
b11100 s
b11100 ="
b11100 h"
b11100 B
b11100 g"
b111000 /
b111000 o
b111000 ;"
b111000 d"
b11100 0
b11100 3"
b11100 8"
b11100 b"
b100 #
b1000100 ,
b1000100 q
b1000100 X"
b1100 C
b1100 r
b1100 I"
b1110010000000100000110011 D
b1110010000000100000110011 J"
1!
#200
0!
#225
b11111111111111111111111111101101 `
b11111111111111111111111111101101 h
b11111111111111111111111111101101 y
b11111111111111111111111110110101 U
b11111111111111111111111110110101 f
b11111111111111111111111110110101 $"
b111000 a
b111000 e
b111000 V"
b10 V
b10 #"
b10 0"
b111000 S
b111000 {
b111000 )"
b111000 T"
b11111111111111111111111111001111 3
b11111111111111111111111111001111 %"
b11111111111111111111111111001111 *"
b11111111111111111111111111001111 \"
b11111111111111111111111111001111 `"
b1000001111011111000000010110011 *
b1000001111011111000000010110011 G"
b1000001111011111000000010110011 K"
b11000 )
b11000 Y"
b11000 ]"
b11100 I
b11100 ."
b11100 B"
b11100 P
b11100 ?"
b11100 U"
b111000 H
b111000 +"
b111000 D"
b11111111111111111111111111101000 J
b11111111111111111111111111101000 &"
b11111111111111111111111111101000 C"
b11111111111111111111111111100110 X
b11111111111111111111111111100110 w
b11111111111111111111111111100110 !"
b11111111111111111111111110110101 ]
b11111111111111111111111110110101 x
b11111111111111111111111110110101 }
b11111111111111111111111110110101 ""
b11111111111111111111111110110101 '"
b11111111111111111111111110110101 M"
b11111111111111111111111111001111 @
b11111111111111111111111111001111 Q"
b11111111111111111111111111001111 Z"
b11000 _
b11000 m
b11000 W"
b10100 (
b10100 n
b10100 H"
b10100 L"
b10100 ^"
1b
b0 1
b0 p
b0 <"
b0 e"
0.
1:
b11111111111111111111111111001111 /
b11111111111111111111111111001111 o
b11111111111111111111111111001111 ;"
b11111111111111111111111111001111 d"
b11000 A
b11000 s
b11000 ="
b11000 h"
b11000 B
b11000 g"
b0 c
b0 u
b0 5"
b10 +
b10 9"
b11000 4
b11000 6"
b10000 0
b10000 3"
b10000 8"
b10000 b"
b0 2
b0 2"
b0 7"
b0 a"
b100011 6
b100011 t
b1000000 ,
b1000000 q
b1000000 X"
b10000 C
b10000 r
b10000 I"
b1000000000010110000100011 D
b1000000000010110000100011 J"
b101 #
1!
#250
0!
#275
b11 d
b11 g
b11 k
b0 U
b0 f
b0 $"
b11000 `
b11000 h
b11000 y
b11111111111111111111111110110101 3
b11111111111111111111111110110101 %"
b11111111111111111111111110110101 *"
b11111111111111111111111110110101 \"
b11111111111111111111111110110101 `"
b10 T
b10 ("
b10 1"
b0 V
b0 #"
b0 0"
b11111111111111111111111111101101 S
b11111111111111111111111111101101 {
b11111111111111111111111111101101 )"
b11111111111111111111111111101101 T"
b11000 a
b11000 e
b11000 V"
b1111000001000000100110011 *
b1111000001000000100110011 G"
b1111000001000000100110011 K"
b11100 )
b11100 Y"
b11100 ]"
b11111111111111111111111110110101 @
b11111111111111111111111110110101 Q"
b11111111111111111111111110110101 Z"
b111000 X
b111000 w
b111000 !"
b11111111111111111111111111101101 ]
b11111111111111111111111111101101 x
b11111111111111111111111111101101 }
b11111111111111111111111111101101 ""
b11111111111111111111111111101101 '"
b11111111111111111111111111101101 M"
b11000 L
b11000 |
b11000 4"
b11000 @"
b10000 I
b10000 ."
b10000 B"
b0 K
b0 /"
b0 A"
b10 F
b10 i
b10 E"
b11000 P
b11000 ?"
b11000 U"
b11111111111111111111111111001111 H
b11111111111111111111111111001111 +"
b11111111111111111111111111001111 D"
b0 J
b0 &"
b0 C"
1Q
b0 R
b0 j
b0 >"
1N
0G
b11100 _
b11100 m
b11100 W"
b11000 (
b11000 n
b11000 H"
b11000 L"
b11000 ^"
b111100 /
b111100 o
b111100 ;"
b111100 d"
1.
0:
b111110 1
b111110 p
b111110 <"
b111110 e"
b10000011110 A
b10000011110 s
b10000011110 ="
b10000011110 h"
b10000011110 B
b10000011110 g"
b10 c
b10 u
b10 5"
0b
b100000000 +
b100000000 9"
b1 4
b1 6"
b11110 0
b11110 3"
b11110 8"
b11110 b"
b11111 2
b11111 2"
b11111 7"
b11111 a"
b110011 6
b110011 t
b110 #
b100001010000 ,
b100001010000 q
b100001010000 X"
b10100 C
b10100 r
b10100 I"
b1000001111011111000000010110011 D
b1000001111011111000000010110011 J"
1!
#300
0!
#325
b100 d
b100 g
b100 k
b10 `
b10 h
b10 y
b111100 S
b111100 {
b111100 )"
b111100 T"
b111110 U
b111110 f
b111110 $"
b111100 a
b111100 e
b111100 V"
b0 T
b0 ("
b0 1"
b11111111111111111111111111101101 3
b11111111111111111111111111101101 %"
b11111111111111111111111111101101 *"
b11111111111111111111111111101101 \"
b11111111111111111111111111101101 `"
b1000000001000010101000110010011 *
b1000000001000010101000110010011 G"
b1000000001000010101000110010011 K"
b100000 )
b100000 Y"
b100000 ]"
b1 L
b1 |
b1 4"
b1 @"
b11110 I
b11110 ."
b11110 B"
b11111 K
b11111 /"
b11111 A"
b100000000 F
b100000000 i
b100000000 E"
b10000011110 P
b10000011110 ?"
b10000011110 U"
b111100 H
b111100 +"
b111100 D"
b111110 J
b111110 &"
b111110 C"
0Q
b10 R
b10 j
b10 >"
0N
1G
b11000 Y
b11000 ~
b11000 ,"
b11000 N"
b11111111111111111111111111101101 X
b11111111111111111111111111101101 w
b11111111111111111111111111101101 !"
b11000 ]
b11000 x
b11000 }
b11000 ""
b11000 '"
b11000 M"
1[
0W
b11111111111111111111111111101101 @
b11111111111111111111111111101101 Q"
b11111111111111111111111111101101 Z"
b100000 _
b100000 m
b100000 W"
b11100 (
b11100 n
b11100 H"
b11100 L"
b11100 ^"
b11110 A
b11110 s
b11110 ="
b11110 h"
b11110 B
b11110 g"
b0 1
b0 p
b0 <"
b0 e"
b0 +
b0 9"
b10 4
b10 6"
b1 2
b1 2"
b1 7"
b1 a"
b1010100 ,
b1010100 q
b1010100 X"
b11000 C
b11000 r
b11000 I"
b1111000001000000100110011 D
b1111000001000000100110011 J"
b111 #
1!
#350
0!
#375
b11 d
b11 g
b11 k
b111110 `
b111110 h
b111110 y
b11000 3
b11000 %"
b11000 *"
b11000 \"
b11000 `"
b10 V
b10 #"
b10 0"
b10 U
b10 f
b10 $"
b1000000000011010010011 *
b1000000000011010010011 G"
b1000000000011010010011 K"
b100100 )
b100100 Y"
b100100 ]"
b11000 =
b11000 -"
b11000 R"
b11000 _"
b11000 @
b11000 Q"
b11000 Z"
0<
b1 Y
b1 ~
b1 ,"
b1 N"
b111100 X
b111100 w
b111100 !"
b10 ]
b10 x
b10 }
b10 ""
b10 '"
b10 M"
0[
1W
b10 L
b10 |
b10 4"
b10 @"
b1 K
b1 /"
b1 A"
b0 F
b0 i
b0 E"
b11110 P
b11110 ?"
b11110 U"
b0 J
b0 &"
b0 C"
b100100 _
b100100 m
b100100 W"
b100000 (
b100000 n
b100000 H"
b100000 L"
b100000 ^"
b10000000010 A
b10000000010 s
b10000000010 ="
b10000000010 h"
b10000000010 B
b10000000010 g"
b0 /
b0 o
b0 ;"
b0 d"
b0 c
b0 u
b0 5"
1b
b100000101 +
b100000101 9"
b11 4
b11 6"
b10 0
b10 3"
b10 8"
b10 b"
b10 2
b10 2"
b10 7"
b10 a"
b10011 6
b10011 t
b1000 #
b100000100000 ,
b100000100000 q
b100000100000 X"
b11100 C
b11100 r
b11100 I"
b1000000001000010101000110010011 D
b1000000001000010101000110010011 J"
1!
#400
0!
#425
b111 d
b111 g
b111 k
b111110 U
b111110 f
b111110 $"
b1111 `
b1111 h
b1111 y
b111110 S
b111110 {
b111110 )"
b111110 T"
b10000000010 a
b10000000010 e
b10000000010 V"
b10 3
b10 %"
b10 *"
b10 \"
b10 `"
b10 T
b10 ("
b10 1"
b10 V
b10 #"
b10 0"
b110111110001011110110011 *
b110111110001011110110011 G"
b110111110001011110110011 K"
b101000 )
b101000 Y"
b101000 ]"
b11 L
b11 |
b11 4"
b11 @"
b10 I
b10 ."
b10 B"
b10 K
b10 /"
b10 A"
b100000101 F
b100000101 i
b100000101 E"
b10000000010 P
b10000000010 ?"
b10000000010 U"
b0 H
b0 +"
b0 D"
1Q
b0 R
b0 j
b0 >"
b10 Y
b10 ~
b10 ,"
b10 N"
b111110 ]
b111110 x
b111110 }
b111110 ""
b111110 '"
b111110 M"
b1 =
b1 -"
b1 R"
b1 _"
b10 @
b10 Q"
b10 Z"
1<
b101000 _
b101000 m
b101000 W"
b100100 (
b100100 n
b100100 H"
b100100 L"
b100100 ^"
b10 A
b10 s
b10 ="
b10 h"
b10 B
b10 g"
b0 +
b0 9"
b1101 4
b1101 6"
b0 2
b0 2"
b0 7"
b0 a"
b100100 ,
b100100 q
b100100 X"
b100000 C
b100000 r
b100000 I"
b1000000000011010010011 D
b1000000000011010010011 J"
b1001 #
1!
#450
0!
#475
b110 d
b110 g
b110 k
b10 `
b10 h
b10 y
b0 U
b0 f
b0 $"
b111110 3
b111110 %"
b111110 *"
b111110 \"
b111110 `"
b1 T
b1 ("
b1 1"
b0 V
b0 #"
b0 0"
b10 a
b10 e
b10 V"
b1100000010101000100011 *
b1100000010101000100011 G"
b1100000010101000100011 K"
b101100 )
b101100 Y"
b101100 ]"
b10 =
b10 -"
b10 R"
b10 _"
b111110 @
b111110 Q"
b111110 Z"
b11 Y
b11 ~
b11 ,"
b11 N"
b111110 X
b111110 w
b111110 !"
b1111 ]
b1111 x
b1111 }
b1111 ""
b1111 '"
b1111 M"
b1101 L
b1101 |
b1101 4"
b1101 @"
b0 K
b0 /"
b0 A"
b0 F
b0 i
b0 E"
b10 P
b10 ?"
b10 U"
b101100 _
b101100 m
b101100 W"
b101000 (
b101000 n
b101000 H"
b101000 L"
b101000 ^"
b1101 A
b1101 s
b1101 ="
b1101 h"
b1101 B
b1101 g"
b111100 1
b111100 p
b111100 <"
b111100 e"
b10 c
b10 u
b10 5"
0b
b1 +
b1 9"
b1111 4
b1111 6"
b1101 0
b1101 3"
b1101 8"
b1101 b"
b11110 2
b11110 2"
b11110 7"
b11110 a"
b110011 6
b110011 t
b1010 #
b111110 ,
b111110 q
b111110 X"
b100100 C
b100100 r
b100100 I"
b110111110001011110110011 D
b110111110001011110110011 J"
1!
#500
0!
#525
b10 d
b10 g
b10 k
b11110000 `
b11110000 h
b11110000 y
b1111 /
b1111 o
b1111 ;"
b1111 d"
b10 S
b10 {
b10 )"
b10 T"
b111100 U
b111100 f
b111100 $"
b10 a
b10 e
b10 V"
b10 T
b10 ("
b10 1"
b1111 3
b1111 %"
b1111 *"
b1111 \"
b1111 `"
b10101000000011 *
b10101000000011 G"
b10101000000011 K"
b110000 )
b110000 Y"
b110000 ]"
b1111 L
b1111 |
b1111 4"
b1111 @"
b1101 I
b1101 ."
b1101 B"
b11110 K
b11110 /"
b11110 A"
b1 F
b1 i
b1 E"
b1101 P
b1101 ?"
b1101 U"
b111100 J
b111100 &"
b111100 C"
0Q
b10 R
b10 j
b10 >"
b1101 Y
b1101 ~
b1101 ,"
b1101 N"
b10 ]
b10 x
b10 }
b10 ""
b10 '"
b10 M"
b11 =
b11 -"
b11 R"
b11 _"
b1111 @
b1111 Q"
b1111 Z"
b110000 _
b110000 m
b110000 W"
b101100 (
b101100 n
b101100 H"
b101100 L"
b101100 ^"
1b
0.
1:
b0 1
b0 p
b0 <"
b0 e"
b10100 A
b10100 s
b10100 ="
b10100 h"
b10100 B
b10100 g"
b0 c
b0 u
b0 5"
b10 +
b10 9"
b10100 4
b10100 6"
b11 0
b11 3"
b11 8"
b11 b"
b0 2
b0 2"
b0 7"
b0 a"
b100011 6
b100011 t
b1010000 ,
b1010000 q
b1010000 X"
b101000 C
b101000 r
b101000 I"
b1100000010101000100011 D
b1100000010101000100011 J"
b1011 #
1!
#550
0!
