lab2/lab2/log/waveform_1.vcd
$date
	Fri Nov 24 10:58:03 2023
$end
$version
	Icarus Verilog
$end
$timescale
	1s
$end
$scope module TestBench $end
$var reg 1 ! Clk $end
$var reg 1 " Reset $end
$var integer 32 # counter [31:0] $end
$var integer 32 $ flush [31:0] $end
$var integer 32 % i [31:0] $end
$var integer 32 & outfile [31:0] $end
$var integer 32 ' stall [31:0] $end
$scope module CPU $end
$var wire 1 ! clk_i $end
$var wire 1 " rst_i $end
$var wire 32 ( pc_o [31:0] $end
$var wire 32 ) pc_i [31:0] $end
$var wire 32 * instr_o [31:0] $end
$var wire 10 + funct_i [9:0] $end
$var wire 32 , branch_PC [31:0] $end
$var wire 1 - Stall_o $end
$var wire 1 . RegWrite_o $end
$var wire 32 / RS2data_o [31:0] $end
$var wire 5 0 RS2addr_i [4:0] $end
$var wire 32 1 RS1data_o [31:0] $end
$var wire 5 2 RS1addr_i [4:0] $end
$var wire 32 3 RDdata_i [31:0] $end
$var wire 5 4 RDaddr_i [4:0] $end
$var wire 1 5 PCWrite $end
$var wire 7 6 Opcode [6:0] $end
$var wire 1 7 NoOp_o $end
$var wire 1 8 MemtoReg_o $end
$var wire 32 9 Memdata_o [31:0] $end
$var wire 1 : MemWrite_o $end
$var wire 1 ; MemRead_o $end
$var wire 1 < MEM_WB_RegWrite_o $end
$var wire 5 = MEM_WB_RDaddr_o [4:0] $end
$var wire 1 > MEM_WB_MemtoReg_o $end
$var wire 32 ? MEM_WB_Memdata_o [31:0] $end
$var wire 32 @ MEM_WB_ALU_result_o [31:0] $end
$var wire 32 A Imm_o [31:0] $end
$var wire 12 B Imm_i [11:0] $end
$var wire 32 C IF_ID_pc_o [31:0] $end
$var wire 32 D IF_ID_instr_o [31:0] $end
$var wire 1 E ID_FlushIF $end
$var wire 10 F ID_EX_funct_o [9:0] $end
$var wire 1 G ID_EX_RegWrite_o $end
$var wire 32 H ID_EX_RS2data_o [31:0] $end
$var wire 5 I ID_EX_RS2addr_o [4:0] $end
$var wire 32 J ID_EX_RS1data_o [31:0] $end
$var wire 5 K ID_EX_RS1addr_o [4:0] $end
$var wire 5 L ID_EX_RDaddr_o [4:0] $end
$var wire 1 M ID_EX_MemtoReg_o $end
$var wire 1 N ID_EX_MemWrite_o $end
$var wire 1 O ID_EX_MemRead_o $end
$var wire 32 P ID_EX_Imm_o [31:0] $end
$var wire 1 Q ID_EX_ALUSrc_o $end
$var wire 2 R ID_EX_ALUOp_o [1:0] $end
$var wire 32 S ForwardBdata_o [31:0] $end
$var wire 2 T ForwardB_o [1:0] $end
$var wire 32 U ForwardAdata_o [31:0] $end
$var wire 2 V ForwardA_o [1:0] $end
$var wire 1 W EX_MEM_RegWrite_o $end
$var wire 32 X EX_MEM_RS2data_o [31:0] $end
$var wire 5 Y EX_MEM_RDaddr_o [4:0] $end
$var wire 1 Z EX_MEM_MemtoReg_o $end
$var wire 1 [ EX_MEM_MemWrite_o $end
$var wire 1 \ EX_MEM_MemRead_o $end
$var wire 32 ] EX_MEM_ALU_result_o [31:0] $end
$var wire 1 ^ Branch_o $end
$var wire 32 _ Add_PC_o [31:0] $end
$var wire 32 ` ALUdata_o [31:0] $end
$var wire 32 a ALUdata_i [31:0] $end
$var wire 1 b ALUSrc_o $end
$var wire 2 c ALUOp_o [1:0] $end
$var wire 3 d ALUCtrl_o [2:0] $end
$scope module ALU $end
$var wire 32 e data2_i [31:0] $end
$var wire 32 f data1_i [31:0] $end
$var wire 3 g ALUCtrl_i [2:0] $end
$var reg 32 h data_o [31:0] $end
$upscope $end
$scope module ALU_Control $end
$var wire 10 i funct_i [9:0] $end
$var wire 2 j ALUOp_i [1:0] $end
$var wire 3 k ALUCtrl_o [2:0] $end
$upscope $end
$scope module Add_PC $end
$var wire 32 l data2_in [31:0] $end
$var wire 32 m data_o [31:0] $end
$var wire 32 n data1_in [31:0] $end
$upscope $end
$scope module Branch_Unit $end
$var wire 32 o RS2data_i [31:0] $end
$var wire 32 p RS1data_i [31:0] $end
$var wire 32 q PC_o [31:0] $end
$var wire 32 r PC_i [31:0] $end
$var wire 32 s Imm_i [31:0] $end
$var wire 1 ^ Branch_i $end
$var reg 1 E Flush_o $end
$upscope $end
$scope module Control $end
$var wire 7 t Op_i [6:0] $end
$var wire 1 . RegWrite_o $end
$var wire 1 7 NoOp_i $end
$var wire 1 8 MemtoReg_o $end
$var wire 1 : MemWrite_o $end
$var wire 1 ; MemRead_o $end
$var wire 1 ^ Branch_o $end
$var wire 1 b ALUSrc_o $end
$var wire 2 u ALUOp_o [1:0] $end
$upscope $end
$scope module Data_Memory $end
$var wire 1 ! clk_i $end
$var wire 32 v data_o [31:0] $end
$var wire 32 w data_i [31:0] $end
$var wire 32 x addr_i [31:0] $end
$var wire 1 [ MemWrite_i $end
$var wire 1 \ MemRead_i $end
$upscope $end
$scope module EX_MEM $end
$var wire 32 y ALU_result_i [31:0] $end
$var wire 1 ! clk_i $end
$var wire 1 z rst_i $end
$var wire 1 G RegWrite_i $end
$var wire 32 { RS2data_i [31:0] $end
$var wire 5 | RDaddr_i [4:0] $end
$var wire 1 M MemtoReg_i $end
$var wire 1 N MemWrite_i $end
$var wire 1 O MemRead_i $end
$var reg 32 } ALU_result_o [31:0] $end
$var reg 1 \ MemRead_o $end
$var reg 1 [ MemWrite_o $end
$var reg 1 Z MemtoReg_o $end
$var reg 5 ~ RDaddr_o [4:0] $end
$var reg 32 !" RS2data_o [31:0] $end
$var reg 1 W RegWrite_o $end
$upscope $end
$scope module ForwardA $end
$var wire 32 "" data3_i [31:0] $end
$var wire 2 #" select_i [1:0] $end
$var wire 32 $" data_o [31:0] $end
$var wire 32 %" data2_i [31:0] $end
$var wire 32 &" data1_i [31:0] $end
$upscope $end
$scope module ForwardB $end
$var wire 32 '" data3_i [31:0] $end
$var wire 2 (" select_i [1:0] $end
$var wire 32 )" data_o [31:0] $end
$var wire 32 *" data2_i [31:0] $end
$var wire 32 +" data1_i [31:0] $end
$upscope $end
$scope module ForwardingUnit $end
$var wire 5 ," MEM_RDaddr_i [4:0] $end
$var wire 1 W MEM_RegWrite_i $end
$var wire 1 < WB_RegWrite_i $end
$var wire 5 -" WB_RDaddr_i [4:0] $end
$var wire 5 ." EX_RS2addr_i [4:0] $end
$var wire 5 /" EX_RS1addr_i [4:0] $end
$var reg 2 0" ForwardA_o [1:0] $end
$var reg 2 1" ForwardB_o [1:0] $end
$upscope $end
$scope module Hazard_Detection $end
$var wire 5 2" RS1addr_i [4:0] $end
$var wire 5 3" RS2addr_i [4:0] $end
$var wire 5 4" RDaddr_i [4:0] $end
$var wire 1 O MemRead_i $end
$var reg 1 7 NoOp_o $end
$var reg 1 5 PCWrite_o $end
$var reg 1 - Stall_o $end
$upscope $end
$scope module ID_EX $end
$var wire 2 5" ALUOp_i [1:0] $end
$var wire 1 b ALUSrc_i $end
$var wire 1 ; MemRead_i $end
$var wire 1 : MemWrite_i $end
$var wire 1 8 MemtoReg_i $end
$var wire 5 6" RDaddr_i [4:0] $end
$var wire 5 7" RS1addr_i [4:0] $end
$var wire 5 8" RS2addr_i [4:0] $end
$var wire 1 . RegWrite_i $end
$var wire 1 ! clk_i $end
$var wire 10 9" funct_i [9:0] $end
$var wire 1 :" rst_i $end
$var wire 32 ;" data2_i [31:0] $end
$var wire 32 <" data1_i [31:0] $end
$var wire 32 =" Imm_i [31:0] $end
$var reg 2 >" ALUOp_o [1:0] $end
$var reg 1 Q ALUSrc_o $end
$var reg 32 ?" Imm_o [31:0] $end
$var reg 1 O MemRead_o $end
$var reg 1 N MemWrite_o $end
$var reg 1 M MemtoReg_o $end
$var reg 5 @" RDaddr_o [4:0] $end
$var reg 5 A" RS1addr_o [4:0] $end
$var reg 5 B" RS2addr_o [4:0] $end
$var reg 1 G RegWrite_o $end
$var reg 32 C" data1_o [31:0] $end
$var reg 32 D" data2_o [31:0] $end
$var reg 10 E" funct_o [9:0] $end
$upscope $end
$scope module IF_ID $end
$var wire 1 E Flush_i $end
$var wire 1 - Stall_i $end
$var wire 1 ! clk_i $end
$var wire 1 F" rst_i $end
$var wire 32 G" instr_i [31:0] $end
$var wire 32 H" PC_i [31:0] $end
$var reg 32 I" PC_o [31:0] $end
$var reg 32 J" instr_o [31:0] $end
$upscope $end
$scope module Instruction_Memory $end
$var wire 32 K" instr_o [31:0] $end
$var wire 32 L" addr_i [31:0] $end
$upscope $end
$scope module MEM_WB $end
$var wire 32 M" ALU_result_i [31:0] $end
$var wire 1 Z MemtoReg_i $end
$var wire 5 N" RDaddr_i [4:0] $end
$var wire 1 W RegWrite_i $end
$var wire 1 ! clk_i $end
$var wire 32 O" data_i [31:0] $end
$var wire 1 P" rst_i $end
$var reg 32 Q" ALU_result_o [31:0] $end
$var reg 1 > MemtoReg_o $end
$var reg 5 R" RDaddr_o [4:0] $end
$var reg 1 < RegWrite_o $end
$var reg 32 S" data_o [31:0] $end
$upscope $end
$scope module MUX_ALUSrc $end
$var wire 32 T" data1_i [31:0] $end
$var wire 32 U" data2_i [31:0] $end
$var wire 1 Q select_i $end
$var wire 32 V" data_o [31:0] $end
$upscope $end
$scope module MUX_PC $end
$var wire 32 W" data1_i [31:0] $end
$var wire 32 X" data2_i [31:0] $end
$var wire 1 E select_i $end
$var wire 32 Y" data_o [31:0] $end
$upscope $end
$scope module MUX_WriteSrc $end
$var wire 32 Z" data1_i [31:0] $end
$var wire 32 [" data2_i [31:0] $end
$var wire 1 > select_i $end
$var wire 32 \" data_o [31:0] $end
$upscope $end
$scope module PC $end
$var wire 1 5 PCWrite_i $end
$var wire 1 ! clk_i $end
$var wire 32 ]" pc_i [31:0] $end
$var wire 1 " rst_i $end
$var reg 32 ^" pc_o [31:0] $end
$upscope $end
$scope module Registers $end
$var wire 5 _" RDaddr_i [4:0] $end
$var wire 32 `" RDdata_i [31:0] $end
$var wire 5 a" RS1addr_i [4:0] $end
$var wire 5 b" RS2addr_i [4:0] $end
$var wire 1 < RegWrite_i $end
$var wire 1 ! clk_i $end
$var wire 1 c" rst_i $end
$var wire 32 d" RS2data_o [31:0] $end
$var wire 32 e" RS1data_o [31:0] $end
$var integer 32 f" i [31:0] $end
$upscope $end
$scope module Sign_Extend $end
$var wire 12 g" data_i [11:0] $end
$var wire 32 h" data_o [31:0] $end
$upscope $end
$scope begin $ivl_for_loop0 $end
$var integer 32 i" i [31:0] $end
$upscope $end
$upscope $end
$upscope $end
$enddefinitions $end
#0
$dumpvars
b100000 i"
b0 h"
b0 g"
bx f"
b0 e"
b0 d"
zc"
b0 b"
b0 a"
b0 `"
b0 _"
bx ^"
bx ]"
b0 \"
b0 ["
b0 Z"
bx Y"
b0 X"
bx W"
b0 V"
b0 U"
b0 T"
b0 S"
b0 R"
b0 Q"
0P"
b0 O"
b0 N"
b0 M"
bx L"
bx K"
b0 J"
b0 I"
bx H"
bx G"
0F"
b0 E"
b0 D"
b0 C"
b0 B"
b0 A"
b0 @"
b0 ?"
b0 >"
b0 ="
b0 <"
b0 ;"
0:"
b0 9"
b0 8"
b0 7"
b0 6"
b0 5"
b0 4"
b0 3"
b0 2"
b0 1"
b0 0"
b0 /"
b0 ."
b0 -"
b0 ,"
b0 +"
b0 *"
b0 )"
b0 ("
b0 '"
b0 &"
b0 %"
b0 $"
b0 #"
b0 ""
b0 !"
b0 ~
b0 }
b0 |
b0 {
0z
b0 y
b0 x
b0 w
b0 v
b0 u
b0 t
b0 s
b0 r
b0 q
b0 p
b0 o
bx n
bx m
b100 l
b110 k
b0 j
b0 i
b0 h
b110 g
b0 f
b0 e
b110 d
b0 c
0b
b0 a
b0 `
bx _
0^
b0 ]
0\
0[
0Z
b0 Y
b0 X
0W
b0 V
b0 U
b0 T
b0 S
b0 R
0Q
b0 P
0O
0N
0M
b0 L
b0 K
b0 J
b0 I
b0 H
0G
b0 F
0E
b0 D
b0 C
b0 B
b0 A
b0 @
b0 ?
0>
b0 =
0<
0;
0:
b0 9
08
07
b0 6
15
b0 4
b0 3
b0 2
b0 1
b0 0
b0 /
0.
0-
b0 ,
b0 +
bx *
bx )
bx (
b0 '
b11 &
b100000 %
b0 $
b0 #
1"
0!
$end
#6
b101000000000001000010011 *
b101000000000001000010011 G"
b101000000000001000010011 K"
b100 )
b100 Y"
b100 ]"
b100 _
b100 m
b100 W"
b0 (
b0 n
b0 H"
b0 L"
b0 ^"
1F"
1:"
1z
1P"
0"
#12
0F"
0:"
0z
0P"
1"
#25
b110000000000001010010011 *
b110000000000001010010011 G"
b110000000000001010010011 K"
b1000 )
b1000 Y"
b1000 ]"
b1000 _
b1000 m
b1000 W"
b100 (
b100 n
b100 H"
b100 L"
b100 ^"
b10100 ,
b10100 q
b10100 X"
1.
b1010 A
b1010 s
b1010 ="
b1010 h"
b1010 B
b1010 g"
1b
b100 4
b100 6"
b1010 0
b1010 3"
b1010 8"
b1010 b"
b10011 6
b10011 t
b101000000000001000010011 D
b101000000000001000010011 J"
b1 #
1!
#50
0!
#75
b1010 `
b1010 h
b1010 y
b1010 a
b1010 e
b1010 V"
b11111111001100000000001100010011 *
b11111111001100000000001100010011 G"
b11111111001100000000001100010011 K"
b1100 )
b1100 Y"
b1100 ]"
b100 L
b100 |
b100 4"
b100 @"
b1010 I
b1010 ."
b1010 B"
b1010 P
b1010 ?"
b1010 U"
1Q
1G
b1100 _
b1100 m
b1100 W"
b1000 (
b1000 n
b1000 H"
b1000 L"
b1000 ^"
b1100 A
b1100 s
b1100 ="
b1100 h"
b1100 B
b1100 g"
b101 4
b101 6"
b1100 0
b1100 3"
b1100 8"
b1100 b"
b10 #
b11100 ,
b11100 q
b11100 X"
b100 C
b100 r
b100 I"
b110000000000001010010011 D
b110000000000001010010011 J"
1!
#100
0!
#125
b1100 `
b1100 h
b1100 y
b1100 a
b1100 e
b1100 V"
b1000000000000001110010011 *
b1000000000000001110010011 G"
b1000000000000001110010011 K"
b10000 )
b10000 Y"
b10000 ]"
b101 L
b101 |
b101 4"
b101 @"
b1100 I
b1100 ."
b1100 B"
b1100 P
b1100 ?"
b1100 U"
b100 Y
b100 ~
b100 ,"
b100 N"
b1010 ]
b1010 x
b1010 }
b1010 ""
b1010 '"
b1010 M"
1W
b10000 _
b10000 m
b10000 W"
b1100 (
b1100 n
b1100 H"
b1100 L"
b1100 ^"
b11111111111111111111111111110011 A
b11111111111111111111111111110011 s
b11111111111111111111111111110011 ="
b11111111111111111111111111110011 h"
b111111110011 B
b111111110011 g"
b1111111000 +
b1111111000 9"
b110 4
b110 6"
b10011 0
b10011 3"
b10011 8"
b10011 b"
b11111111111111111111111111101110 ,
b11111111111111111111111111101110 q
b11111111111111111111111111101110 X"
b1000 C
b1000 r
b1000 I"
b11111111001100000000001100010011 D
b11111111001100000000001100010011 J"
b11 #
1!
#150
0!
#175
b11111111111111111111111111110011 `
b11111111111111111111111111110011 h
b11111111111111111111111111110011 y
b1010 3
b1010 %"
b1010 *"
b1010 \"
b1010 `"
b11111111111111111111111111110011 a
b11111111111111111111111111110011 e
b11111111111111111111111111110011 V"
b10010000000011 *
b10010000000011 G"
b10010000000011 K"
b10100 )
b10100 Y"
b10100 ]"
b100 =
b100 -"
b100 R"
b100 _"
b1010 @
b1010 Q"
b1010 Z"
1<
b101 Y
b101 ~
b101 ,"
b101 N"
b1100 ]
b1100 x
b1100 }
b1100 ""
b1100 '"
b1100 M"
b110 L
b110 |
b110 4"
b110 @"
b10011 I
b10011 ."
b10011 B"
b1111111000 F
b1111111000 i
b1111111000 E"
b11111111111111111111111111110011 P
b11111111111111111111111111110011 ?"
b11111111111111111111111111110011 U"
b10100 _
b10100 m
b10100 W"
b10000 (
b10000 n
b10000 H"
b10000 L"
b10000 ^"
b10000 A
b10000 s
b10000 ="
b10000 h"
b10000 B
b10000 g"
b0 +
b0 9"
b111 4
b111 6"
b10000 0
b10000 3"
b10000 8"
b10000 b"
b100 #
b101100 ,
b101100 q
b101100 X"
b1100 C
b1100 r
b1100 I"
b1000000000000001110010011 D
b1000000000000001110010011 J"
1!
#200
0!
#225
b10000 `
b10000 h
b10000 y
b10000 a
b10000 e
b10000 V"
b1100 3
b1100 %"
b1100 *"
b1100 \"
b1100 `"
b10000000010010010000011 *
b10000000010010010000011 G"
b10000000010010010000011 K"
b11000 )
b11000 Y"
b11000 ]"
b111 L
b111 |
b111 4"
b111 @"
b10000 I
b10000 ."
b10000 B"
b0 F
b0 i
b0 E"
b10000 P
b10000 ?"
b10000 U"
b110 Y
b110 ~
b110 ,"
b110 N"
b11111111111111111111111111110011 ]
b11111111111111111111111111110011 x
b11111111111111111111111111110011 }
b11111111111111111111111111110011 ""
b11111111111111111111111111110011 '"
b11111111111111111111111111110011 M"
b101 =
b101 -"
b101 R"
b101 _"
b1100 @
b1100 Q"
b1100 Z"
b11000 _
b11000 m
b11000 W"
b10100 (
b10100 n
b10100 H"
b10100 L"
b10100 ^"
b0 A
b0 s
b0 ="
b0 h"
b0 B
b0 g"
18
1;
b10 +
b10 9"
b1000 4
b1000 6"
b0 0
b0 3"
b0 8"
b0 b"
b11 6
b11 t
b10000 ,
b10000 q
b10000 X"
b10000 C
b10000 r
b10000 I"
b10010000000011 D
b10010000000011 J"
b101 #
1!
#250
0!
#275
b11 d
b11 g
b11 k
b0 `
b0 h
b0 y
b11111111111111111111111111110011 3
b11111111111111111111111111110011 %"
b11111111111111111111111111110011 *"
b11111111111111111111111111110011 \"
b11111111111111111111111111110011 `"
b0 a
b0 e
b0 V"
b100000000010010100000011 *
b100000000010010100000011 G"
b100000000010010100000011 K"
b11100 )
b11100 Y"
b11100 ]"
b110 =
b110 -"
b110 R"
b110 _"
b11111111111111111111111111110011 @
b11111111111111111111111111110011 Q"
b11111111111111111111111111110011 Z"
b111 Y
b111 ~
b111 ,"
b111 N"
b10000 ]
b10000 x
b10000 }
b10000 ""
b10000 '"
b10000 M"
b1000 L
b1000 |
b1000 4"
b1000 @"
b0 I
b0 ."
b0 B"
b10 F
b10 i
b10 E"
b0 P
b0 ?"
b0 U"
1O
1M
b11100 _
b11100 m
b11100 W"
b11000 (
b11000 n
b11000 H"
b11000 L"
b11000 ^"
b100 A
b100 s
b100 ="
b100 h"
b100 B
b100 g"
b1010 /
b1010 o
b1010 ;"
b1010 d"
b1001 4
b1001 6"
b100 0
b100 3"
b100 8"
b100 b"
b110 #
b11100 ,
b11100 q
b11100 X"
b10100 C
b10100 r
b10100 I"
b10000000010010010000011 D
b10000000010010010000011 J"
1!
#300
0!
#325
b100 `
b100 h
b100 y
b100 a
b100 e
b100 V"
b1010 S
b1010 {
b1010 )"
b1010 T"
b101 9
b101 v
b101 O"
b10000 3
b10000 %"
b10000 *"
b10000 \"
b10000 `"
b11000101010000000100011 *
b11000101010000000100011 G"
b11000101010000000100011 K"
b100000 )
b100000 Y"
b100000 ]"
b1001 L
b1001 |
b1001 4"
b1001 @"
b100 I
b100 ."
b100 B"
b100 P
b100 ?"
b100 U"
b1010 H
b1010 +"
b1010 D"
b1000 Y
b1000 ~
b1000 ,"
b1000 N"
b0 ]
b0 x
b0 }
b0 ""
b0 '"
b0 M"
1\
1Z
b111 =
b111 -"
b111 R"
b111 _"
b10000 @
b10000 Q"
b10000 Z"
b100000 _
b100000 m
b100000 W"
b11100 (
b11100 n
b11100 H"
b11100 L"
b11100 ^"
b1000 A
b1000 s
b1000 ="
b1000 h"
b1000 B
b1000 g"
1;
18
1.
07
0-
15
b0 /
b0 o
b0 ;"
b0 d"
b1010 4
b1010 6"
b1000 0
b1000 3"
b1000 8"
b1000 b"
b101000 ,
b101000 q
b101000 X"
b11000 C
b11000 r
b11000 I"
b100000000010010100000011 D
b100000000010010100000011 J"
b111 #
1!
#350
0!
#375
b110 9
b110 v
b110 O"
b1000 `
b1000 h
b1000 y
b101 3
b101 %"
b101 *"
b101 \"
b101 `"
b1 T
b1 ("
b1 1"
b1000 a
b1000 e
b1000 V"
b101 S
b101 {
b101 )"
b101 T"
b11100111000000100000110011 *
b11100111000000100000110011 G"
b11100111000000100000110011 K"
b100100 )
b100100 Y"
b100100 ]"
b1000 =
b1000 -"
b1000 R"
b1000 _"
b101 ?
b101 S"
b101 ["
b0 @
b0 Q"
b0 Z"
1>
b1001 Y
b1001 ~
b1001 ,"
b1001 N"
b1010 X
b1010 w
b1010 !"
b100 ]
b100 x
b100 }
b100 ""
b100 '"
b100 M"
b1010 L
b1010 |
b1010 4"
b1010 @"
b1000 I
b1000 ."
b1000 B"
b1000 P
b1000 ?"
b1000 U"
b0 H
b0 +"
b0 D"
b100100 _
b100100 m
b100100 W"
b100000 (
b100000 n
b100000 H"
b100000 L"
b100000 ^"
0.
08
0;
1:
b11111111111111111111111111110011 /
b11111111111111111111111111110011 o
b11111111111111111111111111110011 ;"
b11111111111111111111111111110011 d"
b1100 1
b1100 p
b1100 <"
b1100 e"
b0 A
b0 s
b0 ="
b0 h"
b0 B
b0 g"
b0 4
b0 6"
b110 0
b110 3"
b110 8"
b110 b"
b101 2
b101 2"
b101 7"
b101 a"
b100011 6
b100011 t
b1000 #
b11100 ,
b11100 q
b11100 X"
b11100 C
b11100 r
b11100 I"
b11000101010000000100011 D
b11000101010000000100011 J"
1!
#400
0!
#425
b1100 `
b1100 h
b1100 y
b1010 9
b1010 v
b1010 O"
b11111111111111111111111111110011 S
b11111111111111111111111111110011 {
b11111111111111111111111111110011 )"
b11111111111111111111111111110011 T"
b0 a
b0 e
b0 V"
b1100 U
b1100 f
b1100 $"
b0 T
b0 ("
b0 1"
b110 3
b110 %"
b110 *"
b110 \"
b110 `"
b11101111010000100010110011 *
b11101111010000100010110011 G"
b11101111010000100010110011 K"
b101000 )
b101000 Y"
b101000 ]"
b0 L
b0 |
b0 4"
b0 @"
b110 I
b110 ."
b110 B"
b101 K
b101 /"
b101 A"
b0 P
b0 ?"
b0 U"
b11111111111111111111111111110011 H
b11111111111111111111111111110011 +"
b11111111111111111111111111110011 D"
b1100 J
b1100 &"
b1100 C"
1N
0O
0M
0G
b1010 Y
b1010 ~
b1010 ,"
b1010 N"
b101 X
b101 w
b101 !"
b1000 ]
b1000 x
b1000 }
b1000 ""
b1000 '"
b1000 M"
b1001 =
b1001 -"
b1001 R"
b1001 _"
b110 ?
b110 S"
b110 ["
b100 @
b100 Q"
b100 Z"
b101000 _
b101000 m
b101000 W"
b100100 (
b100100 n
b100100 H"
b100100 L"
b100100 ^"
1.
0:
b11111111111111111111111111100111 /
b11111111111111111111111111100111 o
b11111111111111111111111111100111 ;"
b11111111111111111111111111100111 d"
b11111111111111111111111111101000 1
b11111111111111111111111111101000 p
b11111111111111111111111111101000 <"
b11111111111111111111111111101000 e"
b111001 A
b111001 s
b111001 ="
b111001 h"
b111001 B
b111001 g"
b10 c
b10 u
b10 5"
0b
b1000 +
b1000 9"
b10000 4
b10000 6"
b11001 0
b11001 3"
b11001 8"
b11001 b"
b11000 2
b11000 2"
b11000 7"
b11000 a"
b110011 6
b110011 t
b10010010 ,
b10010010 q
b10010010 X"
b100000 C
b100000 r
b100000 I"
b11100111000000100000110011 D
b11100111000000100000110011 J"
b1001 #
1!
#450
0!
#475
b101 d
b101 g
b101 k
b1001011000 `
b1001011000 h
b1001011000 y
b1010 3
b1010 %"
b1010 *"
b1010 \"
b1010 `"
b0 9
b0 v
b0 O"
b11111111111111111111111111100111 S
b11111111111111111111111111100111 {
b11111111111111111111111111100111 )"
b11111111111111111111111111100111 T"
b11111111111111111111111111101000 U
b11111111111111111111111111101000 f
b11111111111111111111111111101000 $"
b11111111111111111111111111100111 a
b11111111111111111111111111100111 e
b11111111111111111111111111100111 V"
b11110111100000100100110011 *
b11110111100000100100110011 G"
b11110111100000100100110011 K"
b101100 )
b101100 Y"
b101100 ]"
b1010 =
b1010 -"
b1010 R"
b1010 _"
b1010 ?
b1010 S"
b1010 ["
b1000 @
b1000 Q"
b1000 Z"
b0 Y
b0 ~
b0 ,"
b0 N"
b11111111111111111111111111110011 X
b11111111111111111111111111110011 w
b11111111111111111111111111110011 !"
b1100 ]
b1100 x
b1100 }
b1100 ""
b1100 '"
b1100 M"
1[
0\
0Z
0W
b10000 L
b10000 |
b10000 4"
b10000 @"
b11001 I
b11001 ."
b11001 B"
b11000 K
b11000 /"
b11000 A"
b1000 F
b1000 i
b1000 E"
b111001 P
b111001 ?"
b111001 U"
b11111111111111111111111111100111 H
b11111111111111111111111111100111 +"
b11111111111111111111111111100111 D"
b11111111111111111111111111101000 J
b11111111111111111111111111101000 &"
b11111111111111111111111111101000 C"
0Q
b10 R
b10 j
b10 >"
0N
1G
b101100 _
b101100 m
b101100 W"
b101000 (
b101000 n
b101000 H"
b101000 L"
b101000 ^"
b111011 A
b111011 s
b111011 ="
b111011 h"
b111011 B
b111011 g"
b11111111111111111111111111100101 /
b11111111111111111111111111100101 o
b11111111111111111111111111100101 ;"
b11111111111111111111111111100101 d"
b11111111111111111111111111100110 1
b11111111111111111111111111100110 p
b11111111111111111111111111100110 <"
b11111111111111111111111111100110 e"
b10001 4
b10001 6"
b11011 0
b11011 3"
b11011 8"
b11011 b"
b11010 2
b11010 2"
b11010 7"
b11010 a"
b1010 #
b10011010 ,
b10011010 q
b10011010 X"
b100100 C
b100100 r
b100100 I"
b11101111010000100010110011 D
b11101111010000100010110011 J"
1!
#500
0!
#525
b11111111111111111111111111100101 a
b11111111111111111111111111100101 e
b11111111111111111111111111100101 V"
b1010111110 `
b1010111110 h
b1010111110 y
b11111111111111111111111111100101 S
b11111111111111111111111111100101 {
b11111111111111111111111111100101 )"
b11111111111111111111111111100101 T"
b11111111111111111111111111100110 U
b11111111111111111111111111100110 f
b11111111111111111111111111100110 $"
b1100 3
b1100 %"
b1100 *"
b1100 \"
b1100 `"
b11111111110000100110110011 *
b11111111110000100110110011 G"
b11111111110000100110110011 K"
b110000 )
b110000 Y"
b110000 ]"
b10001 L
b10001 |
b10001 4"
b10001 @"
b11011 I
b11011 ."
b11011 B"
b11010 K
b11010 /"
b11010 A"
b111011 P
b111011 ?"
b111011 U"
b11111111111111111111111111100101 H
b11111111111111111111111111100101 +"
b11111111111111111111111111100101 D"
b11111111111111111111111111100110 J
b11111111111111111111111111100110 &"
b11111111111111111111111111100110 C"
b10000 Y
b10000 ~
b10000 ,"
b10000 N"
b11111111111111111111111111100111 X
b11111111111111111111111111100111 w
b11111111111111111111111111100111 !"
b1001011000 ]
b1001011000 x
b1001011000 }
b1001011000 ""
b1001011000 '"
b1001011000 M"
0[
1W
b0 =
b0 -"
b0 R"
b0 _"
b0 ?
b0 S"
b0 ["
b1100 @
b1100 Q"
b1100 Z"
0>
0<
b110000 _
b110000 m
b110000 W"
b101100 (
b101100 n
b101100 H"
b101100 L"
b101100 ^"
b111101 A
b111101 s
b111101 ="
b111101 h"
b111101 B
b111101 g"
b111010 /
b111010 o
b111010 ;"
b111010 d"
b111000 1
b111000 p
b111000 <"
b111000 e"
b10010 4
b10010 6"
b11101 0
b11101 3"
b11101 8"
b11101 b"
b11100 2
b11100 2"
b11100 7"
b11100 a"
b10100010 ,
b10100010 q
b10100010 X"
b101000 C
b101000 r
b101000 I"
b11110111100000100100110011 D
b11110111100000100100110011 J"
b1011 #
1!
#550
0!
#575
b111010 a
b111010 e
b111010 V"
b110010110000 `
b110010110000 h
b110010110000 y
b1001011000 3
b1001011000 %"
b1001011000 *"
b1001011000 \"
b1001011000 `"
b111010 S
b111010 {
b111010 )"
b111010 T"
b111000 U
b111000 f
b111000 $"
b1000000111010000000100011 *
b1000000111010000000100011 G"
b1000000111010000000100011 K"
b110100 )
b110100 Y"
b110100 ]"
b10000 =
b10000 -"
b10000 R"
b10000 _"
b1001011000 @
b1001011000 Q"
b1001011000 Z"
1<
b10001 Y
b10001 ~
b10001 ,"
b10001 N"
b11111111111111111111111111100101 X
b11111111111111111111111111100101 w
b11111111111111111111111111100101 !"
b1010111110 ]
b1010111110 x
b1010111110 }
b1010111110 ""
b1010111110 '"
b1010111110 M"
b10010 L
b10010 |
b10010 4"
b10010 @"
b11101 I
b11101 ."
b11101 B"
b11100 K
b11100 /"
b11100 A"
b111101 P
b111101 ?"
b111101 U"
b111010 H
b111010 +"
b111010 D"
b111000 J
b111000 &"
b111000 C"
b110100 _
b110100 m
b110100 W"
b110000 (
b110000 n
b110000 H"
b110000 L"
b110000 ^"
b111111 A
b111111 s
b111111 ="
b111111 h"
b111111 B
b111111 g"
b111110 /
b111110 o
b111110 ;"
b111110 d"
b111100 1
b111100 p
b111100 <"
b111100 e"
b10011 4
b10011 6"
b11111 0
b11111 3"
b11111 8"
b11111 b"
b11110 2
b11110 2"
b11110 7"
b11110 a"
b1100 #
b10101010 ,
b10101010 q
b10101010 X"
b101100 C
b101100 r
b101100 I"
b11111111110000100110110011 D
b11111111110000100110110011 J"
1!
#600
0!
