lab2/lab2/log/waveform_5.vcd
$date
	Tue Nov 14 07:23:04 2023
$end
$version
	Icarus Verilog
$end
$timescale
	1s
$end
$scope module TestBench $end
$var reg 1 ! Clk $end
$var reg 1 " Reset $end
$var integer 32 # counter [31:0] $end
$var integer 32 $ flush [31:0] $end
$var integer 32 % i [31:0] $end
$var integer 32 & outfile [31:0] $end
$var integer 32 ' stall [31:0] $end
$scope module CPU $end
$var wire 1 ! clk_i $end
$var wire 1 " rst_i $end
$var wire 32 ( pc_o [31:0] $end
$var wire 32 ) pc_i [31:0] $end
$var wire 32 * instr_o [31:0] $end
$var wire 10 + funct_i [9:0] $end
$var wire 32 , branch_PC [31:0] $end
$var wire 1 - Stall_o $end
$var wire 1 . RegWrite_o $end
$var wire 32 / RS2data_o [31:0] $end
$var wire 5 0 RS2addr_i [4:0] $end
$var wire 32 1 RS1data_o [31:0] $end
$var wire 5 2 RS1addr_i [4:0] $end
$var wire 32 3 RDdata_i [31:0] $end
$var wire 5 4 RDaddr_i [4:0] $end
$var wire 1 5 PCWrite $end
$var wire 7 6 Opcode [6:0] $end
$var wire 1 7 NoOp_o $end
$var wire 1 8 MemtoReg_o $end
$var wire 32 9 Memdata_o [31:0] $end
$var wire 1 : MemWrite_o $end
$var wire 1 ; MemRead_o $end
$var wire 1 < MEM_WB_RegWrite_o $end
$var wire 5 = MEM_WB_RDaddr_o [4:0] $end
$var wire 1 > MEM_WB_MemtoReg_o $end
$var wire 32 ? MEM_WB_Memdata_o [31:0] $end
$var wire 32 @ MEM_WB_ALU_result_o [31:0] $end
$var wire 32 A Imm_o [31:0] $end
$var wire 12 B Imm_i [11:0] $end
$var wire 32 C IF_ID_pc_o [31:0] $end
$var wire 32 D IF_ID_instr_o [31:0] $end
$var wire 10 E ID_EX_funct_o [9:0] $end
$var wire 1 F ID_EX_RegWrite_o $end
$var wire 32 G ID_EX_RS2data_o [31:0] $end
$var wire 5 H ID_EX_RS2addr_o [4:0] $end
$var wire 32 I ID_EX_RS1data_o [31:0] $end
$var wire 5 J ID_EX_RS1addr_o [4:0] $end
$var wire 5 K ID_EX_RDaddr_o [4:0] $end
$var wire 1 L ID_EX_MemtoReg_o $end
$var wire 1 M ID_EX_MemWrite_o $end
$var wire 1 N ID_EX_MemRead_o $end
$var wire 32 O ID_EX_Imm_o [31:0] $end
$var wire 1 P ID_EX_ALUSrc_o $end
$var wire 2 Q ID_EX_ALUOp_o [1:0] $end
$var wire 32 R ForwardBdata_o [31:0] $end
$var wire 2 S ForwardB_o [1:0] $end
$var wire 32 T ForwardAdata_o [31:0] $end
$var wire 2 U ForwardA_o [1:0] $end
$var wire 1 V Flush $end
$var wire 1 W EX_MEM_RegWrite_o $end
$var wire 32 X EX_MEM_RS2data_o [31:0] $end
$var wire 5 Y EX_MEM_RDaddr_o [4:0] $end
$var wire 1 Z EX_MEM_MemtoReg_o $end
$var wire 1 [ EX_MEM_MemWrite_o $end
$var wire 1 \ EX_MEM_MemRead_o $end
$var wire 32 ] EX_MEM_ALU_result_o [31:0] $end
$var wire 1 ^ Branch_o $end
$var wire 32 _ Add_PC_o [31:0] $end
$var wire 32 ` ALUdata_o [31:0] $end
$var wire 32 a ALUdata_i [31:0] $end
$var wire 1 b ALUSrc_o $end
$var wire 2 c ALUOp_o [1:0] $end
$var wire 3 d ALUCtrl_o [2:0] $end
$scope module ALU $end
$var wire 32 e data2_i [31:0] $end
$var wire 32 f data1_i [31:0] $end
$var wire 3 g ALUCtrl_i [2:0] $end
$var reg 32 h data_o [31:0] $end
$upscope $end
$scope module ALU_Control $end
$var wire 10 i funct_i [9:0] $end
$var wire 2 j ALUOp_i [1:0] $end
$var wire 3 k ALUCtrl_o [2:0] $end
$upscope $end
$scope module Add_PC $end
$var wire 32 l data2_in [31:0] $end
$var wire 32 m data_o [31:0] $end
$var wire 32 n data1_in [31:0] $end
$upscope $end
$scope module Branch_Unit $end
$var wire 32 o RS2data_i [31:0] $end
$var wire 32 p RS1data_i [31:0] $end
$var wire 32 q PC_o [31:0] $end
$var wire 32 r PC_i [31:0] $end
$var wire 32 s Imm_i [31:0] $end
$var wire 1 ^ Branch_i $end
$var reg 1 V Flush_o $end
$upscope $end
$scope module Control $end
$var wire 7 t Op_i [6:0] $end
$var wire 1 . RegWrite_o $end
$var wire 1 7 NoOp_i $end
$var wire 1 8 MemtoReg_o $end
$var wire 1 : MemWrite_o $end
$var wire 1 ; MemRead_o $end
$var wire 1 ^ Branch_o $end
$var wire 1 b ALUSrc_o $end
$var wire 2 u ALUOp_o [1:0] $end
$upscope $end
$scope module Data_Memory $end
$var wire 1 ! clk_i $end
$var wire 32 v data_o [31:0] $end
$var wire 32 w data_i [31:0] $end
$var wire 32 x addr_i [31:0] $end
$var wire 1 [ MemWrite_i $end
$var wire 1 \ MemRead_i $end
$upscope $end
$scope module EX_MEM $end
$var wire 32 y ALU_result_i [31:0] $end
$var wire 1 ! clk_i $end
$var wire 1 " rst_i $end
$var wire 1 F RegWrite_i $end
$var wire 32 z RS2data_i [31:0] $end
$var wire 5 { RDaddr_i [4:0] $end
$var wire 1 L MemtoReg_i $end
$var wire 1 M MemWrite_i $end
$var wire 1 N MemRead_i $end
$var reg 32 | ALU_result_o [31:0] $end
$var reg 1 \ MemRead_o $end
$var reg 1 [ MemWrite_o $end
$var reg 1 Z MemtoReg_o $end
$var reg 5 } RDaddr_o [4:0] $end
$var reg 32 ~ RS2data_o [31:0] $end
$var reg 1 W RegWrite_o $end
$upscope $end
$scope module ForwardA $end
$var wire 32 !" data3_i [31:0] $end
$var wire 2 "" select_i [1:0] $end
$var wire 32 #" data_o [31:0] $end
$var wire 32 $" data2_i [31:0] $end
$var wire 32 %" data1_i [31:0] $end
$upscope $end
$scope module ForwardB $end
$var wire 32 &" data3_i [31:0] $end
$var wire 2 '" select_i [1:0] $end
$var wire 32 (" data_o [31:0] $end
$var wire 32 )" data2_i [31:0] $end
$var wire 32 *" data1_i [31:0] $end
$upscope $end
$scope module ForwardingUnit $end
$var wire 5 +" MEM_RDaddr_i [4:0] $end
$var wire 1 W MEM_RegWrite_i $end
$var wire 1 < WB_RegWrite_i $end
$var wire 5 ," WB_RDaddr_i [4:0] $end
$var wire 5 -" EX_RS2addr_i [4:0] $end
$var wire 5 ." EX_RS1addr_i [4:0] $end
$var reg 2 /" ForwardA_o [1:0] $end
$var reg 2 0" ForwardB_o [1:0] $end
$upscope $end
$scope module Hazard_Detection $end
$var wire 5 1" RS1addr_i [4:0] $end
$var wire 5 2" RS2addr_i [4:0] $end
$var wire 5 3" RDaddr_i [4:0] $end
$var wire 1 N MemRead_i $end
$var reg 1 7 NoOp_o $end
$var reg 1 5 PCWrite_o $end
$var reg 1 - Stall_o $end
$upscope $end
$scope module ID_EX $end
$var wire 2 4" ALUOp_i [1:0] $end
$var wire 1 b ALUSrc_i $end
$var wire 1 ; MemRead_i $end
$var wire 1 : MemWrite_i $end
$var wire 1 8 MemtoReg_i $end
$var wire 5 5" RDaddr_i [4:0] $end
$var wire 5 6" RS1addr_i [4:0] $end
$var wire 5 7" RS2addr_i [4:0] $end
$var wire 1 . RegWrite_i $end
$var wire 1 ! clk_i $end
$var wire 10 8" funct_i [9:0] $end
$var wire 1 " rst_i $end
$var wire 32 9" data2_i [31:0] $end
$var wire 32 :" data1_i [31:0] $end
$var wire 32 ;" Imm_i [31:0] $end
$var reg 2 <" ALUOp_o [1:0] $end
$var reg 1 P ALUSrc_o $end
$var reg 32 =" Imm_o [31:0] $end
$var reg 1 N MemRead_o $end
$var reg 1 M MemWrite_o $end
$var reg 1 L MemtoReg_o $end
$var reg 5 >" RDaddr_o [4:0] $end
$var reg 5 ?" RS1addr_o [4:0] $end
$var reg 5 @" RS2addr_o [4:0] $end
$var reg 1 F RegWrite_o $end
$var reg 32 A" data1_o [31:0] $end
$var reg 32 B" data2_o [31:0] $end
$var reg 10 C" funct_o [9:0] $end
$upscope $end
$scope module IF_ID $end
$var wire 1 V Flush_i $end
$var wire 1 - Stall_i $end
$var wire 1 ! clk_i $end
$var wire 1 " rst_i $end
$var wire 32 D" instr_i [31:0] $end
$var wire 32 E" PC_i [31:0] $end
$var reg 32 F" PC_o [31:0] $end
$var reg 32 G" instr_o [31:0] $end
$upscope $end
$scope module Instruction_Memory $end
$var wire 32 H" instr_o [31:0] $end
$var wire 32 I" addr_i [31:0] $end
$upscope $end
$scope module MEM_WB $end
$var wire 32 J" ALU_result_i [31:0] $end
$var wire 1 Z MemtoReg_i $end
$var wire 5 K" RDaddr_i [4:0] $end
$var wire 1 W RegWrite_i $end
$var wire 1 ! clk_i $end
$var wire 32 L" data_i [31:0] $end
$var wire 1 " rst_i $end
$var reg 32 M" ALU_result_o [31:0] $end
$var reg 1 > MemtoReg_o $end
$var reg 5 N" RDaddr_o [4:0] $end
$var reg 1 < RegWrite_o $end
$var reg 32 O" data_o [31:0] $end
$upscope $end
$scope module MUX_ALUSrc $end
$var wire 32 P" data1_i [31:0] $end
$var wire 32 Q" data2_i [31:0] $end
$var wire 1 P select_i $end
$var wire 32 R" data_o [31:0] $end
$upscope $end
$scope module MUX_PC $end
$var wire 32 S" data1_i [31:0] $end
$var wire 32 T" data2_i [31:0] $end
$var wire 1 V select_i $end
$var wire 32 U" data_o [31:0] $end
$upscope $end
$scope module MUX_WriteSrc $end
$var wire 32 V" data1_i [31:0] $end
$var wire 32 W" data2_i [31:0] $end
$var wire 1 > select_i $end
$var wire 32 X" data_o [31:0] $end
$upscope $end
$scope module PC $end
$var wire 1 5 PCWrite_i $end
$var wire 1 ! clk_i $end
$var wire 32 Y" pc_i [31:0] $end
$var wire 1 " rst_i $end
$var reg 32 Z" pc_o [31:0] $end
$upscope $end
$scope module Registers $end
$var wire 5 [" RDaddr_i [4:0] $end
$var wire 32 \" RDdata_i [31:0] $end
$var wire 5 ]" RS1addr_i [4:0] $end
$var wire 5 ^" RS2addr_i [4:0] $end
$var wire 1 < RegWrite_i $end
$var wire 1 ! clk_i $end
$var wire 1 _" rst_i $end
$var wire 32 `" RS2data_o [31:0] $end
$var wire 32 a" RS1data_o [31:0] $end
$var integer 32 b" i [31:0] $end
$upscope $end
$scope module Sign_Extend $end
$var wire 12 c" data_i [11:0] $end
$var wire 32 d" data_o [31:0] $end
$upscope $end
$upscope $end
$upscope $end
$enddefinitions $end
#0
$dumpvars
b0 d"
b0 c"
bx b"
b0 a"
b0 `"
z_"
b0 ^"
b0 ]"
b0 \"
b0 ["
bx Z"
bx Y"
b0 X"
b0 W"
b0 V"
bx U"
b0 T"
bx S"
b0 R"
b0 Q"
b0 P"
b0 O"
b0 N"
b0 M"
b0 L"
b0 K"
b0 J"
bx I"
bx H"
b0 G"
b0 F"
bx E"
bx D"
b0 C"
b0 B"
b0 A"
b0 @"
b0 ?"
b0 >"
b0 ="
b0 <"
b0 ;"
b0 :"
b0 9"
b0 8"
b0 7"
b0 6"
b0 5"
b0 4"
b0 3"
b0 2"
b0 1"
b0 0"
b0 /"
b0 ."
b0 -"
b0 ,"
b0 +"
b0 *"
b0 )"
b0 ("
b0 '"
b0 &"
b0 %"
b0 $"
b0 #"
b0 ""
b0 !"
b0 ~
b0 }
b0 |
b0 {
b0 z
b0 y
b0 x
b0 w
b0 v
b0 u
b0 t
b0 s
b0 r
b0 q
b0 p
b0 o
bx n
bx m
b100 l
b110 k
b0 j
b0 i
b0 h
b110 g
b0 f
b0 e
b110 d
b0 c
0b
b0 a
b0 `
bx _
0^
b0 ]
0\
0[
0Z
b0 Y
b0 X
0W
0V
b0 U
b0 T
b0 S
b0 R
b0 Q
0P
b0 O
0N
0M
0L
b0 K
b0 J
b0 I
b0 H
b0 G
0F
b0 E
b0 D
b0 C
b0 B
b0 A
b0 @
b0 ?
0>
b0 =
0<
0;
0:
b0 9
08
07
b0 6
15
b0 4
b0 3
b0 2
b0 1
b0 0
b0 /
0.
0-
b0 ,
b0 +
bx *
bx )
bx (
b0 '
b11 &
b100000 %
b0 $
b0 #
0"
0!
$end
#6
b11100000000001000000010000010011 *
b11100000000001000000010000010011 D"
b11100000000001000000010000010011 H"
b100 )
b100 U"
b100 Y"
b100 _
b100 m
b100 S"
b0 (
b0 n
b0 E"
b0 I"
b0 Z"
1"
#12
0"
#25
b1000000010001000101000100010011 *
b1000000010001000101000100010011 D"
b1000000010001000101000100010011 H"
b1000 )
b1000 U"
b1000 Y"
b1000 _
b1000 m
b1000 S"
b100 (
b100 n
b100 E"
b100 I"
b100 Z"
b11111111111111111111110000000000 ,
b11111111111111111111110000000000 q
b11111111111111111111110000000000 T"
1.
b11111111111111111111111000000000 A
b11111111111111111111111000000000 s
b11111111111111111111111000000000 ;"
b11111111111111111111111000000000 d"
b111000000000 B
b111000000000 c"
1b
b1110000000 +
b1110000000 8"
b1000 4
b1000 5"
b1000 2
b1000 1"
b1000 6"
b1000 ]"
b10011 6
b10011 t
b11100000000001000000010000010011 D
b11100000000001000000010000010011 G"
b1 #
1!
#50
0!
#75
b11111111111111111111111000000000 `
b11111111111111111111111000000000 h
b11111111111111111111111000000000 y
b11111111111111111111111000000000 a
b11111111111111111111111000000000 e
b11111111111111111111111000000000 R"
b1000000100111011000000000110011 *
b1000000100111011000000000110011 D"
b1000000100111011000000000110011 H"
b1100 )
b1100 U"
b1100 Y"
b1000 K
b1000 {
b1000 3"
b1000 >"
b1000 J
b1000 ."
b1000 ?"
b1110000000 E
b1110000000 i
b1110000000 C"
b11111111111111111111111000000000 O
b11111111111111111111111000000000 ="
b11111111111111111111111000000000 Q"
1P
1F
b1100 _
b1100 m
b1100 S"
b1000 (
b1000 n
b1000 E"
b1000 I"
b1000 Z"
b10000000100 A
b10000000100 s
b10000000100 ;"
b10000000100 d"
b10000000100 B
b10000000100 c"
b100000101 +
b100000101 8"
b10 4
b10 5"
b100 0
b100 2"
b100 7"
b100 ^"
b10 #
b100000001100 ,
b100000001100 q
b100000001100 T"
b100 C
b100 r
b100 F"
b1000000010001000101000100010011 D
b1000000010001000101000100010011 G"
1!
#100
0!
#125
b111 d
b111 g
b111 k
b11111111111111111111111111100000 `
b11111111111111111111111111100000 h
b11111111111111111111111111100000 y
b11111111111111111111111000000000 T
b11111111111111111111111000000000 f
b11111111111111111111111000000000 #"
b10000000100 a
b10000000100 e
b10000000100 R"
b10 U
b10 ""
b10 /"
b10110100110110110011 *
b10110100110110110011 D"
b10110100110110110011 H"
b10000 )
b10000 U"
b10000 Y"
b10 K
b10 {
b10 3"
b10 >"
b100 H
b100 -"
b100 @"
b100000101 E
b100000101 i
b100000101 C"
b10000000100 O
b10000000100 ="
b10000000100 Q"
b1000 Y
b1000 }
b1000 +"
b1000 K"
b11111111111111111111111000000000 ]
b11111111111111111111111000000000 x
b11111111111111111111111000000000 |
b11111111111111111111111000000000 !"
b11111111111111111111111000000000 &"
b11111111111111111111111000000000 J"
1W
b10000 _
b10000 m
b10000 S"
b1100 (
b1100 n
b1100 E"
b1100 I"
b1100 Z"
b10000001001 A
b10000001001 s
b10000001001 ;"
b10000001001 d"
b10000001001 B
b10000001001 c"
b11111111111111111111111111100101 1
b11111111111111111111111111100101 p
b11111111111111111111111111100101 :"
b11111111111111111111111111100101 a"
b10 c
b10 u
b10 4"
0b
b100000000 +
b100000000 8"
b0 4
b0 5"
b1001 0
b1001 2"
b1001 7"
b1001 ^"
b11011 2
b11011 1"
b11011 6"
b11011 ]"
b110011 6
b110011 t
b100000011010 ,
b100000011010 q
b100000011010 T"
b1000 C
b1000 r
b1000 F"
b1000000100111011000000000110011 D
b1000000100111011000000000110011 G"
b11 #
1!
#150
0!
#175
b100 d
b100 g
b100 k
b11111111111111111111111111100101 T
b11111111111111111111111111100101 f
b11111111111111111111111111100101 #"
b11111111111111111111111111100101 `
b11111111111111111111111111100101 h
b11111111111111111111111111100101 y
b11111111111111111111111000000000 3
b11111111111111111111111000000000 $"
b11111111111111111111111000000000 )"
b11111111111111111111111000000000 X"
b11111111111111111111111000000000 \"
b0 U
b0 ""
b0 /"
b0 a
b0 e
b0 R"
b10010001011000100110110011 *
b10010001011000100110110011 D"
b10010001011000100110110011 H"
b10100 )
b10100 U"
b10100 Y"
b1000 =
b1000 ,"
b1000 N"
b1000 ["
b11111111111111111111111000000000 @
b11111111111111111111111000000000 M"
b11111111111111111111111000000000 V"
1<
b10 Y
b10 }
b10 +"
b10 K"
b11111111111111111111111111100000 ]
b11111111111111111111111111100000 x
b11111111111111111111111111100000 |
b11111111111111111111111111100000 !"
b11111111111111111111111111100000 &"
b11111111111111111111111111100000 J"
b0 K
b0 {
b0 3"
b0 >"
b1001 H
b1001 -"
b1001 @"
b11011 J
b11011 ."
b11011 ?"
b100000000 E
b100000000 i
b100000000 C"
b10000001001 O
b10000001001 ="
b10000001001 Q"
b11111111111111111111111111100101 I
b11111111111111111111111111100101 %"
b11111111111111111111111111100101 A"
0P
b10 Q
b10 j
b10 <"
b10100 _
b10100 m
b10100 S"
b10000 (
b10000 n
b10000 E"
b10000 I"
b10000 Z"
b0 A
b0 s
b0 ;"
b0 d"
b0 B
b0 c"
b0 1
b0 p
b0 :"
b0 a"
b100 +
b100 8"
b11011 4
b11011 5"
b0 0
b0 2"
b0 7"
b0 ^"
b10110 2
b10110 1"
b10110 6"
b10110 ]"
b100 #
b1100 ,
b1100 q
b1100 T"
b1100 C
b1100 r
b1100 F"
b10110100110110110011 D
b10110100110110110011 G"
1!
#200
0!
#225
b1 d
b1 g
b1 k
b0 `
b0 h
b0 y
b0 T
b0 f
b0 #"
b11111111111111111111111111100000 3
b11111111111111111111111111100000 $"
b11111111111111111111111111100000 )"
b11111111111111111111111111100000 X"
b11111111111111111111111111100000 \"
b1000001111100110000010110110011 *
b1000001111100110000010110110011 D"
b1000001111100110000010110110011 H"
b11000 )
b11000 U"
b11000 Y"
b11011 K
b11011 {
b11011 3"
b11011 >"
b0 H
b0 -"
b0 @"
b10110 J
b10110 ."
b10110 ?"
b100 E
b100 i
b100 C"
b0 O
b0 ="
b0 Q"
b0 I
b0 %"
b0 A"
b0 Y
b0 }
b0 +"
b0 K"
b11111111111111111111111111100101 ]
b11111111111111111111111111100101 x
b11111111111111111111111111100101 |
b11111111111111111111111111100101 !"
b11111111111111111111111111100101 &"
b11111111111111111111111111100101 J"
b10 =
b10 ,"
b10 N"
b10 ["
b11111111111111111111111111100000 @
b11111111111111111111111111100000 M"
b11111111111111111111111111100000 V"
b11000 _
b11000 m
b11000 S"
b10100 (
b10100 n
b10100 E"
b10100 I"
b10100 Z"
b100100 A
b100100 s
b100100 ;"
b100100 d"
b100100 B
b100100 c"
b1000 +
b1000 8"
b10011 4
b10011 5"
b100 0
b100 2"
b100 7"
b100 ^"
b1011 2
b1011 1"
b1011 6"
b1011 ]"
b1011000 ,
b1011000 q
b1011000 T"
b10000 C
b10000 r
b10000 F"
b10010001011000100110110011 D
b10010001011000100110110011 G"
b101 #
1!
#250
0!
#275
b101 d
b101 g
b101 k
b11111111111111111111111111100101 3
b11111111111111111111111111100101 $"
b11111111111111111111111111100101 )"
b11111111111111111111111111100101 X"
b11111111111111111111111111100101 \"
b11100101101000111110110011 *
b11100101101000111110110011 D"
b11100101101000111110110011 H"
b11100 )
b11100 U"
b11100 Y"
b0 =
b0 ,"
b0 N"
b0 ["
b11111111111111111111111111100101 @
b11111111111111111111111111100101 M"
b11111111111111111111111111100101 V"
b11011 Y
b11011 }
b11011 +"
b11011 K"
b0 ]
b0 x
b0 |
b0 !"
b0 &"
b0 J"
b10011 K
b10011 {
b10011 3"
b10011 >"
b100 H
b100 -"
b100 @"
b1011 J
b1011 ."
b1011 ?"
b1000 E
b1000 i
b1000 C"
b100100 O
b100100 ="
b100100 Q"
b11100 _
b11100 m
b11100 S"
b11000 (
b11000 n
b11000 E"
b11000 I"
b11000 Z"
b10000011111 A
b10000011111 s
b10000011111 ;"
b10000011111 d"
b10000011111 B
b10000011111 c"
b111110 /
b111110 o
b111110 9"
b111110 `"
b100000000 +
b100000000 8"
b1011 4
b1011 5"
b11111 0
b11111 2"
b11111 7"
b11111 ^"
b110 2
b110 1"
b110 6"
b110 ]"
b110 #
b100001010010 ,
b100001010010 q
b100001010010 T"
b10100 C
b10100 r
b10100 F"
b1000001111100110000010110110011 D
b1000001111100110000010110110011 G"
1!
#300
0!
#325
b11111111111111111111111111000010 `
b11111111111111111111111111000010 h
b11111111111111111111111111000010 y
b100 d
b100 g
b100 k
b111110 a
b111110 e
b111110 R"
b111110 R
b111110 z
b111110 ("
b111110 P"
b0 3
b0 $"
b0 )"
b0 X"
b0 \"
b11010000001110100000101100010011 *
b11010000001110100000101100010011 D"
b11010000001110100000101100010011 H"
b100000 )
b100000 U"
b100000 Y"
b1011 K
b1011 {
b1011 3"
b1011 >"
b11111 H
b11111 -"
b11111 @"
b110 J
b110 ."
b110 ?"
b100000000 E
b100000000 i
b100000000 C"
b10000011111 O
b10000011111 ="
b10000011111 Q"
b111110 G
b111110 *"
b111110 B"
b10011 Y
b10011 }
b10011 +"
b10011 K"
b11011 =
b11011 ,"
b11011 N"
b11011 ["
b0 @
b0 M"
b0 V"
b100000 _
b100000 m
b100000 S"
b11100 (
b11100 n
b11100 E"
b11100 I"
b11100 Z"
b111001 A
b111001 s
b111001 ;"
b111001 d"
b111001 B
b111001 c"
b11111111111111111111111111100111 /
b11111111111111111111111111100111 o
b11111111111111111111111111100111 9"
b11111111111111111111111111100111 `"
b1000 +
b1000 8"
b11111 4
b11111 5"
b11001 0
b11001 2"
b11001 7"
b11001 ^"
b1101 2
b1101 1"
b1101 6"
b1101 ]"
b10001010 ,
b10001010 q
b10001010 T"
b11000 C
b11000 r
b11000 F"
b11100101101000111110110011 D
b11100101101000111110110011 G"
b111 #
1!
#350
0!
#375
b101 d
b101 g
b101 k
b0 `
b0 h
b0 y
b11111111111111111111111111100111 a
b11111111111111111111111111100111 e
b11111111111111111111111111100111 R"
b11111111111111111111111111100111 R
b11111111111111111111111111100111 z
b11111111111111111111111111100111 ("
b11111111111111111111111111100111 P"
b110001001001010010110011 *
b110001001001010010110011 D"
b110001001001010010110011 H"
b100100 )
b100100 U"
b100100 Y"
b10011 =
b10011 ,"
b10011 N"
b10011 ["
b1011 Y
b1011 }
b1011 +"
b1011 K"
b111110 X
b111110 w
b111110 ~
b11111111111111111111111111000010 ]
b11111111111111111111111111000010 x
b11111111111111111111111111000010 |
b11111111111111111111111111000010 !"
b11111111111111111111111111000010 &"
b11111111111111111111111111000010 J"
b11111 K
b11111 {
b11111 3"
b11111 >"
b11001 H
b11001 -"
b11001 @"
b1101 J
b1101 ."
b1101 ?"
b1000 E
b1000 i
b1000 C"
b111001 O
b111001 ="
b111001 Q"
b11111111111111111111111111100111 G
b11111111111111111111111111100111 *"
b11111111111111111111111111100111 B"
b100100 _
b100100 m
b100100 S"
b100000 (
b100000 n
b100000 E"
b100000 I"
b100000 Z"
b11111111111111111111110100000011 A
b11111111111111111111110100000011 s
b11111111111111111111110100000011 ;"
b11111111111111111111110100000011 d"
b110100000011 B
b110100000011 c"
b0 /
b0 o
b0 9"
b0 `"
b0 c
b0 u
b0 4"
1b
b1101000000 +
b1101000000 8"
b10110 4
b10110 5"
b11 0
b11 2"
b11 7"
b11 ^"
b10100 2
b10100 1"
b10100 6"
b10100 ]"
b10011 6
b10011 t
b1000 #
b11111111111111111111101000100010 ,
b11111111111111111111101000100010 q
b11111111111111111111101000100010 T"
b11100 C
b11100 r
b11100 F"
b11010000001110100000101100010011 D
b11010000001110100000101100010011 G"
1!
#400
0!
#425
b11111111111111111111110100000011 `
b11111111111111111111110100000011 h
b11111111111111111111110100000011 y
b110 d
b110 g
b110 k
b0 R
b0 z
b0 ("
b0 P"
b11111111111111111111110100000011 a
b11111111111111111111110100000011 e
b11111111111111111111110100000011 R"
b11111111111111111111111111000010 3
b11111111111111111111111111000010 $"
b11111111111111111111111111000010 )"
b11111111111111111111111111000010 X"
b11111111111111111111111111000010 \"
b11001100111000011000110011 *
b11001100111000011000110011 D"
b11001100111000011000110011 H"
b101000 )
b101000 U"
b101000 Y"
b10110 K
b10110 {
b10110 3"
b10110 >"
b11 H
b11 -"
b11 @"
b10100 J
b10100 ."
b10100 ?"
b1101000000 E
b1101000000 i
b1101000000 C"
b11111111111111111111110100000011 O
b11111111111111111111110100000011 ="
b11111111111111111111110100000011 Q"
b0 G
b0 *"
b0 B"
1P
b0 Q
b0 j
b0 <"
b11111 Y
b11111 }
b11111 +"
b11111 K"
b11111111111111111111111111100111 X
b11111111111111111111111111100111 w
b11111111111111111111111111100111 ~
b0 ]
b0 x
b0 |
b0 !"
b0 &"
b0 J"
b1011 =
b1011 ,"
b1011 N"
b1011 ["
b11111111111111111111111111000010 @
b11111111111111111111111111000010 M"
b11111111111111111111111111000010 V"
b101000 _
b101000 m
b101000 S"
b100100 (
b100100 n
b100100 E"
b100100 I"
b100100 Z"
b1100 A
b1100 s
b1100 ;"
b1100 d"
b1100 B
b1100 c"
b10 c
b10 u
b10 4"
0b
b1 +
b1 8"
b1001 4
b1001 5"
b1100 0
b1100 2"
b1100 7"
b1100 ^"
b1001 2
b1001 1"
b1001 6"
b1001 ]"
b110011 6
b110011 t
b111000 ,
b111000 q
b111000 T"
b100000 C
b100000 r
b100000 F"
b110001001001010010110011 D
b110001001001010010110011 G"
b1001 #
1!
#450
0!
#475
b10 d
b10 g
b10 k
b0 `
b0 h
b0 y
b0 3
b0 $"
b0 )"
b0 X"
b0 \"
b0 a
b0 e
b0 R"
b101001110100011110110011 *
b101001110100011110110011 D"
b101001110100011110110011 H"
b101100 )
b101100 U"
b101100 Y"
b11111 =
b11111 ,"
b11111 N"
b11111 ["
b0 @
b0 M"
b0 V"
b10110 Y
b10110 }
b10110 +"
b10110 K"
b0 X
b0 w
b0 ~
b11111111111111111111110100000011 ]
b11111111111111111111110100000011 x
b11111111111111111111110100000011 |
b11111111111111111111110100000011 !"
b11111111111111111111110100000011 &"
b11111111111111111111110100000011 J"
b1001 K
b1001 {
b1001 3"
b1001 >"
b1100 H
b1100 -"
b1100 @"
b1001 J
b1001 ."
b1001 ?"
b1 E
b1 i
b1 C"
b1100 O
b1100 ="
b1100 Q"
0P
b10 Q
b10 j
b10 <"
b101100 _
b101100 m
b101100 S"
b101000 (
b101000 n
b101000 E"
b101000 I"
b101000 Z"
b110011 A
b110011 s
b110011 ;"
b110011 d"
b110011 B
b110011 c"
b1000 +
b1000 8"
b1100 4
b1100 5"
b10011 0
b10011 2"
b10011 7"
b10011 ^"
b111 2
b111 1"
b111 6"
b111 ]"
b1010 #
b10001010 ,
b10001010 q
b10001010 T"
b100100 C
b100100 r
b100100 F"
b11001100111000011000110011 D
b11001100111000011000110011 G"
1!
#500
0!
#525
b101 d
b101 g
b101 k
b11111111111111111111110100000011 3
b11111111111111111111110100000011 $"
b11111111111111111111110100000011 )"
b11111111111111111111110100000011 X"
b11111111111111111111110100000011 \"
b1000000010111111000111010110011 *
b1000000010111111000111010110011 D"
b1000000010111111000111010110011 H"
b110000 )
b110000 U"
b110000 Y"
b1100 K
b1100 {
b1100 3"
b1100 >"
b10011 H
b10011 -"
b10011 @"
b111 J
b111 ."
b111 ?"
b1000 E
b1000 i
b1000 C"
b110011 O
b110011 ="
b110011 Q"
b1001 Y
b1001 }
b1001 +"
b1001 K"
b0 ]
b0 x
b0 |
b0 !"
b0 &"
b0 J"
b10110 =
b10110 ,"
b10110 N"
b10110 ["
b11111111111111111111110100000011 @
b11111111111111111111110100000011 M"
b11111111111111111111110100000011 V"
b110000 _
b110000 m
b110000 S"
b101100 (
b101100 n
b101100 E"
b101100 I"
b101100 Z"
b1010 A
b1010 s
b1010 ;"
b1010 d"
b1010 B
b1010 c"
b100 +
b100 8"
b1111 4
b1111 5"
b1010 0
b1010 2"
b1010 7"
b1010 ^"
b1110 2
b1110 1"
b1110 6"
b1110 ]"
b111100 ,
b111100 q
b111100 T"
b101000 C
b101000 r
b101000 F"
b101001110100011110110011 D
b101001110100011110110011 G"
b1011 #
1!
#550
0!
#575
b1 d
b1 g
b1 k
b0 3
b0 $"
b0 )"
b0 X"
b0 \"
b1110101000101100110011 *
b1110101000101100110011 D"
b1110101000101100110011 H"
b110100 )
b110100 U"
b110100 Y"
b1001 =
b1001 ,"
b1001 N"
b1001 ["
b0 @
b0 M"
b0 V"
b1100 Y
b1100 }
b1100 +"
b1100 K"
b1111 K
b1111 {
b1111 3"
b1111 >"
b1010 H
b1010 -"
b1010 @"
b1110 J
b1110 ."
b1110 ?"
b100 E
b100 i
b100 C"
b1010 O
b1010 ="
b1010 Q"
b110100 _
b110100 m
b110100 S"
b110000 (
b110000 n
b110000 E"
b110000 I"
b110000 Z"
b10000000101 A
b10000000101 s
b10000000101 ;"
b10000000101 d"
b10000000101 B
b10000000101 c"
b100000000 +
b100000000 8"
b11101 4
b11101 5"
b101 0
b101 2"
b101 7"
b101 ^"
b11111 2
b11111 1"
b11111 6"
b11111 ]"
b1100 #
b100000110110 ,
b100000110110 q
b100000110110 T"
b101100 C
b101100 r
b101100 F"
b1000000010111111000111010110011 D
b1000000010111111000111010110011 G"
1!
#600
0!
