lab2/lab2/log/waveform_4.vcd
$date
	Fri Nov 24 10:58:03 2023
$end
$version
	Icarus Verilog
$end
$timescale
	1s
$end
$scope module TestBench $end
$var reg 1 ! Clk $end
$var reg 1 " Reset $end
$var integer 32 # counter [31:0] $end
$var integer 32 $ flush [31:0] $end
$var integer 32 % i [31:0] $end
$var integer 32 & outfile [31:0] $end
$var integer 32 ' stall [31:0] $end
$scope module CPU $end
$var wire 1 ! clk_i $end
$var wire 1 " rst_i $end
$var wire 32 ( pc_o [31:0] $end
$var wire 32 ) pc_i [31:0] $end
$var wire 32 * instr_o [31:0] $end
$var wire 10 + funct_i [9:0] $end
$var wire 32 , branch_PC [31:0] $end
$var wire 1 - Stall_o $end
$var wire 1 . RegWrite_o $end
$var wire 32 / RS2data_o [31:0] $end
$var wire 5 0 RS2addr_i [4:0] $end
$var wire 32 1 RS1data_o [31:0] $end
$var wire 5 2 RS1addr_i [4:0] $end
$var wire 32 3 RDdata_i [31:0] $end
$var wire 5 4 RDaddr_i [4:0] $end
$var wire 1 5 PCWrite $end
$var wire 7 6 Opcode [6:0] $end
$var wire 1 7 NoOp_o $end
$var wire 1 8 MemtoReg_o $end
$var wire 32 9 Memdata_o [31:0] $end
$var wire 1 : MemWrite_o $end
$var wire 1 ; MemRead_o $end
$var wire 1 < MEM_WB_RegWrite_o $end
$var wire 5 = MEM_WB_RDaddr_o [4:0] $end
$var wire 1 > MEM_WB_MemtoReg_o $end
$var wire 32 ? MEM_WB_Memdata_o [31:0] $end
$var wire 32 @ MEM_WB_ALU_result_o [31:0] $end
$var wire 32 A Imm_o [31:0] $end
$var wire 12 B Imm_i [11:0] $end
$var wire 32 C IF_ID_pc_o [31:0] $end
$var wire 32 D IF_ID_instr_o [31:0] $end
$var wire 1 E ID_FlushIF $end
$var wire 10 F ID_EX_funct_o [9:0] $end
$var wire 1 G ID_EX_RegWrite_o $end
$var wire 32 H ID_EX_RS2data_o [31:0] $end
$var wire 5 I ID_EX_RS2addr_o [4:0] $end
$var wire 32 J ID_EX_RS1data_o [31:0] $end
$var wire 5 K ID_EX_RS1addr_o [4:0] $end
$var wire 5 L ID_EX_RDaddr_o [4:0] $end
$var wire 1 M ID_EX_MemtoReg_o $end
$var wire 1 N ID_EX_MemWrite_o $end
$var wire 1 O ID_EX_MemRead_o $end
$var wire 32 P ID_EX_Imm_o [31:0] $end
$var wire 1 Q ID_EX_ALUSrc_o $end
$var wire 2 R ID_EX_ALUOp_o [1:0] $end
$var wire 32 S ForwardBdata_o [31:0] $end
$var wire 2 T ForwardB_o [1:0] $end
$var wire 32 U ForwardAdata_o [31:0] $end
$var wire 2 V ForwardA_o [1:0] $end
$var wire 1 W EX_MEM_RegWrite_o $end
$var wire 32 X EX_MEM_RS2data_o [31:0] $end
$var wire 5 Y EX_MEM_RDaddr_o [4:0] $end
$var wire 1 Z EX_MEM_MemtoReg_o $end
$var wire 1 [ EX_MEM_MemWrite_o $end
$var wire 1 \ EX_MEM_MemRead_o $end
$var wire 32 ] EX_MEM_ALU_result_o [31:0] $end
$var wire 1 ^ Branch_o $end
$var wire 32 _ Add_PC_o [31:0] $end
$var wire 32 ` ALUdata_o [31:0] $end
$var wire 32 a ALUdata_i [31:0] $end
$var wire 1 b ALUSrc_o $end
$var wire 2 c ALUOp_o [1:0] $end
$var wire 3 d ALUCtrl_o [2:0] $end
$scope module ALU $end
$var wire 32 e data2_i [31:0] $end
$var wire 32 f data1_i [31:0] $end
$var wire 3 g ALUCtrl_i [2:0] $end
$var reg 32 h data_o [31:0] $end
$upscope $end
$scope module ALU_Control $end
$var wire 10 i funct_i [9:0] $end
$var wire 2 j ALUOp_i [1:0] $end
$var wire 3 k ALUCtrl_o [2:0] $end
$upscope $end
$scope module Add_PC $end
$var wire 32 l data2_in [31:0] $end
$var wire 32 m data_o [31:0] $end
$var wire 32 n data1_in [31:0] $end
$upscope $end
$scope module Branch_Unit $end
$var wire 32 o RS2data_i [31:0] $end
$var wire 32 p RS1data_i [31:0] $end
$var wire 32 q PC_o [31:0] $end
$var wire 32 r PC_i [31:0] $end
$var wire 32 s Imm_i [31:0] $end
$var wire 1 ^ Branch_i $end
$var reg 1 E Flush_o $end
$upscope $end
$scope module Control $end
$var wire 7 t Op_i [6:0] $end
$var wire 1 . RegWrite_o $end
$var wire 1 7 NoOp_i $end
$var wire 1 8 MemtoReg_o $end
$var wire 1 : MemWrite_o $end
$var wire 1 ; MemRead_o $end
$var wire 1 ^ Branch_o $end
$var wire 1 b ALUSrc_o $end
$var wire 2 u ALUOp_o [1:0] $end
$upscope $end
$scope module Data_Memory $end
$var wire 1 ! clk_i $end
$var wire 32 v data_o [31:0] $end
$var wire 32 w data_i [31:0] $end
$var wire 32 x addr_i [31:0] $end
$var wire 1 [ MemWrite_i $end
$var wire 1 \ MemRead_i $end
$upscope $end
$scope module EX_MEM $end
$var wire 32 y ALU_result_i [31:0] $end
$var wire 1 ! clk_i $end
$var wire 1 z rst_i $end
$var wire 1 G RegWrite_i $end
$var wire 32 { RS2data_i [31:0] $end
$var wire 5 | RDaddr_i [4:0] $end
$var wire 1 M MemtoReg_i $end
$var wire 1 N MemWrite_i $end
$var wire 1 O MemRead_i $end
$var reg 32 } ALU_result_o [31:0] $end
$var reg 1 \ MemRead_o $end
$var reg 1 [ MemWrite_o $end
$var reg 1 Z MemtoReg_o $end
$var reg 5 ~ RDaddr_o [4:0] $end
$var reg 32 !" RS2data_o [31:0] $end
$var reg 1 W RegWrite_o $end
$upscope $end
$scope module ForwardA $end
$var wire 32 "" data3_i [31:0] $end
$var wire 2 #" select_i [1:0] $end
$var wire 32 $" data_o [31:0] $end
$var wire 32 %" data2_i [31:0] $end
$var wire 32 &" data1_i [31:0] $end
$upscope $end
$scope module ForwardB $end
$var wire 32 '" data3_i [31:0] $end
$var wire 2 (" select_i [1:0] $end
$var wire 32 )" data_o [31:0] $end
$var wire 32 *" data2_i [31:0] $end
$var wire 32 +" data1_i [31:0] $end
$upscope $end
$scope module ForwardingUnit $end
$var wire 5 ," MEM_RDaddr_i [4:0] $end
$var wire 1 W MEM_RegWrite_i $end
$var wire 1 < WB_RegWrite_i $end
$var wire 5 -" WB_RDaddr_i [4:0] $end
$var wire 5 ." EX_RS2addr_i [4:0] $end
$var wire 5 /" EX_RS1addr_i [4:0] $end
$var reg 2 0" ForwardA_o [1:0] $end
$var reg 2 1" ForwardB_o [1:0] $end
$upscope $end
$scope module Hazard_Detection $end
$var wire 5 2" RS1addr_i [4:0] $end
$var wire 5 3" RS2addr_i [4:0] $end
$var wire 5 4" RDaddr_i [4:0] $end
$var wire 1 O MemRead_i $end
$var reg 1 7 NoOp_o $end
$var reg 1 5 PCWrite_o $end
$var reg 1 - Stall_o $end
$upscope $end
$scope module ID_EX $end
$var wire 2 5" ALUOp_i [1:0] $end
$var wire 1 b ALUSrc_i $end
$var wire 1 ; MemRead_i $end
$var wire 1 : MemWrite_i $end
$var wire 1 8 MemtoReg_i $end
$var wire 5 6" RDaddr_i [4:0] $end
$var wire 5 7" RS1addr_i [4:0] $end
$var wire 5 8" RS2addr_i [4:0] $end
$var wire 1 . RegWrite_i $end
$var wire 1 ! clk_i $end
$var wire 10 9" funct_i [9:0] $end
$var wire 1 :" rst_i $end
$var wire 32 ;" data2_i [31:0] $end
$var wire 32 <" data1_i [31:0] $end
$var wire 32 =" Imm_i [31:0] $end
$var reg 2 >" ALUOp_o [1:0] $end
$var reg 1 Q ALUSrc_o $end
$var reg 32 ?" Imm_o [31:0] $end
$var reg 1 O MemRead_o $end
$var reg 1 N MemWrite_o $end
$var reg 1 M MemtoReg_o $end
$var reg 5 @" RDaddr_o [4:0] $end
$var reg 5 A" RS1addr_o [4:0] $end
$var reg 5 B" RS2addr_o [4:0] $end
$var reg 1 G RegWrite_o $end
$var reg 32 C" data1_o [31:0] $end
$var reg 32 D" data2_o [31:0] $end
$var reg 10 E" funct_o [9:0] $end
$upscope $end
$scope module IF_ID $end
$var wire 1 E Flush_i $end
$var wire 1 - Stall_i $end
$var wire 1 ! clk_i $end
$var wire 1 F" rst_i $end
$var wire 32 G" instr_i [31:0] $end
$var wire 32 H" PC_i [31:0] $end
$var reg 32 I" PC_o [31:0] $end
$var reg 32 J" instr_o [31:0] $end
$upscope $end
$scope module Instruction_Memory $end
$var wire 32 K" instr_o [31:0] $end
$var wire 32 L" addr_i [31:0] $end
$upscope $end
$scope module MEM_WB $end
$var wire 32 M" ALU_result_i [31:0] $end
$var wire 1 Z MemtoReg_i $end
$var wire 5 N" RDaddr_i [4:0] $end
$var wire 1 W RegWrite_i $end
$var wire 1 ! clk_i $end
$var wire 32 O" data_i [31:0] $end
$var wire 1 P" rst_i $end
$var reg 32 Q" ALU_result_o [31:0] $end
$var reg 1 > MemtoReg_o $end
$var reg 5 R" RDaddr_o [4:0] $end
$var reg 1 < RegWrite_o $end
$var reg 32 S" data_o [31:0] $end
$upscope $end
$scope module MUX_ALUSrc $end
$var wire 32 T" data1_i [31:0] $end
$var wire 32 U" data2_i [31:0] $end
$var wire 1 Q select_i $end
$var wire 32 V" data_o [31:0] $end
$upscope $end
$scope module MUX_PC $end
$var wire 32 W" data1_i [31:0] $end
$var wire 32 X" data2_i [31:0] $end
$var wire 1 E select_i $end
$var wire 32 Y" data_o [31:0] $end
$upscope $end
$scope module MUX_WriteSrc $end
$var wire 32 Z" data1_i [31:0] $end
$var wire 32 [" data2_i [31:0] $end
$var wire 1 > select_i $end
$var wire 32 \" data_o [31:0] $end
$upscope $end
$scope module PC $end
$var wire 1 5 PCWrite_i $end
$var wire 1 ! clk_i $end
$var wire 32 ]" pc_i [31:0] $end
$var wire 1 " rst_i $end
$var reg 32 ^" pc_o [31:0] $end
$upscope $end
$scope module Registers $end
$var wire 5 _" RDaddr_i [4:0] $end
$var wire 32 `" RDdata_i [31:0] $end
$var wire 5 a" RS1addr_i [4:0] $end
$var wire 5 b" RS2addr_i [4:0] $end
$var wire 1 < RegWrite_i $end
$var wire 1 ! clk_i $end
$var wire 1 c" rst_i $end
$var wire 32 d" RS2data_o [31:0] $end
$var wire 32 e" RS1data_o [31:0] $end
$var integer 32 f" i [31:0] $end
$upscope $end
$scope module Sign_Extend $end
$var wire 12 g" data_i [11:0] $end
$var wire 32 h" data_o [31:0] $end
$upscope $end
$scope begin $ivl_for_loop0 $end
$var integer 32 i" i [31:0] $end
$upscope $end
$upscope $end
$upscope $end
$enddefinitions $end
#0
$dumpvars
b100000 i"
b0 h"
b0 g"
bx f"
b0 e"
b0 d"
zc"
b0 b"
b0 a"
b0 `"
b0 _"
bx ^"
bx ]"
b0 \"
b0 ["
b0 Z"
bx Y"
b0 X"
bx W"
b0 V"
b0 U"
b0 T"
b0 S"
b0 R"
b0 Q"
0P"
b0 O"
b0 N"
b0 M"
bx L"
bx K"
b0 J"
b0 I"
bx H"
bx G"
0F"
b0 E"
b0 D"
b0 C"
b0 B"
b0 A"
b0 @"
b0 ?"
b0 >"
b0 ="
b0 <"
b0 ;"
0:"
b0 9"
b0 8"
b0 7"
b0 6"
b0 5"
b0 4"
b0 3"
b0 2"
b0 1"
b0 0"
b0 /"
b0 ."
b0 -"
b0 ,"
b0 +"
b0 *"
b0 )"
b0 ("
b0 '"
b0 &"
b0 %"
b0 $"
b0 #"
b0 ""
b0 !"
b0 ~
b0 }
b0 |
b0 {
0z
b0 y
b0 x
b0 w
b0 v
b0 u
b0 t
b0 s
b0 r
b0 q
b0 p
b0 o
bx n
bx m
b100 l
b110 k
b0 j
b0 i
b0 h
b110 g
b0 f
b0 e
b110 d
b0 c
0b
b0 a
b0 `
bx _
0^
b0 ]
0\
0[
0Z
b0 Y
b0 X
0W
b0 V
b0 U
b0 T
b0 S
b0 R
0Q
b0 P
0O
0N
0M
b0 L
b0 K
b0 J
b0 I
b0 H
0G
b0 F
0E
b0 D
b0 C
b0 B
b0 A
b0 @
b0 ?
0>
b0 =
0<
0;
0:
b0 9
08
07
b0 6
15
b0 4
b0 3
b0 2
b0 1
b0 0
b0 /
0.
0-
b0 ,
b0 +
bx *
bx )
bx (
b0 '
b11 &
b100000 %
b0 $
b0 #
1"
0!
$end
#6
b110000010011 *
b110000010011 G"
b110000010011 K"
b100 )
b100 Y"
b100 ]"
b100 _
b100 m
b100 W"
b0 (
b0 n
b0 H"
b0 L"
b0 ^"
1F"
1:"
1z
1P"
0"
#12
0F"
0:"
0z
0P"
1"
#25
b10000000000110100010011 *
b10000000000110100010011 G"
b10000000000110100010011 K"
b1000 )
b1000 Y"
b1000 ]"
b1000 _
b1000 m
b1000 W"
b100 (
b100 n
b100 H"
b100 L"
b100 ^"
1.
1b
b11000 4
b11000 6"
b10011 6
b10011 t
b110000010011 D
b110000010011 J"
b1 #
1!
#50
0!
#75
b10000000000111000010011 *
b10000000000111000010011 G"
b10000000000111000010011 K"
b1100 )
b1100 Y"
b1100 ]"
b11000 L
b11000 |
b11000 4"
b11000 @"
1Q
1G
b1100 _
b1100 m
b1100 W"
b1000 (
b1000 n
b1000 H"
b1000 L"
b1000 ^"
b100 A
b100 s
b100 ="
b100 h"
b100 B
b100 g"
b11010 4
b11010 6"
b100 0
b100 3"
b100 8"
b100 b"
b10 #
b1100 ,
b1100 q
b1100 X"
b100 C
b100 r
b100 I"
b10000000000110100010011 D
b10000000000110100010011 J"
1!
#100
0!
#125
b100 `
b100 h
b100 y
b100 a
b100 e
b100 V"
b11111111111100000000011110010011 *
b11111111111100000000011110010011 G"
b11111111111100000000011110010011 K"
b10000 )
b10000 Y"
b10000 ]"
b11010 L
b11010 |
b11010 4"
b11010 @"
b100 I
b100 ."
b100 B"
b100 P
b100 ?"
b100 U"
b11000 Y
b11000 ~
b11000 ,"
b11000 N"
1W
b10000 _
b10000 m
b10000 W"
b1100 (
b1100 n
b1100 H"
b1100 L"
b1100 ^"
b11100 4
b11100 6"
b10000 ,
b10000 q
b10000 X"
b1000 C
b1000 r
b1000 I"
b10000000000111000010011 D
b10000000000111000010011 J"
b11 #
1!
#150
0!
#175
b11110011010000110010110011 *
b11110011010000110010110011 G"
b11110011010000110010110011 K"
b10100 )
b10100 Y"
b10100 ]"
b11000 =
b11000 -"
b11000 R"
b11000 _"
1<
b11010 Y
b11010 ~
b11010 ,"
b11010 N"
b100 ]
b100 x
b100 }
b100 ""
b100 '"
b100 M"
b11100 L
b11100 |
b11100 4"
b11100 @"
b10100 _
b10100 m
b10100 W"
b10000 (
b10000 n
b10000 H"
b10000 L"
b10000 ^"
b11111111111111111111111111111111 A
b11111111111111111111111111111111 s
b11111111111111111111111111111111 ="
b11111111111111111111111111111111 h"
b111111111111 B
b111111111111 g"
b111110 /
b111110 o
b111110 ;"
b111110 d"
b1111111000 +
b1111111000 9"
b1111 4
b1111 6"
b11111 0
b11111 3"
b11111 8"
b11111 b"
b100 #
b1010 ,
b1010 q
b1010 X"
b1100 C
b1100 r
b1100 I"
b11111111111100000000011110010011 D
b11111111111100000000011110010011 J"
1!
#200
0!
#225
b11111111111111111111111111111111 `
b11111111111111111111111111111111 h
b11111111111111111111111111111111 y
b11111111111111111111111111111111 a
b11111111111111111111111111111111 e
b11111111111111111111111111111111 V"
b111110 S
b111110 {
b111110 )"
b111110 T"
b100 3
b100 %"
b100 *"
b100 \"
b100 `"
b11111111111111010000110100010011 *
b11111111111111010000110100010011 G"
b11111111111111010000110100010011 K"
b11000 )
b11000 Y"
b11000 ]"
b1111 L
b1111 |
b1111 4"
b1111 @"
b11111 I
b11111 ."
b11111 B"
b1111111000 F
b1111111000 i
b1111111000 E"
b11111111111111111111111111111111 P
b11111111111111111111111111111111 ?"
b11111111111111111111111111111111 U"
b111110 H
b111110 +"
b111110 D"
b11100 Y
b11100 ~
b11100 ,"
b11100 N"
b11010 =
b11010 -"
b11010 R"
b11010 _"
b100 @
b100 Q"
b100 Z"
b11000 _
b11000 m
b11000 W"
b10100 (
b10100 n
b10100 H"
b10100 L"
b10100 ^"
b111100 A
b111100 s
b111100 ="
b111100 h"
b111100 B
b111100 g"
b111000 /
b111000 o
b111000 ;"
b111000 d"
b100 1
b100 p
b100 <"
b100 e"
b10 c
b10 u
b10 5"
0b
b1000 +
b1000 9"
b11001 4
b11001 6"
b11100 0
b11100 3"
b11100 8"
b11100 b"
b11010 2
b11010 2"
b11010 7"
b11010 a"
b110011 6
b110011 t
b10001000 ,
b10001000 q
b10001000 X"
b10000 C
b10000 r
b10000 I"
b11110011010000110010110011 D
b11110011010000110010110011 J"
b101 #
1!
#250
0!
#275
b101 d
b101 g
b101 k
b10000 `
b10000 h
b10000 y
b1 T
b1 ("
b1 1"
b100 S
b100 {
b100 )"
b100 T"
b100 U
b100 f
b100 $"
b100 a
b100 e
b100 V"
b11001010110110000011 *
b11001010110110000011 G"
b11001010110110000011 K"
b11100 )
b11100 Y"
b11100 ]"
b11100 =
b11100 -"
b11100 R"
b11100 _"
b1111 Y
b1111 ~
b1111 ,"
b1111 N"
b111110 X
b111110 w
b111110 !"
b11111111111111111111111111111111 ]
b11111111111111111111111111111111 x
b11111111111111111111111111111111 }
b11111111111111111111111111111111 ""
b11111111111111111111111111111111 '"
b11111111111111111111111111111111 M"
b11001 L
b11001 |
b11001 4"
b11001 @"
b11100 I
b11100 ."
b11100 B"
b11010 K
b11010 /"
b11010 A"
b1000 F
b1000 i
b1000 E"
b111100 P
b111100 ?"
b111100 U"
b111000 H
b111000 +"
b111000 D"
b100 J
b100 &"
b100 C"
0Q
b10 R
b10 j
b10 >"
b11100 _
b11100 m
b11100 W"
b11000 (
b11000 n
b11000 H"
b11000 L"
b11000 ^"
b11111111111111111111111111111111 A
b11111111111111111111111111111111 s
b11111111111111111111111111111111 ="
b11111111111111111111111111111111 h"
b111111111111 B
b111111111111 g"
b111110 /
b111110 o
b111110 ;"
b111110 d"
b0 c
b0 u
b0 5"
1b
b1111111000 +
b1111111000 9"
b11010 4
b11010 6"
b11111 0
b11111 3"
b11111 8"
b11111 b"
b10011 6
b10011 t
b110 #
b10010 ,
b10010 q
b10010 X"
b10100 C
b10100 r
b10100 I"
b11111111111111010000110100010011 D
b11111111111111010000110100010011 J"
1!
#300
0!
#325
b110 d
b110 g
b110 k
b11 `
b11 h
b11 y
b111110 S
b111110 {
b111110 )"
b111110 T"
b11111111111111111111111111111111 a
b11111111111111111111111111111111 e
b11111111111111111111111111111111 V"
b0 T
b0 ("
b0 1"
b11111111111111111111111111111111 3
b11111111111111111111111111111111 %"
b11111111111111111111111111111111 *"
b11111111111111111111111111111111 \"
b11111111111111111111111111111111 `"
b1101111000000110000110011 *
b1101111000000110000110011 G"
b1101111000000110000110011 K"
b100000 )
b100000 Y"
b100000 ]"
b11010 L
b11010 |
b11010 4"
b11010 @"
b11111 I
b11111 ."
b11111 B"
b1111111000 F
b1111111000 i
b1111111000 E"
b11111111111111111111111111111111 P
b11111111111111111111111111111111 ?"
b11111111111111111111111111111111 U"
b111110 H
b111110 +"
b111110 D"
1Q
b0 R
b0 j
b0 >"
b11001 Y
b11001 ~
b11001 ,"
b11001 N"
b100 X
b100 w
b100 !"
b10000 ]
b10000 x
b10000 }
b10000 ""
b10000 '"
b10000 M"
b1111 =
b1111 -"
b1111 R"
b1111 _"
b11111111111111111111111111111111 @
b11111111111111111111111111111111 Q"
b11111111111111111111111111111111 Z"
b100000 _
b100000 m
b100000 W"
b11100 (
b11100 n
b11100 H"
b11100 L"
b11100 ^"
b0 A
b0 s
b0 ="
b0 h"
b0 B
b0 g"
18
1;
b0 /
b0 o
b0 ;"
b0 d"
b11111111111111111111111111100111 1
b11111111111111111111111111100111 p
b11111111111111111111111111100111 <"
b11111111111111111111111111100111 e"
b10 +
b10 9"
b11011 4
b11011 6"
b0 0
b0 3"
b0 8"
b0 b"
b11001 2
b11001 2"
b11001 7"
b11001 a"
b11 6
b11 t
b11000 ,
b11000 q
b11000 X"
b11000 C
b11000 r
b11000 I"
b11001010110110000011 D
b11001010110110000011 J"
b111 #
1!
#350
0!
#375
b11 d
b11 g
b11 k
b10000 `
b10000 h
b10000 y
0.
b10000 3
b10000 %"
b10000 *"
b10000 \"
b10000 `"
b1 V
b1 #"
b1 0"
b0 a
b0 e
b0 V"
b0 S
b0 {
b0 )"
b0 T"
b10000 U
b10000 f
b10000 $"
17
1-
05
b111111010000010001100011 *
b111111010000010001100011 G"
b111111010000010001100011 K"
b100100 )
b100100 Y"
b100100 ]"
b11001 =
b11001 -"
b11001 R"
b11001 _"
b10000 @
b10000 Q"
b10000 Z"
b11010 Y
b11010 ~
b11010 ,"
b11010 N"
b111110 X
b111110 w
b111110 !"
b11 ]
b11 x
b11 }
b11 ""
b11 '"
b11 M"
b11011 L
b11011 |
b11011 4"
b11011 @"
b0 I
b0 ."
b0 B"
b11001 K
b11001 /"
b11001 A"
b10 F
b10 i
b10 E"
b0 P
b0 ?"
b0 U"
b0 H
b0 +"
b0 D"
b11111111111111111111111111100111 J
b11111111111111111111111111100111 &"
b11111111111111111111111111100111 C"
1O
1M
b100100 _
b100100 m
b100100 W"
b100000 (
b100000 n
b100000 H"
b100000 L"
b100000 ^"
b11011 A
b11011 s
b11011 ="
b11011 h"
b11011 B
b11011 g"
08
0;
b11111111111111111111111111100101 /
b11111111111111111111111111100101 o
b11111111111111111111111111100101 ;"
b11111111111111111111111111100101 d"
b0 1
b0 p
b0 <"
b0 e"
b10 c
b10 u
b10 5"
0b
b0 +
b0 9"
b11000 4
b11000 6"
b11011 0
b11011 3"
b11011 8"
b11011 b"
b11000 2
b11000 2"
b11000 7"
b11000 a"
b110011 6
b110011 t
b1000 #
b1010010 ,
b1010010 q
b1010010 X"
b11100 C
b11100 r
b11100 I"
b1101111000000110000110011 D
b1101111000000110000110011 J"
1!
#400
0!
#425
b10000 `
b10000 h
b10000 y
b10000 a
b10000 e
b10000 V"
1.
b0 U
b0 f
b0 $"
b10000 S
b10000 {
b10000 )"
b10000 T"
07
0-
15
b11101 9
b11101 v
b11101 O"
b10 T
b10 ("
b10 1"
b0 V
b0 #"
b0 0"
b11 3
b11 %"
b11 *"
b11 \"
b11 `"
b11000 L
b11000 |
b11000 4"
b11000 @"
b11011 I
b11011 ."
b11011 B"
b11000 K
b11000 /"
b11000 A"
b0 F
b0 i
b0 E"
b11011 P
b11011 ?"
b11011 U"
b11111111111111111111111111100101 H
b11111111111111111111111111100101 +"
b11111111111111111111111111100101 D"
b0 J
b0 &"
b0 C"
0Q
b10 R
b10 j
b10 >"
0O
0M
0G
b11011 Y
b11011 ~
b11011 ,"
b11011 N"
b0 X
b0 w
b0 !"
b10000 ]
b10000 x
b10000 }
b10000 ""
b10000 '"
b10000 M"
1\
1Z
b11010 =
b11010 -"
b11010 R"
b11010 _"
b11 @
b11 Q"
b11 Z"
b1001 #
b1 '
1!
#450
0!
#475
b11101 `
b11101 h
b11101 y
b11101 a
b11101 e
b11101 V"
b11101 S
b11101 {
b11101 )"
b11101 T"
b11101 3
b11101 %"
b11101 *"
b11101 \"
b11101 `"
b0 9
b0 v
b0 O"
b1 T
b1 ("
b1 1"
b11111110000000000000011011100011 *
b11111110000000000000011011100011 G"
b11111110000000000000011011100011 K"
b101000 )
b101000 Y"
b101000 ]"
b11011 =
b11011 -"
b11011 R"
b11011 _"
b11101 ?
b11101 S"
b11101 ["
b10000 @
b10000 Q"
b10000 Z"
1>
b11000 Y
b11000 ~
b11000 ,"
b11000 N"
b10000 X
b10000 w
b10000 !"
0\
0Z
0W
1G
b101000 _
b101000 m
b101000 W"
b100100 (
b100100 n
b100100 H"
b100100 L"
b100100 ^"
b100 A
b100 s
b100 ="
b100 h"
b100 B
b100 g"
0.
1^
b11111111111111111111111111111111 /
b11111111111111111111111111111111 o
b11111111111111111111111111111111 ;"
b11111111111111111111111111111111 d"
b11 1
b11 p
b11 <"
b11 e"
b11 c
b11 u
b11 5"
b1000 4
b1000 6"
b1111 0
b1111 3"
b1111 8"
b1111 b"
b11010 2
b11010 2"
b11010 7"
b11010 a"
b1100011 6
b1100011 t
b1010 #
b101000 ,
b101000 q
b101000 X"
b100000 C
b100000 r
b100000 I"
b111111010000010001100011 D
b111111010000010001100011 J"
1!
#500
0!
#525
b100 d
b100 g
b100 k
b11111111111111111111111111111111 a
b11111111111111111111111111111111 e
b11111111111111111111111111111111 V"
b100 `
b100 h
b100 y
b11111111111111111111111111111111 S
b11111111111111111111111111111111 {
b11111111111111111111111111111111 )"
b11111111111111111111111111111111 T"
b11 U
b11 f
b11 $"
b10000 3
b10000 %"
b10000 *"
b10000 \"
b10000 `"
b0 T
b0 ("
b0 1"
b1100000000010111000100011 *
b1100000000010111000100011 G"
b1100000000010111000100011 K"
b1000 L
b1000 |
b1000 4"
b1000 @"
b1111 I
b1111 ."
b1111 B"
b11010 K
b11010 /"
b11010 A"
b100 P
b100 ?"
b100 U"
b11111111111111111111111111111111 H
b11111111111111111111111111111111 +"
b11111111111111111111111111111111 D"
b11 J
b11 &"
b11 C"
b11 R
b11 j
b11 >"
0G
b11101 X
b11101 w
b11101 !"
b11101 ]
b11101 x
b11101 }
b11101 ""
b11101 '"
b11101 M"
1W
b11000 =
b11000 -"
b11000 R"
b11000 _"
b0 ?
b0 S"
b0 ["
0>
0<
b101100 _
b101100 m
b101100 W"
b101000 (
b101000 n
b101000 H"
b101000 L"
b101000 ^"
b10000 )
b10000 Y"
b10000 ]"
b11111111111111111111111111110110 A
b11111111111111111111111111110110 s
b11111111111111111111111111110110 ="
b11111111111111111111111111110110 h"
b111111110110 B
b111111110110 g"
1E
b0 /
b0 o
b0 ;"
b0 d"
b0 1
b0 p
b0 <"
b0 e"
b1111111000 +
b1111111000 9"
b1101 4
b1101 6"
b0 0
b0 3"
b0 8"
b0 b"
b0 2
b0 2"
b0 7"
b0 a"
b10000 ,
b10000 q
b10000 X"
b100100 C
b100100 r
b100100 I"
b11111110000000000000011011100011 D
b11111110000000000000011011100011 J"
b1011 #
1!
#550
0!
#575
b0 a
b0 e
b0 V"
b0 `
b0 h
b0 y
b11101 3
b11101 %"
b11101 *"
b11101 \"
b11101 `"
b0 S
b0 {
b0 )"
b0 T"
b0 U
b0 f
b0 $"
b11110011010000110010110011 *
b11110011010000110010110011 G"
b11110011010000110010110011 K"
b11101 @
b11101 Q"
b11101 Z"
1<
b1000 Y
b1000 ~
b1000 ,"
b1000 N"
b11111111111111111111111111111111 X
b11111111111111111111111111111111 w
b11111111111111111111111111111111 !"
b100 ]
b100 x
b100 }
b100 ""
b100 '"
b100 M"
0W
b1101 L
b1101 |
b1101 4"
b1101 @"
b0 I
b0 ."
b0 B"
b0 K
b0 /"
b0 A"
b1111111000 F
b1111111000 i
b1111111000 E"
b11111111111111111111111111110110 P
b11111111111111111111111111110110 ?"
b11111111111111111111111111110110 U"
b0 H
b0 +"
b0 D"
b0 J
b0 &"
b0 C"
b10100 _
b10100 m
b10100 W"
b10000 (
b10000 n
b10000 H"
b10000 L"
b10000 ^"
b0 c
b0 u
b0 5"
0E
b0 A
b0 s
b0 ="
b0 h"
b0 B
b0 g"
0^
b10100 )
b10100 Y"
b10100 ]"
b0 +
b0 9"
b0 4
b0 6"
b0 6
b0 t
b1100 #
b1 $
b0 ,
b0 q
b0 X"
b0 C
b0 r
b0 I"
b0 D
b0 J"
1!
#600
0!
#625
b110 d
b110 g
b110 k
b100 3
b100 %"
b100 *"
b100 \"
b100 `"
b11111111111111010000110100010011 *
b11111111111111010000110100010011 G"
b11111111111111010000110100010011 K"
b11000 )
b11000 Y"
b11000 ]"
b0 L
b0 |
b0 4"
b0 @"
b0 F
b0 i
b0 E"
b0 P
b0 ?"
b0 U"
b0 R
b0 j
b0 >"
b1101 Y
b1101 ~
b1101 ,"
b1101 N"
b0 X
b0 w
b0 !"
b0 ]
b0 x
b0 }
b0 ""
b0 '"
b0 M"
b1000 =
b1000 -"
b1000 R"
b1000 _"
b100 @
b100 Q"
b100 Z"
0<
b11000 _
b11000 m
b11000 W"
b10100 (
b10100 n
b10100 H"
b10100 L"
b10100 ^"
b111100 A
b111100 s
b111100 ="
b111100 h"
b111100 B
b111100 g"
1.
b100 /
b100 o
b100 ;"
b100 d"
b11 1
b11 p
b11 <"
b11 e"
b10 c
b10 u
b10 5"
b1000 +
b1000 9"
b11001 4
b11001 6"
b11100 0
b11100 3"
b11100 8"
b11100 b"
b11010 2
b11010 2"
b11010 7"
b11010 a"
b110011 6
b110011 t
b10001000 ,
b10001000 q
b10001000 X"
b10000 C
b10000 r
b10000 I"
b11110011010000110010110011 D
b11110011010000110010110011 J"
b1101 #
1!
#650
0!
